Division,WeightClassKg,Place,Name,Team,BodyweightKg,Best3SquatKg,Best3BenchKg,Best3DeadliftKg,TotalKg,Equipment,Event,Sex,BirthDate
Boys,51.71,1,Manuel Padilla,Rice,50.44,129.27,79.38,133.81,342.46,Single-ply,SBD,M,
Boys,51.71,2,Jacob Havelka,McGregor,50.89,133.81,68.04,140.61,342.46,Single-ply,SBD,M,
Boys,51.71,3,Luis Aguirre,West,49.53,131.54,83.91,124.74,340.19,Single-ply,SBD,M,
Boys,51.71,4,Landon Powers,Troy,49.17,106.59,72.57,106.59,285.76,Single-ply,SBD,M,
Boys,51.71,5,Miguel Pineda,Hillsboro,44.27,104.33,52.16,115.67,272.16,Single-ply,SBD,M,
Boys,51.71,6,Eric Ramos,Troy,51.62,88.45,70.31,113.4,272.16,Single-ply,SBD,M,
Boys,51.71,DQ,Zayden Heaton,Moody,48.72,68.04,,,,Single-ply,SBD,M,
Boys,55.79,1,Caden Brister,Gatesville,55.07,158.76,81.65,138.35,378.75,Single-ply,SBD,M,
Boys,55.79,2,Humberto Gonzalez,Hillsboro,55.7,140.61,77.11,142.88,360.61,Single-ply,SBD,M,
Boys,55.79,3,Kevin Ibanez,Troy,53.52,131.54,72.57,149.69,353.8,Single-ply,SBD,M,
Boys,55.79,4,Nick Munoz,West,54.7,127.01,74.84,136.08,337.93,Single-ply,SBD,M,
Boys,55.79,5,Garrett Maddox,China Spring,54.7,133.81,79.38,124.74,337.93,Single-ply,SBD,M,
Boys,55.79,6,Ray Ochoa,Clifton,55.7,102.06,65.77,124.74,292.57,Single-ply,SBD,M,
Boys,55.79,7,Gael Gonzalez,Hillsboro,53.89,102.06,49.9,108.86,260.82,Single-ply,SBD,M,
Boys,55.79,DQ,Ricky Chavarria,Moody,54.88,122.47,,,,Single-ply,SBD,M,
Boys,55.79,DQ,Oscar Salazar,Waco La Vega,54.98,120.2,72.57,,,Single-ply,SBD,M,
Boys,59.87,1,Caidn Kocian,West,59.42,199.58,108.86,204.12,512.56,Single-ply,SBD,M,
Boys,59.87,2,Nicholas Thompson,West,59.42,165.56,115.67,181.44,462.66,Single-ply,SBD,M,
Boys,59.87,3,Dustin Chautin,Maypearl,57.88,151.95,97.52,170.1,419.57,Single-ply,SBD,M,
Boys,59.87,4,Andrew Santoyo,Rice,58.51,158.76,77.11,161.03,396.89,Single-ply,SBD,M,
Boys,59.87,5,Krissangel Lopez,Rice,56.7,149.69,79.38,165.56,394.63,Single-ply,SBD,M,
Boys,59.87,6,Nathan Skipworth,Bosqueville,58.42,154.22,90.72,147.42,392.36,Single-ply,SBD,M,
Boys,59.87,7,Eddie Gaona,Clifton,58.15,140.61,74.84,161.03,376.48,Single-ply,SBD,M,
Boys,59.87,8,Ryder King,Bosqueville,59.87,124.74,79.38,145.15,349.27,Single-ply,SBD,M,
Boys,59.87,9,Aaron Hughitt,Gatesville,59.87,113.4,72.57,113.4,299.37,Single-ply,SBD,M,
Boys,59.87,10,Isaac Perez,Waco La Vega,59.6,106.59,52.16,106.59,265.35,Single-ply,SBD,M,
Boys,59.87,DQ,Juan Cortez,Troy,57.24,133.81,,,,Single-ply,SBD,M,
Boys,67.13,1,Diego Pena,Troy,65.95,199.58,129.27,210.92,539.77,Single-ply,SBD,M,
Boys,67.13,2,Leonardo Lopez,Hillsboro,63.87,190.51,124.74,188.24,503.49,Single-ply,SBD,M,
Boys,67.13,3,Jon Harris,McGregor,65.5,195.04,106.59,163.29,464.93,Single-ply,SBD,M,
Boys,67.13,4,Landon Kuehn,China Spring,65.95,167.83,99.79,174.63,442.25,Single-ply,SBD,M,
Boys,67.13,5,Landry May,China Spring,65.05,167.83,90.72,161.03,419.57,Single-ply,SBD,M,
Boys,67.13,6,Jayden Melendrez,Lorena,60.87,161.03,97.52,154.22,412.77,Single-ply,SBD,M,
Boys,67.13,7,Cannon Cook,West,66.04,163.29,81.65,167.83,412.77,Single-ply,SBD,M,
Boys,67.13,8,Blake Franks,McGregor,66.86,138.35,83.91,170.1,392.36,Single-ply,SBD,M,
Boys,67.13,9,Romeo Silvas,Hillsboro,61.23,154.22,83.91,142.88,381.02,Single-ply,SBD,M,
Boys,67.13,10,Jayden Caudle,Moody,61.14,124.74,65.77,170.1,360.61,Single-ply,SBD,M,
Boys,67.13,11,Cooper Wright,Bosqueville,61.6,129.27,86.18,140.61,356.07,Single-ply,SBD,M,
Boys,67.13,12,Landon Knox,Clifton,60.51,124.74,68.04,158.76,351.53,Single-ply,SBD,M,
Boys,67.13,13,Ethan Els,Waco Connally,64.59,133.81,92.99,124.74,351.53,Single-ply,SBD,M,
Boys,67.13,14,Coulson Mayfiel,Maypearl,64.05,113.4,77.11,127.01,317.51,Single-ply,SBD,M,
Boys,67.13,15,Jonathn Bravo,Bosqueville,66.68,113.4,70.31,124.74,308.44,Single-ply,SBD,M,
Boys,67.13,16,Christas Burns,Waco Connally,60.24,106.59,65.77,92.99,265.35,Single-ply,SBD,M,
Boys,67.13,DQ,Nicky Nieves,McGregor,66.86,197.31,120.2,,,Single-ply,SBD,M,
Boys,74.84,1,Lj Hall,Gatesville,72.12,183.7,140.61,213.19,537.51,Single-ply,SBD,M,
Boys,74.84,2,Evan Stewart,West,73.12,199.58,138.35,195.04,532.97,Single-ply,SBD,M,
Boys,74.84,3,Brice Lechler,McGregor,72.94,197.31,138.35,190.51,526.17,Single-ply,SBD,M,
Boys,74.84,4,Moses Garza,China Spring,72.48,188.24,92.99,195.04,476.27,Single-ply,SBD,M,
Boys,74.84,5,Kasen Taylor,Lorena,70.31,190.51,106.59,170.1,467.2,Single-ply,SBD,M,
Boys,74.84,6,Tyler Blakemore,West,72.67,176.9,92.99,195.04,464.93,Single-ply,SBD,M,
Boys,74.84,7,Ryan Holliday,Maypearl,69.94,154.22,104.33,181.44,439.98,Single-ply,SBD,M,
Boys,74.84,8,Cooper Staton,Moody,69.85,154.22,90.72,181.44,426.38,Single-ply,SBD,M,
Boys,74.84,9,Coy Klish,West,70.58,156.49,97.52,165.56,419.57,Single-ply,SBD,M,
Boys,74.84,10,Justin Moore,Bosqueville,70.03,163.29,95.25,154.22,412.77,Single-ply,SBD,M,
Boys,74.84,11,Juan Galindo,Rice,71.03,142.88,83.91,156.49,383.29,Single-ply,SBD,M,
Boys,74.84,12,Hunter Bird,Bosqueville,70.94,136.08,81.65,147.42,365.14,Single-ply,SBD,M,
Boys,74.84,13,Paxton Jackson,Moody,68.31,136.08,74.84,136.08,347,Single-ply,SBD,M,
Boys,74.84,14,Sylvester Fernandez,Maypearl,74.39,131.54,70.31,127.01,328.85,Single-ply,SBD,M,
Boys,74.84,15,Blaine Crossland,Maypearl,71.85,102.06,61.23,129.27,292.57,Single-ply,SBD,M,
Boys,74.84,16,Hunter Swindall,Gatesville,70.67,102.06,54.43,122.47,278.96,Single-ply,SBD,M,
Boys,74.84,DQ,Ricardo Martinez,Hillsboro,74.84,229.06,,,,Single-ply,SBD,M,
Boys,74.84,DQ,Bryice Polk,McGregor,72.85,,,,,Single-ply,SBD,M,
Boys,74.84,DQ,Jonah Bradshaw,Moody,72.67,154.22,106.59,,,Single-ply,SBD,M,
Boys,74.84,DQ,Ryan Gullege,Troy,73.66,149.69,,,,Single-ply,SBD,M,
Boys,82.1,1,Jaylen Trotter,China Spring,80.29,222.26,142.88,226.8,591.94,Single-ply,SBD,M,
Boys,82.1,2,Jace Carr,Troy,81.92,226.8,145.15,183.7,555.65,Single-ply,SBD,M,
Boys,82.1,3,Jorge Soria,Hillsboro,79.47,208.65,138.35,195.04,542.04,Single-ply,SBD,M,
Boys,82.1,4,Jacob Mott,China Spring,79.92,204.12,106.59,210.92,521.63,Single-ply,SBD,M,
Boys,82.1,5,Tyler Jaster,West,76.75,199.58,117.93,197.31,514.83,Single-ply,SBD,M,
Boys,82.1,6,Keith Dailey,Moody,81.83,210.92,86.18,208.65,505.76,Single-ply,SBD,M,
Boys,82.1,7,Renfro Steele,Maypearl,80.01,192.78,106.59,199.58,498.95,Single-ply,SBD,M,
Boys,82.1,8,Jackson King,Bosqueville,80.47,190.51,113.4,174.63,478.54,Single-ply,SBD,M,
Boys,82.1,9,Zach Hohertz,Clifton,80.2,170.1,97.52,195.04,462.66,Single-ply,SBD,M,
Boys,82.1,10,Jeremiah Jones,Waco La Vega,82.1,183.7,97.52,163.29,444.52,Single-ply,SBD,M,
Boys,82.1,11,David Sims,Gatesville,79.2,165.56,106.59,151.95,424.11,Single-ply,SBD,M,
Boys,82.1,12,Levi Knox,Clifton,76.48,142.88,111.13,161.03,415.04,Single-ply,SBD,M,
Boys,82.1,13,Tyron Shed,Waco Connally,78.2,142.88,79.38,154.22,376.48,Single-ply,SBD,M,
Boys,82.1,14,Shayne Adams,West,79.11,120.2,79.38,142.88,342.46,Single-ply,SBD,M,
Boys,82.1,DQ,Devan Stoglin,Waco Connally,75.75,136.08,77.11,,,Single-ply,SBD,M,
Boys,82.1,DQ,Jason Yates,Moody,81.74,124.74,,,,Single-ply,SBD,M,
Boys,82.1,DQ,Cameron Elston,Lorena,80.65,195.04,,,,Single-ply,SBD,M,
Boys,89.81,1,Jaydon Lang,Waco La Vega,84.91,260.82,129.27,263.08,653.17,Single-ply,SBD,M,
Boys,89.81,2,Aiden King,McGregor,88.45,256.28,149.69,238.14,644.1,Single-ply,SBD,M,
Boys,89.81,3,Dawson Exline,China Spring,89.45,251.74,136.08,244.94,632.76,Single-ply,SBD,M,
Boys,89.81,4,Dylan Torres,Troy,87.82,238.14,138.35,235.87,612.35,Single-ply,SBD,M,
Boys,89.81,5,Juan Paredes,Rice,84.91,229.06,136.08,213.19,578.33,Single-ply,SBD,M,
Boys,89.81,6,Cayden Mata,Gatesville,83.1,219.99,124.74,226.8,571.53,Single-ply,SBD,M,
Boys,89.81,7,Riley Finney,Clifton,84.73,226.8,138.35,188.24,553.38,Single-ply,SBD,M,
Boys,89.81,8,Tristan Exline,China Spring,86.82,219.99,102.06,226.8,548.85,Single-ply,SBD,M,
Boys,89.81,9,Sergio Garcia,Clifton,88.9,206.38,117.93,190.51,514.83,Single-ply,SBD,M,
Boys,89.81,10,Tristan Williams,Lorena,83.64,215.46,99.79,190.51,505.76,Single-ply,SBD,M,
Boys,89.81,11,Ryder Merritt,Maypearl,84.37,204.12,111.13,185.97,501.22,Single-ply,SBD,M,
Boys,89.81,12,Wyatt Saunders,Moody,88.36,192.78,117.93,190.51,501.22,Single-ply,SBD,M,
Boys,89.81,13,Luis Garcia,Hillsboro,88.99,172.37,136.08,185.97,494.42,Single-ply,SBD,M,
Boys,89.81,14,Josh Heath,West,84.46,179.17,104.33,185.97,469.47,Single-ply,SBD,M,
Boys,89.81,15,Xavier Gutierrez,Bosqueville,84.28,172.37,113.4,176.9,462.66,Single-ply,SBD,M,
Boys,89.81,16,Jaysean Malone,Waco Connally,87.54,165.56,92.99,174.63,433.18,Single-ply,SBD,M,
Boys,89.81,17,Titan Richards,Maypearl,84.64,156.49,99.79,167.83,424.11,Single-ply,SBD,M,
Boys,89.81,18,Nathan Elliot,Gatesville,88.27,163.29,106.59,154.22,424.11,Single-ply,SBD,M,
Boys,89.81,19,Brett Holloman,West,86.64,154.22,99.79,149.69,403.7,Single-ply,SBD,M,
Boys,89.81,20,Lane Hill,Bosqueville,87.82,149.69,86.18,165.56,401.43,Single-ply,SBD,M,
Boys,89.81,21,Sean Magana,Moody,89.63,106.59,79.38,142.88,328.85,Single-ply,SBD,M,
Boys,89.81,DQ,Jacob Gibson,Waco Connally,84.37,,,,,Single-ply,SBD,M,
Boys,99.79,1,Jamien Henley,Waco La Vega,98.97,278.96,181.44,254.01,714.41,Single-ply,SBD,M,
Boys,99.79,2,Wyatt Jones,Lorena,98.16,254.01,124.74,242.67,621.42,Single-ply,SBD,M,
Boys,99.79,3,Colby Hale,China Spring,96.71,242.67,140.61,235.87,619.15,Single-ply,SBD,M,
Boys,99.79,4,Kelvin Eagans,Hillsboro,94.89,215.46,124.74,242.67,582.87,Single-ply,SBD,M,
Boys,99.79,5,Thiela Alvarado,Gatesville,93.08,231.33,127.01,213.19,571.53,Single-ply,SBD,M,
Boys,99.79,6,Vinny Blount,Troy,93.71,201.85,129.27,213.19,544.31,Single-ply,SBD,M,
Boys,99.79,7,Matthew Hobbs,Clifton,98.16,183.7,111.13,217.72,512.56,Single-ply,SBD,M,
Boys,99.79,8,Brayden Minton,Gatesville,95.35,181.44,117.93,199.58,498.95,Single-ply,SBD,M,
Boys,99.79,9,Ethan Hare,Bosqueville,99.06,195.04,90.72,181.44,467.2,Single-ply,SBD,M,
Boys,99.79,10,Lucas Braswell,Lorena,94.44,181.44,102.06,170.1,453.59,Single-ply,SBD,M,
Boys,99.79,11,Julius Chavaria,Troy,98.43,156.49,120.2,167.83,444.52,Single-ply,SBD,M,
Boys,99.79,12,Chris Guevara,Rice,93.17,181.44,88.45,147.42,417.3,Single-ply,SBD,M,
Boys,99.79,13,Cj Porter,Troy,97.07,142.88,97.52,158.76,399.16,Single-ply,SBD,M,
Boys,99.79,DQ,Caden Page,Clifton,96.62,188.24,,,,Single-ply,SBD,M,
Boys,99.79,DQ,Dylan Peek,Maypearl,92.9,210.92,142.88,,,Single-ply,SBD,M,
Boys,109.77,1,Frank Cruz,McGregor,107.41,235.87,170.1,210.92,616.89,Single-ply,SBD,M,
Boys,109.77,2,Jaiden Taylor,China Spring,109.68,226.8,147.42,219.99,594.21,Single-ply,SBD,M,
Boys,109.77,3,Marco Cano,Clifton,105.69,251.74,136.08,199.58,587.4,Single-ply,SBD,M,
Boys,109.77,4,Marshall Vrana,Lorena,108.32,190.51,124.74,215.46,530.7,Single-ply,SBD,M,
Boys,109.77,5,Pablo Rodriguez,Waco La Vega,106.14,210.92,95.25,179.17,485.34,Single-ply,SBD,M,
Boys,109.77,6,Jonathan Ferguson,Waco Connally,100.61,174.63,102.06,188.24,464.93,Single-ply,SBD,M,
Boys,109.77,7,Jack Cummings,Bosqueville,102.87,145.15,117.93,156.49,419.57,Single-ply,SBD,M,
Boys,109.77,8,Landon Rayford,Maypearl,101.15,163.29,97.52,147.42,408.23,Single-ply,SBD,M,
Boys,109.77,9,Saul Santoyo,Rice,104.33,158.76,88.45,151.95,399.16,Single-ply,SBD,M,
Boys,109.77,DQ,Cole Alton,Moody,108.95,165.56,124.74,,,Single-ply,SBD,M,
Boys,109.77,DQ,Andres Pina,Waco La Vega,106.23,233.6,,,,Single-ply,SBD,M,
Boys,124.74,1,Ryan Smiley,Gatesville,123.2,362.87,192.78,267.62,823.27,Single-ply,SBD,M,
Boys,124.74,2,Jagger Summa,Bosqueville,118.02,290.3,170.1,276.69,737.09,Single-ply,SBD,M,
Boys,124.74,3,Carter Chandler,McGregor,122.02,258.55,170.1,235.87,664.51,Single-ply,SBD,M,
Boys,124.74,4,Joe Gutshall,Lorena,118.12,244.94,151.95,240.4,637.3,Single-ply,SBD,M,
Boys,124.74,5,Greg Salazar,China Spring,120.38,183.7,174.63,219.99,578.33,Single-ply,SBD,M,
Boys,124.74,6,Ryan Allred,McGregor,122.11,238.14,120.2,199.58,557.92,Single-ply,SBD,M,
Boys,124.74,7,Jeremiah Cleveland,Waco Connally,119.57,215.46,102.06,215.46,532.97,Single-ply,SBD,M,
Boys,124.74,8,Javier Rubio,Hillsboro,121.74,206.38,154.22,170.1,530.7,Single-ply,SBD,M,
Boys,124.74,9,David Klander,West,112.13,208.65,117.93,190.51,517.1,Single-ply,SBD,M,
Boys,124.74,10,Carter Norman,Lorena,119.2,208.65,117.93,170.1,496.68,Single-ply,SBD,M,
Boys,124.74,11,Gage Ashley,Lorena,123.1,204.12,113.4,170.1,487.61,Single-ply,SBD,M,
Boys,124.74,12,John Gorrell,Maypearl,123.29,176.9,117.93,192.78,487.61,Single-ply,SBD,M,
Boys,124.74,13,Krew Patton,Maypearl,117.03,176.9,117.93,163.29,458.13,Single-ply,SBD,M,
Boys,124.74,DQ,Ivan Martinez,Waco La Vega,121.47,294.84,,,,Single-ply,SBD,M,
Boys,139.71,1,Devon Jenkins,McGregor,126.46,285.76,163.29,235.87,684.92,Single-ply,SBD,M,
Boys,139.71,2,Jackson Blackwell,Lorena,136.26,254.01,176.9,251.74,682.66,Single-ply,SBD,M,
Boys,139.71,3,Jaylen Johnson,Waco La Vega,133.72,283.5,154.22,226.8,664.51,Single-ply,SBD,M,
Boys,139.71,4,Davis Orr,Moody,125.92,226.8,163.29,235.87,625.96,Single-ply,SBD,M,
Boys,139.71,5,Fabian Silvas,Hillsboro,128.73,249.48,151.95,188.24,589.67,Single-ply,SBD,M,
Boys,139.71,6,Zach Bryant,Gatesville,138.62,238.14,136.08,208.65,582.87,Single-ply,SBD,M,
Boys,139.71,7,Brock Klander,West,127.1,219.99,138.35,188.24,546.58,Single-ply,SBD,M,
Boys,139.71,8,Landon McMillan,China Spring,130.82,204.12,136.08,183.7,523.9,Single-ply,SBD,M,
Boys,139.71,9,Skyler Dehn,Troy,135.71,190.51,92.99,165.56,449.06,Single-ply,SBD,M,
Boys,139.71+,1,Trent Tidwell,Hillsboro,141.25,256.28,204.12,229.06,689.46,Single-ply,SBD,M,
Boys,139.71+,2,Domeniss McFadden,McGregor,151.05,272.16,158.76,204.12,635.03,Single-ply,SBD,M,
Boys,139.71+,3,Freeman Hamilton,Clifton,141.97,181.44,145.15,165.56,492.15,Single-ply,SBD,M,
Boys,139.71+,DQ,Gabe Charles,Gatesville,146.15,222.26,113.4,,,Single-ply,SBD,M,
Boys,139.71+,DQ,JaMarques Baugh,Waco Connally,162.11,,,,,Single-ply,SBD,M,
