Name,Sex,BirthDate,Equipment,Division,BodyweightKg,WeightClassKg,Bench1Kg,Bench2Kg,Bench3Kg,Best3BenchKg,TotalKg,Event,Place
April Mathis,F,,Unlimited,F_OEM_WPC,,,250,-267.5,,250,250,B,1
Kelly Duffy,F,,Unlimited,F_OEM_WPC,,,-220,-220,-230,,,B,DQ
Rae-Ann Miller,F,,Unlimited,F_OEM_WPC,,,-265,-265,-265,,,B,DQ
Jimmy Kolb,M,,Unlimited,M_OEM_WPC,,,517.5,-537.5,-537.5,517.5,517.5,B,1
Dave Hoff,M,,Unlimited,M_OEM_WPC,,,-460,460,-500,460,460,B,2
Rich Putnam,M,,Unlimited,M_OEM_WPC,,,-410,410,430,430,430,B,3
Keith O'Dell,M,,Unlimited,M_OEM_WPC,,,337.5,350,-362.5,350,350,B,4
Duncan Hundley,M,,Unlimited,M_OEM_WPC,,,-432.5,-432.5,-455,,,B,DQ
Tony Carlino,M,,Unlimited,M_OEM_WPC,,,-455,-455,-462.5,,,B,DQ
