Division,WeightClassKg,Place,Name,Team,BodyweightKg,Best3SquatKg,Best3BenchKg,Best3DeadliftKg,TotalKg,Equipment,Event,Sex,BirthDate
Boys,51.71,1,Jesus Arroyo,New Caney,49.17,102.06,52.16,113.4,267.62,Single-ply,SBD,M,
Boys,55.79,DQ,Issac Corinas,New Caney Porter,53.93,142.88,,,,Single-ply,SBD,M,
Boys,59.87,1,Brady Bearden,Port Neches-Groves,59.47,172.37,122.47,158.76,453.59,Single-ply,SBD,M,
Boys,59.87,2,Raymon Castaneda,Port Neches-Groves,58.83,147.42,97.52,156.49,401.43,Single-ply,SBD,M,
Boys,67.13,1,Jacob Brown,Livingston,66.63,138.35,106.59,183.7,428.64,Single-ply,SBD,M,
Boys,67.13,2,Manuel Ogden,Port Neches-Groves,65.82,136.08,102.06,156.49,394.63,Single-ply,SBD,M,
Boys,67.13,DQ,Caleb Belanger,Port Neches-Groves,65.41,136.08,92.99,,,Single-ply,SBD,M,
Boys,67.13,DQ,Cayden Payne,Port Neches-Groves,60.87,142.88,,124.74,,Single-ply,SBD,M,
Boys,74.84,1,Jonathan Martin,Beaumont United,73.12,204.12,122.47,231.33,557.92,Single-ply,SBD,M,
Boys,74.84,2,Josue Velasquez,New Caney Porter,73.16,204.12,129.27,208.65,542.04,Single-ply,SBD,M,
Boys,74.84,3,Bryan Hernandez,Port Neches-Groves,72.85,179.17,102.06,172.37,453.59,Single-ply,SBD,M,
Boys,74.84,4,Alejandro Torres,New Caney,73.39,170.1,104.33,172.37,446.79,Single-ply,SBD,M,
Boys,74.84,5,Anthony Molina,New Caney Porter,69.63,170.1,95.25,174.63,439.98,Single-ply,SBD,M,
Boys,74.84,6,Carlos Ruiz,New Caney Porter,73.75,165.56,95.25,154.22,415.04,Single-ply,SBD,M,
Boys,74.84,7,Thomas Errington,New Caney,72.94,158.76,88.45,147.42,394.63,Single-ply,SBD,M,
Boys,74.84,8,Jyier Jones,La Marque,72.57,138.35,92.99,158.76,390.09,Single-ply,SBD,M,
Boys,74.84,9,Mason Droddy,Port Neches-Groves,69.26,151.95,83.91,151.95,387.82,Single-ply,SBD,M,
Boys,74.84,10,Daniel Alonzo,Port Neches-Groves,70.67,117.93,72.57,136.08,326.59,Single-ply,SBD,M,
Boys,74.84,DQ,Garrett Hicks,Port Neches-Groves,70.99,129.27,,124.74,,Single-ply,SBD,M,
Boys,82.1,1,Kai Janice,La Marque,76.29,210.92,117.93,183.7,512.56,Single-ply,SBD,M,
Boys,82.1,2,Daniel Cortinas,New Caney Porter,79.24,181.44,113.4,185.97,480.81,Single-ply,SBD,M,
Boys,82.1,3,Korleone Comeaux,Beaumont United,81.56,183.7,120.2,174.63,478.54,Single-ply,SBD,M,
Boys,82.1,4,Autrey Nichols,Port Neches-Groves,77.29,161.03,115.67,163.29,439.98,Single-ply,SBD,M,
Boys,82.1,5,Dylan Sprayberry,New Caney,77.75,136.08,108.86,154.22,399.16,Single-ply,SBD,M,
Boys,82.1,6,Cedric Madison,Beaumont United,75.89,124.74,68.04,147.42,340.19,Single-ply,SBD,M,
Boys,82.1,DQ,Eric Steil,Port Neches-Groves,80.88,215.46,102.06,,,Single-ply,SBD,M,
Boys,89.81,1,David Walls,New Caney Porter,88.45,231.33,120.2,222.26,573.79,Single-ply,SBD,M,
Boys,89.81,2,Brayden Ethier,Livingston,84.14,197.31,122.47,197.31,517.1,Single-ply,SBD,M,
Boys,89.81,3,Marcus Smalls,Port Arthur Memorial,86.73,170.1,102.06,192.78,464.93,Single-ply,SBD,M,
Boys,89.81,4,Daniel Balderas,New Caney,84.14,170.1,106.59,174.63,451.32,Single-ply,SBD,M,
Boys,89.81,5,Micah Harrison,Livingston,86.64,149.69,104.33,149.69,403.7,Single-ply,SBD,M,
Boys,89.81,6,Ryan Araujo,Port Neches-Groves,87.91,142.88,97.52,154.22,394.63,Single-ply,SBD,M,
Boys,89.81,7,Jaden Jordan,Livingston,89.22,142.88,90.72,129.27,362.87,Single-ply,SBD,M,
Boys,99.79,1,Caden Pitre,Port Arthur Memorial,92.17,197.31,133.81,208.65,539.77,Single-ply,SBD,M,
Boys,99.79,2,Eddie Monroe,Beaumont United,95.03,113.4,72.57,113.4,299.37,Single-ply,SBD,M,
Boys,109.77,1,Xavier Mindiola,Livingston,102.74,238.14,161.03,233.6,632.76,Single-ply,SBD,M,
Boys,109.77,2,Roshawn Calhoun,Port Arthur Memorial,104.78,251.74,124.74,229.06,605.55,Single-ply,SBD,M,
Boys,109.77,3,Athean Renfro,Beaumont United,103.1,254.01,122.47,226.8,603.28,Single-ply,SBD,M,
Boys,109.77,4,Harvey Jones,Port Arthur Memorial,103.74,179.17,102.06,197.31,478.54,Single-ply,SBD,M,
Boys,109.77,5,Ryan Lindley,New Caney,103.42,172.37,111.13,190.51,474,Single-ply,SBD,M,
Boys,109.77,6,Adrian Balderas,New Caney,99.97,158.76,106.59,190.51,455.86,Single-ply,SBD,M,
Boys,109.77,DQ,Jorge Herrera,Port Neches-Groves,106.73,,108.86,199.58,,Single-ply,SBD,M,
Boys,124.74,1,Christian Gladney,Beaumont United,121.61,238.14,147.42,195.04,580.6,Single-ply,SBD,M,
Boys,124.74,2,Jarius Crew,Livingston,110.4,199.58,131.54,204.12,535.24,Single-ply,SBD,M,
Boys,124.74,3,Jahmal Arvie,Port Arthur Memorial,116.85,170.1,104.33,188.24,462.66,Single-ply,SBD,M,
Boys,124.74,4,Maxwell Sanja,La Marque,111.58,174.63,102.06,181.44,458.13,Single-ply,SBD,M,
Boys,124.74,5,Gailin Curl,Beaumont United,119.88,167.83,97.52,192.78,458.13,Single-ply,SBD,M,
Boys,124.74,6,Landon Kellar,Port Neches-Groves,111.08,192.78,99.79,163.29,455.86,Single-ply,SBD,M,
Boys,124.74,7,Randy Greenwood,La Marque,115.3,181.44,102.06,154.22,437.72,Single-ply,SBD,M,
Boys,124.74,8,Bentley Pugh,New Caney,110.09,147.42,92.99,147.42,387.82,Single-ply,SBD,M,
Boys,124.74,9,Justin Harmon,Beaumont United,113.81,142.88,90.72,133.81,367.41,Single-ply,SBD,M,
Boys,139.71,1,Treye Atkinson,Livingston,133.63,204.12,97.52,204.12,505.76,Single-ply,SBD,M,
Boys,139.71,2,Dameon Kampfer,Livingston,132.45,183.7,133.81,172.37,489.88,Single-ply,SBD,M,
Boys,139.71,DQ,Edward Taylor,Beaumont United,125.78,,,,,Single-ply,SBD,M,
Boys,139.71+,1,Brynten White,Livingston,140.61,226.8,151.95,215.46,594.21,Single-ply,SBD,M,
Boys,139.71+,2,Micah Liedy,Beaumont United,161.89,254.01,117.93,199.58,571.53,Single-ply,SBD,M,
Boys,139.71+,3,Guy Curl,Beaumont United,184.39,226.8,115.67,190.51,532.97,Single-ply,SBD,M,
