Place,Name,Sex,Event,Division,WeightClassKg,Equipment,BirthYear,Team,State,BodyweightKg,Squat1Kg,Squat2Kg,Squat3Kg,Best3SquatKg,Bench1Kg,Bench2Kg,Bench3Kg,Best3BenchKg,Deadlift1Kg,Deadlift2Kg,Deadlift3Kg,Best3DeadliftKg,TotalKg,Age,BirthDate
G,Claire Lansing,F,SBD,FR-G,67.5,Raw,2004,,TN,60.84,105,-107.5,107.5,107.5,57.5,62.5,65,65,130,132.5,137.5,137.5,310,,
1,Reese Caffery,F,SBD,FR-T1,44,Raw,2007,,NJ,43.97,55,60,62.5,62.5,25,-27.5,-30,25,62.5,67.5,70,70,157.5,,
1,Hannah Duncan,F,SBD,FR-T1,67.5,Raw,2006,,CO,63.69,85,92.5,97.5,97.5,67.5,72.5,80,80,125,132.5,-137.5,132.5,310,,
2,Rebecca Miracle,F,SBD,FR-T1,67.5,Raw,2007,,MI,60.97,72.5,-77.5,-82.5,72.5,45,50,-52.5,50,95,102.5,107.5,107.5,230,,
1,Shala Schmookler,F,SBD,FR-T2,44,Raw,2004,,IL,43.04,75,80,-85,80,52.5,57.5,-60,57.5,-97.5,102.5,105,105,242.5,,
1,Delaney Sousley,F,SBD,FR-T2,48,Raw,2005,,MI,46.72,97.5,102.5,105.5,105.5,52.5,55,-57.5,55,105,115,-125,115,275.5,,
1,Sara Quinones,F,SBD,FR-T2,56,Raw,2006,,CO,55.07,92.5,97.5,105,105,60,65,67.5,67.5,132.5,140,150,150,322.5,,
2,Isabelle Lefler,F,SBD,FR-T2,56,Raw,2004,,NC,53.63,90,100,-105,100,47.5,52.5,57.5,57.5,132.5,142.5,-150.5,142.5,300,,
1,Alyssa Kwarciany,F,SBD,FR-T2,60,Raw,2004,,WI,59.63,112.5,120,125,125,67.5,72.5,-75,72.5,137.5,142.5,147.5,147.5,345,,
2,Anne-Marie Herring,F,SBD,FR-T2,60,Raw,2005,,NC,59.15,120,127.5,137.5,137.5,47.5,52.5,57.5,57.5,135,142.5,-152.5,142.5,337.5,,
3,Jessica Rosalez,F,SBD,FR-T2,60,Raw,2005,,TX,57.68,107.5,112.5,117.5,117.5,52.5,-57.5,-57.5,52.5,-157.5,165,-170,165,335,,
4,Makinzee Christian,F,SBD,FR-T2,60,Raw,2004,,MD,58.74,105,110,112.5,112.5,55,57.5,-60,57.5,112.5,117.5,120,120,290,,
5,Zoee Edmonds,F,SBD,FR-T2,60,Raw,2005,,PA,58.71,82.5,87.5,-90,87.5,50,55,-57.5,55,115,122.5,130,130,272.5,,
1,Fayth Analise Ham,F,SBD,FR-T2,75,Raw,2004,,TX,70.94,140,150,160,160,65,75,-82.5,75,145,160,175,175,410,,
2,Brooke Ruland,F,SBD,FR-T2,75,Raw,2004,,WI,74.35,137.5,147.5,-155,147.5,60,72.5,-77.5,72.5,137.5,145,-152.5,145,365,,
1,Hannah Alexander #2,F,SBD,FR-T2,90,Raw,2004,,WI,89.07,125,130,135,135,70,75,78,78,135,140,-145,140,353,,
2,Sydney Martin,F,SBD,FR-T2,90,Raw,2004,,ID,88.87,105,115,127.5,127.5,42.5,45,-50,45,115,130,-135,130,302.5,,
1,Christina Sanchez #1,F,SBD,FR-T2,100,Raw,2004,,CA,98.52,140,147.5,-155,147.5,80,85,90,90,150,165,172.5,172.5,410,17,
2,Caity McMahon,F,SBD,FR-T2,100,Raw,2005,,NE,97.57,117.5,125,-132.5,125,57.5,62.5,-65,62.5,125,132.5,-140,132.5,320,,
1,Payton Weelborg,F,SBD,FR-T2,100+,Raw,2004,,SD,111.32,155,162.5,165,165,75,82.5,-87.5,82.5,160,-167.5,167.5,167.5,415,,
1,MaryAnn Romagna,F,SBD,FR-T2,67.5,Raw,2004,,WI,65.41,107.5,115,120,120,52.5,55,-57.5,55,150,160,170,170,345,,
2,Breana Hunter,F,SBD,FR-T2,67.5,Raw,2004,,WI,65.44,105,115,-125,115,62.5,67.5,72.5,72.5,125,135,145,145,332.5,,
3,Meghann Christian,F,SBD,FR-T2,67.5,Raw,2004,,WI,66.69,105,112.5,115,115,55,57.5,60,60,137.5,145,-160,145,320,,
4,Anika Ganesh,F,SBD,FR-T2,67.5,Raw,2005,,NJ,63.81,100,107.5,-112.5,107.5,55,57.5,-60,57.5,140,150,-160,150,315,,
5,Rachel Aronow,F,SBD,FR-T2,67.5,Raw,2005,,NJ,62.72,95,102.5,107.5,107.5,57.5,-62.5,62.5,62.5,120,130,137.5,137.5,307.5,,
6,Darby Neely,F,SBD,FR-T2,67.5,Raw,2004,,MO,64.71,105,112.5,117.5,117.5,55,57.5,-60,57.5,125,-130,-130,125,300,,
1,Adrienne Mongeon,F,SBD,FR-T2,82.5,Raw,2004,,MN,76.7,125,130,137.5,137.5,72.5,77.5,82.5,82.5,125,130,137.5,137.5,357.5,,
2,Mikayla VonLangen,F,SBD,FR-T2,82.5,Raw,2005,,MT,77.22,-107.5,112.5,117.5,117.5,57.5,60,-62.5,60,125,132.5,140,140,317.5,,
3,Mia Kerley,F,SBD,FR-T2,82.5,Raw,2005,,IL,77.52,92.5,97.5,105,105,55,57.5,60,60,115,120,127.5,127.5,292.5,,
1,Ava Allen,F,SBD,FR-T3,48,Raw,2003,,NY,46.02,112.5,118,120.5,120.5,57.5,60,62.5,62.5,140,147.5,153,153,336,,
1,Angelina Spizzieri,F,SBD,FR-T3,52,Raw,2002,,PA,51.04,115,120,122.5,122.5,70,72.5,75,75,142.5,147.5,150,150,347.5,,
1,Sarah Wood,F,SBD,FR-T3,60,Raw,2003,,IL,57.37,85,87.5,-90,87.5,57.5,-60,-60,57.5,145,-155,-155,145,290,,
1,Zoey Bobrowski,F,SBD,FR-T3,75,Raw,2002,,MI,73.99,112.5,120,127.5,127.5,57.5,62.5,67.5,67.5,150,155,160,160,355,,
1,Madison Peterson,F,SBD,FR-T3,90,Raw,2003,,MN,85.47,130,140,142.5,142.5,60,-65,65,65,155,162.5,177.5,177.5,385,,
2,Allison Karlis,F,SBD,FR-T3,90,Raw,2004,,WA,83.44,125,135,-142.5,135,85,87.5,90,90,137.5,147.5,157.5,157.5,382.5,,
1,Hailey Ryan,F,SBD,FR-T3,100+,Raw,2003,,MI,142.34,195,205,-217.5,205,105,112.5,115,115,182.5,200,-210,200,520,,
2,Karly Huerta,F,SBD,FR-T3,100+,Raw,2003,,NE,111.16,145,150,-155,150,72.5,77.5,82.5,82.5,155,165,175,175,407.5,,
3,Kate Tickle,F,SBD,FR-T3,100+,Raw,2002,,KS,107.56,-137.5,140,147.5,147.5,65,-70,-70,65,135,140,145,145,357.5,,
1,Sawyer Darish,F,SBD,FR-T3,67.5,Raw,2002,,MI,67.1,115,125,132.5,132.5,67.5,75,-80,75,142.5,155,-162.5,155,362.5,,
2,Kylee Carey,F,SBD,FR-T3,67.5,Raw,2003,,TX,66.05,120,-125,125,125,52.5,60,65,65,117.5,127.5,135,135,325,,
1,Sydney Mesaros,F,SBD,FR-T3,82.5,Raw,2002,,PA,79.86,147.5,157.5,-170,157.5,82.5,90,95,95,137.5,150,160,160,412.5,,
2,Alison David,F,SBD,FR-T3,82.5,Raw,2002,,NJ,80.89,122.5,135,-142.5,135,72.5,77.5,80,80,155,162.5,175,175,390,,
3,Jenna Haynes,F,SBD,FR-T3,82.5,Raw,2003,,MI,79.56,142.5,147.5,152.5,152.5,67.5,72.5,75,75,147.5,152.5,-160,152.5,380,,
4,Jenna Demas,F,SBD,FR-T3,82.5,Raw,2003,,IL,77.6,105,112.5,120,120,60,65,70,70,135,145,157.5,157.5,347.5,,
5,Irene Pineda,F,SBD,FR-T3,82.5,Raw,2002,,WI,82.36,122.5,125,130,130,50,52.5,55,55,145,155,157.5,157.5,342.5,,
6,Lindsey Foushee,F,SBD,FR-T3,82.5,Raw,2002,,TX,80.66,112.5,-122.5,122.5,122.5,52.5,57.5,60,60,130,137.5,145,145,327.5,,
1,Zoe Mello,F,SBD,F-T2,75,Single-ply,2005,LB Strength & Fitness - F-T,TX,68.46,102.5,122.5,-130,122.5,52.5,55,-60,55,112.5,130,-137.5,130,307.5,,
1,Jayla Dandridge,F,SBD,F-T2,90,Single-ply,2004,LB Strength & Fitness - F-T,TX,86,130,150,172.5,172.5,65,-72.5,75,75,115,127.5,145,145,392.5,,
2,Elizabeth Michelakis,F,SBD,F-T2,90,Single-ply,2005,,MI,86.05,77.5,85,90,90,35,40,45,45,95,100,105,105,240,,
1,Casyn Little,F,SBD,F-T2,67.5,Single-ply,2004,LB Strength & Fitness - F-T,TX,62.35,102.5,-120,127.5,127.5,55,60,-65,60,100,112.5,122.5,122.5,310,,
1,Bryson McJunkin,M,SBD,MR-T1,56,Raw,2008,,GA,53.9,115,125,130,130,75,80,-83,80,120,130,-137.5,130,340,,
1,Daniel Harris #1,M,SBD,MR-T1,60,Raw,2006,,NE,58.2,-165.5,165.5,175,175,100,107.5,-112.5,107.5,187.5,195,-205,195,477.5,,2006-10-08
2,Cory Sands,M,SBD,MR-T1,60,Raw,2006,,FL,58.92,130,135,140,140,67.5,72.5,77.5,77.5,130,137.5,145,145,362.5,,
3,Peyton Willoughby,M,SBD,MR-T1,60,Raw,2007,,TN,59.27,110,117.5,122.5,122.5,62.5,70,-75,70,142.5,-150,155,155,347.5,,
1,Tyson Wilson,M,SBD,MR-T1,75,Raw,2007,,SC,73.2,182.5,187.5,192.5,192.5,115,117.5,-122.5,117.5,-210,217.5,225,225,535,,
1,Philip Noyes,M,SBD,MR-T1,90,Raw,2006,,NY,88,155,165,-172.5,165,102.5,-110,-110,102.5,195,207.5,-220,207.5,475,,
DQ,Rowland Hoskins III,M,SBD,MR-T1,90,Raw,2006,,FL,88.64,-152.5,-152.5,-160,,100,105,-107.5,105,185,202.5,210,210,,,
1,Samuel Talaga,M,SBD,MR-T1,100,Raw,2006,,MI,96.92,197.5,210,220,220,125,132.5,137.5,137.5,220,232.5,245,245,602.5,,
1,Bryce Ruland,M,SBD,MR-T1,110,Raw,2006,,WI,101.53,180,190,,190,105,115,,115,210,220,,220,525,,
2,Cody Saenz,M,SBD,MR-T1,110,Raw,2006,,TX,101.61,165,172.5,185,185,92.5,100,-107.5,100,187.5,197.5,-210,197.5,482.5,,
1,Elliott Sykes,M,SBD,MR-T1,67.5,Raw,2006,,NJ,65.96,205,-207.5,222.5,222.5,110,117.5,125,125,225,240,250,250,597.5,,2006-04-08
2,Samuel Blackwell,M,SBD,MR-T1,67.5,Raw,2007,,SC,64.64,147.5,157.5,-162.5,157.5,-100,102.5,107.5,107.5,182.5,-192.5,-192.5,182.5,447.5,,
3,Nathan Loss,M,SBD,MR-T1,67.5,Raw,2006,,CO,65.38,135,140,-142.5,140,72.5,77.5,-82.5,77.5,140,-147.5,152.5,152.5,370,,
1,Joshua Freeland,M,SBD,MR-T1,82.5,Raw,2006,,WV,81.42,172.5,-182.5,-182.5,172.5,95,102.5,-107.5,102.5,182.5,195,200,200,475,,
1,Gabe Arroyo,M,SBD,MR-T2,52,Raw,2005,,WA,51.94,150,160.5,168,168,87.5,92.5,-95.5,92.5,140,150,155,155,415.5,,
1,Manny Walia,M,SBD,MR-T2,56,Raw,2004,,GA,55.28,135,137.5,-142.5,137.5,85,90,-92.5,90,160,167.5,170,170,397.5,,
2,Om Pednekar,M,SBD,MR-T2,56,Raw,2004,,NJ,55.49,-125,132.5,140,140,70,75,-82.5,75,152.5,165,-183,165,380,,
1,Luke Penner,M,SBD,MR-T2,60,Raw,2005,,KS,59.69,150,165,170,170,97.5,105,107.5,107.5,160,172.5,182.5,182.5,460,,
2,Dalton Lane,M,SBD,MR-T2,60,Raw,2004,,CO,57.95,127.5,-135,-135,127.5,70,75,77.5,77.5,160,170,172.5,172.5,377.5,,
1,Jacob Park,M,SBD,MR-T2,75,Raw,2004,,FL,73.04,-180,182.5,-190,182.5,135,142.5,-145,142.5,265,285,-290,285,610,,
2,Clark Whitefield,M,SBD,MR-T2,75,Raw,2004,,NY,73.07,197.5,207.5,220,220,135,142.5,150,150,210,225,-242.5,225,595,,
3,Adnan Allan,M,SBD,MR-T2,75,Raw,2004,,TX,74.73,192.5,-202.5,205,205,135,145,-150.5,145,210,220,227.5,227.5,577.5,,
4,Malcom Lindsey,M,SBD,MR-T2,75,Raw,2004,,TX,72.99,-185,-185,195,195,135,142.5,-150,142.5,225,237.5,-247.5,237.5,575,,
5,Jackson Berndt,M,SBD,MR-T2,75,Raw,2004,,WI,72.45,212.5,-222.5,-223.5,212.5,110,-115,-115,110,235,-247.5,247.5,247.5,570,,
6,Nick Gaines,M,SBD,MR-T2,75,Raw,2005,,FL,74.23,192.5,207.5,-220,207.5,110,117.5,120,120,217.5,240,-242.5,240,567.5,,
7,Lachlan Ireland,M,SBD,MR-T2,75,Raw,2005,,MA,74.77,200,210,-215,210,105,115,120,120,205,215,220,220,550,,
8,Michael Sysavan,M,SBD,MR-T2,75,Raw,2004,,WI,73.99,182.5,195,-205,195,120,127.5,135,135,212.5,-227.5,-230,212.5,542.5,,
9,Eli Burnell,M,SBD,MR-T2,75,Raw,2005,,NC,73.27,177.5,187.5,192.5,192.5,100,105,107.5,107.5,215,227.5,230,230,530,,
10,Klayton Matthews,M,SBD,MR-T2,75,Raw,2005,,WV,74.32,190,195,-200,195,122.5,127.5,-132.5,127.5,197.5,205,-207.5,205,527.5,,
11,Joseph Rodriguez #2,M,SBD,MR-T2,75,Raw,2005,,TX,74.98,172.5,185,192.5,192.5,97.5,105,112.5,112.5,200,210,217.5,217.5,522.5,,
12,Noah Loughlin,M,SBD,MR-T2,75,Raw,2004,,TX,74.89,170,-180,-180,170,110,115,-120,115,225,-235,-235,225,510,,
13,Kyle Lam,M,SBD,MR-T2,75,Raw,2006,,TX,73.15,175,182.5,190,190,95,102.5,107.5,107.5,185,197.5,210,210,507.5,,
14,Abhinav Bhimireddy,M,SBD,MR-T2,75,Raw,2005,,TX,73.57,-175,-185,185,185,-87.5,92.5,95,95,215,227.5,-237.5,227.5,507.5,,
15,Mason Anton,M,SBD,MR-T2,75,Raw,2005,,NJ,74.13,150,162.5,-170,162.5,107.5,115,-122.5,115,190,202.5,-210,202.5,480,,
1,Blayne Kildahl,M,SBD,MR-T2,90,Raw,2004,,MN,87.71,235,250,259,259,145,150,-152.5,150,280,300,-307.5,300,709,,
2,Reed Gizinski,M,SBD,MR-T2,90,Raw,2005,,MN,87.61,205,220,225,225,135,142.5,-150,142.5,265,275,-287.5,275,642.5,,
3,Dallin Robertson,M,SBD,MR-T2,90,Raw,2004,,UT,89.7,-215,215,-227.5,215,160,-167.5,167.5,167.5,-252.5,252.5,255,255,637.5,,
4,Ephraim Makely,M,SBD,MR-T2,90,Raw,2004,,CA,89.96,190,200,207.5,207.5,130,-135,135,135,222.5,232.5,245,245,587.5,,
5,Maximus Dhabalt,M,SBD,MR-T2,90,Raw,2005,,IA,86.84,190,205,220,220,140,-147.5,-147.5,140,210,225,-230,225,585,,
6,Marcus Galindo,M,SBD,MR-T2,90,Raw,2005,,TX,87.59,210,220,227.5,227.5,95,100,105,105,225,237.5,-255,237.5,570,,
7,Colby Harrison,M,SBD,MR-T2,90,Raw,2004,,ID,87.03,-207.5,-215,215,215,125,-132.5,-132.5,125,225,-227.5,-227.5,225,565,,
8,Aiden McCarthy,M,SBD,MR-T2,90,Raw,2004,,WI,88.74,177.5,-192.5,200,200,100,107.5,-115,107.5,-235,252.5,-265,252.5,560,,
9,Kalven Rangel,M,SBD,MR-T2,90,Raw,2004,,CA,89.65,190,-200,205,205,120,125,127.5,127.5,-210,220,-230,220,552.5,,
10,Brighton Babcock,M,SBD,MR-T2,90,Raw,2005,,ME,87.19,185,-192.5,192.5,192.5,115,127.5,-130,127.5,200,210,,210,530,,
11,Michael Calin,M,SBD,MR-T2,90,Raw,2004,,MN,87.92,195,205,210,210,95,100,102.5,102.5,200,215,-222.5,215,527.5,,
DQ,Jason Wagner,M,SBD,MR-T2,90,Raw,2004,,NM,87.61,-187.5,-187.5,-187.5,,127.5,132.5,,132.5,215,-230,,215,,,
1,Mason Mitchell,M,SBD,MR-T2,100,Raw,2004,,WI,92.71,220,227.5,,227.5,152.5,160,170,170,227.5,260,,260,657.5,,
2,Jory Lear,M,SBD,MR-T2,100,Raw,2004,,WA,99.32,195,207.5,-212.5,207.5,145,-152.5,-152.5,145,235,240,242.5,242.5,595,,
3,Bryce Sweeting,M,SBD,MR-T2,100,Raw,2004,,GA,97.09,192.5,197.5,-205,197.5,142.5,150,157.5,157.5,220,-237.5,237.5,237.5,592.5,,
4,Benjamin Schofield,M,SBD,MR-T2,100,Raw,2005,,TX,96.27,172.5,182.5,190,190,87.5,95,-97.5,95,215,227.5,-230,227.5,512.5,,
1,Michael Christensen,M,SBD,MR-T2,110,Raw,2004,,NY,108.1,215,-230,230,230,-92.5,95,100,100,210,225,240,240,570,,
1,Jude Kozel,M,SBD,MR-T2,125,Raw,2005,,VA,122.77,217.5,227.5,237.5,237.5,132.5,140,145,145,230,242.5,250,250,632.5,,
2,Jackson Steinruck,M,SBD,MR-T2,125,Raw,2004,,TX,116.75,-225,232.5,237.5,237.5,132.5,-142.5,145,145,225,232.5,242.5,242.5,625,,
DQ,Owen Powers,M,SBD,MR-T2,140+,Raw,2005,,MI,147.98,235,247.5,255,255,-122.5,-125,-125,,222.5,,,222.5,,,
DQ,Joseph Davidman,M,SBD,MR-T2,140+,Raw,2004,,NJ,154.91,-300,-300,-300,,,,,,-230,-230,,,,,
1,Aidan Taylor,M,SBD,MR-T2,67.5,Raw,2005,,IL,64.97,182.5,195,200,200,105,110,115,115,217.5,230,235,235,550,,
2,Tommy Connell,M,SBD,MR-T2,67.5,Raw,2005,,NE,64.76,175,185,192.5,192.5,110,115,120,120,220,227.5,232.5,232.5,545,,
3,Matteo Yoon,M,SBD,MR-T2,67.5,Raw,2004,,AK,65.1,170,177.5,-185,177.5,100,102.5,-105,102.5,200,207.5,-215,207.5,487.5,,
4,Hunter Isbitsky,M,SBD,MR-T2,67.5,Raw,2005,,NY,65.73,150,162.5,172.5,172.5,100,112.5,-117.5,112.5,195,-215,-215,195,480,,
5,Alex Lee,M,SBD,MR-T2,67.5,Raw,2004,,TX,66.69,165,175,-180,175,100,107.5,-110,107.5,187.5,-195,195,195,477.5,,
6,Trent Allen,M,SBD,MR-T2,67.5,Raw,2004,,DE,64.24,155,172.5,-182.5,172.5,75,85,-95,85,187.5,200,212.5,212.5,470,,
7,Isaiah Salazar,M,SBD,MR-T2,67.5,Raw,2005,,CA,66.2,140,150,-157.5,150,97.5,102.5,107.5,107.5,180,190,197.5,197.5,455,,
8,Breckin Bowin,M,SBD,MR-T2,67.5,Raw,2004,,KS,62.26,167.5,-172.5,-172.5,167.5,100,-105,-105,100,172.5,177.5,182.5,182.5,450,,
9,Jaden Koch,M,SBD,MR-T2,67.5,Raw,2004,,WI,64.71,-162.5,165,-172.5,165,-100,107.5,110,110,152.5,157.5,-167.5,157.5,432.5,,
10,Jacob Malitzki,M,SBD,MR-T2,67.5,Raw,2005,,PA,64.31,130,137.5,142.5,142.5,85,90,-92.5,90,-160,180,190,190,422.5,,
11,Dilan Patel,M,SBD,MR-T2,67.5,Raw,2004,,TX,64.67,145,147.5,-165,147.5,82.5,87.5,-92.5,87.5,162.5,177.5,185,185,420,,
12,Jake Rattner,M,SBD,MR-T2,67.5,Raw,2004,,FL,64.71,-155,155,-160,155,-92.5,92.5,-95,92.5,160,170,-180,170,417.5,,
1,Nathan Drivas,M,SBD,MR-T2,82.5,Raw,2005,,WI,81.81,200,215,220,220,142.5,152.5,157.5,157.5,242.5,255,-267.5,255,632.5,,
2,Evan Talnose,M,SBD,MR-T2,82.5,Raw,2004,,CT,80.28,215,225,232.5,232.5,137.5,145,-150,145,235,250,-255,250,627.5,,
3,Dereck Vaquero-Rosas,M,SBD,MR-T2,82.5,Raw,2004,,NY,79.73,215,227.5,,227.5,-155,160,-165,160,220,227.5,,227.5,615,,
4,Brody Littrell,M,SBD,MR-T2,82.5,Raw,2004,,KS,80.81,-242.5,-242.5,242.5,242.5,130,-135,-135,130,220,225,232.5,232.5,605,,
5,Wyatt Schneider,M,SBD,MR-T2,82.5,Raw,2005,,CO,80.94,205,212.5,220,220,115,117.5,-120,117.5,215,227.5,-232.5,227.5,565,,
6,Caden Lowder,M,SBD,MR-T2,82.5,Raw,2005,,CA,78.96,182.5,190,192.5,192.5,107.5,115,-120,115,215,-227.5,-227.5,215,522.5,,
7,Steven Johnston,M,SBD,MR-T2,82.5,Raw,2004,,CT,79.89,170,-185,185,185,102.5,110,115,115,170,187.5,200,200,500,,
8,Dylan Gabor,M,SBD,MR-T2,82.5,Raw,2004,,FL,81.46,177.5,187.5,190,190,120,-127.5,-127.5,120,190,-205,-205,190,500,,
1,Jeremy Razak,M,SBD,MR-T3,60,Raw,2003,,NY,59.24,162.5,170,172.5,172.5,115,122.5,-127.5,122.5,170,177.5,182.5,182.5,477.5,,
2,Josiah Melendez,M,SBD,MR-T3,60,Raw,2002,,MI,58.71,140,-150,150,150,102.5,107.5,110,110,165,175,-180,175,435,,
1,Joseph Borenstein,M,SBD,MR-T3,75,Raw,2002,,FL,74.71,237.5,-247.5,247.5,247.5,-175,175,-182.5,175,305,315,-322.5,315,737.5,,
2,Ethan Snider,M,SBD,MR-T3,75,Raw,2003,,KY,73.13,195,205,212.5,212.5,117.5,122.5,125,125,235,250,260,260,597.5,,
3,Dante Sena,M,SBD,MR-T3,75,Raw,2002,,NJ,69.64,180,-192.5,-195,180,120,125,127.5,127.5,240,250,257.5,257.5,565,,
4,Ivan Mei,M,SBD,MR-T3,75,Raw,2003,,IL,74.42,-172.5,175,-195,175,107.5,112.5,120,120,-232.5,232.5,252.5,252.5,547.5,,
5,Joseph Valentine,M,SBD,MR-T3,75,Raw,2003,,MI,74.42,172.5,185,-190,185,127.5,135,-137.5,135,205,-215,-215,205,525,,
DQ,Brian Elderd,M,SBD,MR-T3,75,Raw,2002,,MA,74.24,-222.5,-227.5,-230,,130,135,-140,135,235,-245,250,250,,,
1,Jordan McKinley,M,SBD,MR-T3,90,Raw,2002,,FL,87.71,-245,252.5,262.5,262.5,167.5,177.5,187.5,187.5,-300,300,-320,300,750,,
2,Ethan Marshall,M,SBD,MR-T3,90,Raw,2003,,VA,89.17,247.5,265,275,275,175,182.5,-187.5,182.5,-247.5,247.5,-265,247.5,705,,
3,Tobias Campbell,M,SBD,MR-T3,90,Raw,2002,,CO,87.59,225,235,242.5,242.5,140,147.5,155,155,265,280,282.5,282.5,680,,
4,Nikolas Cristan,M,SBD,MR-T3,90,Raw,2003,,TX,88.48,222.5,232.5,245,245,155,-162.5,165,165,247.5,262.5,270,270,680,,
5,Peyton Mitties,M,SBD,MR-T3,90,Raw,2003,,NE,89.46,245,255,-262.5,255,137.5,142.5,-145,142.5,262.5,272.5,-285,272.5,670,,
6,Max Marohl,M,SBD,MR-T3,90,Raw,2003,,WI,88.12,225,235,-240,235,140,-145,-147.5,140,-255,255,275,275,650,,
7,RC Skelton,M,SBD,MR-T3,90,Raw,2003,,TX,88.75,220,235,-240,235,165,-175,-175,165,237.5,250,-270,250,650,,
8,Sam Sikora,M,SBD,MR-T3,90,Raw,2002,,MI,89.55,235,250,-255,250,135,145,-152.5,145,235,255,-267.5,255,650,,
9,Hector Hernandez,M,SBD,MR-T3,90,Raw,2002,,IL,87.82,227.5,240,-247.5,240,-142.5,142.5,-147.5,142.5,245,257.5,-277.5,257.5,640,,
10,Min Huam,M,SBD,MR-T3,90,Raw,2002,,NV,89.6,222.5,237.5,245,245,147.5,152.5,157.5,157.5,217.5,225,230,230,632.5,,
11,Nicholas Fuller,M,SBD,MR-T3,90,Raw,2004,,LA,88.41,200,210,217.5,217.5,145,150,155,155,245,255,-262.5,255,627.5,,
12,Zachary Marquez,M,SBD,MR-T3,90,Raw,2003,,IL,88.02,210,220,,220,130,-135,-135,130,247.5,257.5,-265,257.5,607.5,,
13,Matthew DiSunno,M,SBD,MR-T3,90,Raw,2003,,NY,88.25,207.5,215,-222.5,215,137.5,142.5,-150,142.5,232.5,245,,245,602.5,,
14,Kaiden Oliver,M,SBD,MR-T3,90,Raw,2003,,WA,89.19,207.5,217.5,225,225,120,127.5,,127.5,237.5,250,-257.5,250,602.5,,
15,Owen Rung,M,SBD,MR-T3,90,Raw,2002,,TX,87.89,187.5,200,-210,200,150,155,157.5,157.5,210,225,-232.5,225,582.5,,
16,Kaleth Polanco-Pinto,M,SBD,MR-T3,90,Raw,2002,,TX,89.09,190,202.5,212.5,212.5,137.5,145,150,150,205,217.5,-227.5,217.5,580,,
17,Mason Boss,M,SBD,MR-T3,90,Raw,2002,,CO,86.64,205,-215,-217.5,205,115,-125,-130,115,247.5,-250,-277.5,247.5,567.5,,
DQ,Philip An,M,SBD,MR-T3,90,Raw,2003,,IL,88.65,225,230,237.5,237.5,-122.5,-122.5,-122.5,,227.5,237.5,-250,237.5,,,
1,Tim Hansen,M,SBD,MR-T3,100,Raw,2003,,NY,96.87,265,280,287.5,287.5,140,150,-155,150,287.5,305,-317.5,305,742.5,,
2,Evan Van Bree,M,SBD,MR-T3,100,Raw,2002,,RI,95.81,237.5,245,255,255,165,175,180,180,247.5,260,-270,260,695,,
3,Josh Foote,M,SBD,MR-T3,100,Raw,2002,,CT,96.24,232.5,245,255,255,147.5,155,-157.5,155,265,277.5,-287.5,277.5,687.5,,
4,Bryce Hale #1,M,SBD,MR-T3,100,Raw,2002,,GA,96.18,220,230,235,235,152.5,160,162.5,162.5,265,282.5,-300,282.5,680,,
5,Drew Cargill,M,SBD,MR-T3,100,Raw,2002,,GA,95.41,212.5,225,230,230,167.5,172.5,-177.5,172.5,245,260,-277.5,260,662.5,,
6,Zachary Weakland,M,SBD,MR-T3,100,Raw,2003,,PA,94.86,227.5,237.5,-250,237.5,155,160,-162.5,160,237.5,245,255,255,652.5,,
7,Lukas Studzinski,M,SBD,MR-T3,100,Raw,2003,,MA,98.1,225,230,-232.5,230,135,140,142.5,142.5,255,267.5,275,275,647.5,,
8,Zachary Bawcum,M,SBD,MR-T3,100,Raw,2002,,TX,94.44,225,235,240,240,135,140,145,145,230,242.5,-257.5,242.5,627.5,,
9,Drew Ragatz,M,SBD,MR-T3,100,Raw,2003,,MI,92.8,215,227.5,-235,227.5,130,140,145,145,210,225,-255,225,597.5,,
1,Dustin Limerick,M,SBD,MR-T3,110,Raw,2002,,MS,108.02,312.5,327.5,-338,327.5,167.5,175,177.5,177.5,310,326,-335.5,326,831,,
2,Lewis Henneberger,M,SBD,MR-T3,110,Raw,2003,,CA,108.18,245,257.5,267.5,267.5,160,167.5,175,175,280,295,-307.5,295,737.5,,
3,Darrell Justice,M,SBD,MR-T3,110,Raw,2002,,MI,107.5,210,220,235,235,160,162.5,172.5,172.5,232.5,240,247.5,247.5,655,,
4,Quinn Parker,M,SBD,MR-T3,110,Raw,2002,,WI,102.4,220,232.5,242.5,242.5,130,-135,-135,130,225,240,262.5,262.5,635,,
5,Aidan Gollan,M,SBD,MR-T3,110,Raw,2003,,MI,106.92,205,215,225,225,155,160,165,165,245,-255,-265,245,635,,
6,Ryan Strohman,M,SBD,MR-T3,110,Raw,2003,,MI,100.34,195,207.5,-217.5,207.5,127.5,135,-140,135,267.5,-287.5,-300,267.5,610,,
1,Luke Miles,M,SBD,MR-T3,125,Raw,2003,,TX,110.8,-255,255,-265,255,162.5,-165,-165,162.5,300.5,320.5,-330.5,320.5,738,,
2,Alex Wells,M,SBD,MR-T3,125,Raw,2002,,FL,121.8,-255,265,272.5,272.5,165,-175,182.5,182.5,237.5,250,-255,250,705,,
3,Miguel Mercado Jr,M,SBD,MR-T3,125,Raw,2002,,WI,117.22,240,247.5,255,255,-155,160,167.5,167.5,235,245,255,255,677.5,,
4,Ryan Subia,M,SBD,MR-T3,125,Raw,2002,,CA,113.09,202.5,-205,205,205,155,160,-162.5,160,260,275,-277.5,275,640,,
1,Austin Nikolai,M,SBD,MR-T3,67.5,Raw,2003,,WI,66.13,215,225,232.5,232.5,120,125,127.5,127.5,240,252.5,261,261,621,,
2,Asante Gordon,M,SBD,MR-T3,67.5,Raw,2003,,IA,65.76,190,200,205,205,105,110,115,115,240,250,260,260,580,,
3,Noah Robinson,M,SBD,MR-T3,67.5,Raw,2003,,UT,67.24,192.5,200,-205,200,130,-135,-135,130,237.5,-250,-250,237.5,567.5,,
4,Kevin Yount,M,SBD,MR-T3,67.5,Raw,2003,,SC,66.64,197.5,207.5,-217.5,207.5,-125,125,130,130,217.5,222.5,-227.5,222.5,560,,
5,Kevin Serrano #1,M,SBD,MR-T3,67.5,Raw,2002,,IL,66.74,-167.5,172.5,185,185,102.5,-112.5,-112.5,102.5,235,252.5,260.5,260.5,548,,
6,Youssef Abdelsamad,M,SBD,MR-T3,67.5,Raw,2002,,VA,66.69,-185,190,200,200,100,102.5,-107.5,102.5,227.5,237.5,242.5,242.5,545,,
7,Alan Chan #2,M,SBD,MR-T3,67.5,Raw,2003,,IL,66.61,200,210,-220,210,102.5,110,115,115,200,215,-220,215,540,,
8,Dean Cordero,M,SBD,MR-T3,67.5,Raw,2003,,IL,65.61,170,177.5,182.5,182.5,125,132.5,140,140,197.5,205,212.5,212.5,535,,
9,Brian Counsil,M,SBD,MR-T3,67.5,Raw,2003,,KS,67.09,-210,210,-212.5,210,127.5,-130,-130,127.5,187.5,192.5,197.5,197.5,535,,
10,Gabe Rochette,M,SBD,MR-T3,67.5,Raw,2003,,WA,66.31,175,-182.5,-187.5,175,102.5,107.5,112.5,112.5,-240,-240,240,240,527.5,,
11,Aaron Griffith,M,SBD,MR-T3,67.5,Raw,2003,,IL,67.46,185,192.5,-200,192.5,105,115,117.5,117.5,190,197.5,205,205,515,,
12,Christopher Nguyen #5,M,SBD,MR-T3,67.5,Raw,2003,,TX,66,157.5,167.5,-172.5,167.5,102.5,110,115,115,-215,-227.5,227.5,227.5,510,,
13,Ben Vuckovich,M,SBD,MR-T3,67.5,Raw,2002,,PA,64.09,167.5,177.5,-182.5,177.5,105,107.5,110,110,197.5,205,-207.5,205,492.5,,
14,Logan Camacho,M,SBD,MR-T3,67.5,Raw,2002,,FL,63.47,162.5,-167.5,-167.5,162.5,100,-105,-105,100,192.5,200,210,210,472.5,,
15,Garron Slater,M,SBD,MR-T3,67.5,Raw,2004,,CO,64.79,147.5,152.5,160,160,107.5,115,117.5,117.5,-175,185,195,195,472.5,,
16,Jacob Lopez,M,SBD,MR-T3,67.5,Raw,2003,,NY,65.1,162.5,-170,170,170,95,100,-102.5,100,195,202.5,-207.5,202.5,472.5,,
17,Ian Giesinger,M,SBD,MR-T3,67.5,Raw,2003,,NV,65.45,160,-170,170,170,100,105,-110,105,185,195,-205,195,470,,
DQ,James McArthur,M,SBD,MR-T3,67.5,Raw,2002,,IL,66.07,152.5,160,-165,160,-117.5,-125,-125,,170,177.5,182.5,182.5,,,
1,Donavin Spears,M,SBD,MR-T3,82.5,Raw,2002,,OH,82.37,240,250,-260,250,170,180,-185,180,272.5,285,297.5,297.5,727.5,,
2,Samuel Friedrich,M,SBD,MR-T3,82.5,Raw,2003,,MI,82.14,-225,237.5,247.5,247.5,147.5,155,160,160,260,275,-285,275,682.5,,
3,Ethan Stone,M,SBD,MR-T3,82.5,Raw,2002,,GA,82.01,220,230,-232.5,230,135,142.5,147.5,147.5,272.5,-285,-285,272.5,650,,
4,Dean Ippolito,M,SBD,MR-T3,82.5,Raw,2003,,NJ,81.69,190,202.5,207.5,207.5,130,140,-142.5,140,-245,247.5,267.5,267.5,615,,
5,Andrew Keller,M,SBD,MR-T3,82.5,Raw,2002,,OH,81.59,190,200,-210,200,140,150,-155,150,230,245,260,260,610,,
6,Ian Poague,M,SBD,MR-T3,82.5,Raw,2003,,KS,78.65,190,202.5,215,215,150,-157.5,,150,212.5,235,-250,235,600,,
7,David Brown #23,M,SBD,MR-T3,82.5,Raw,2002,,MO,81.38,200,210,217.5,217.5,112.5,115,117.5,117.5,242.5,255,262.5,262.5,597.5,,
8,Antonio Marrero,M,SBD,MR-T3,82.5,Raw,2003,,NY,81.87,170,180,185,185,120,125,127.5,127.5,255,275.5,-298,275.5,588,,
9,Logan Reel,M,SBD,MR-T3,82.5,Raw,2003,,IA,82.3,205,212.5,220,220,120,125,130,130,225,-237.5,-245,225,575,,
DQ,Adrian Garcia,M,SBD,MR-T3,82.5,Raw,2003,,CA,81.57,210,-217.5,225,225,125,-132.5,132.5,132.5,-250,-260,,,,,
1,Logan Gaudreau,M,SBD,M-T1,82.5,Single-ply,2007,,CO,77,-145,155,-175,155,75,80,90,90,145,-170,-170,145,390,,
DQ,Joel Plaisance,M,SBD,M-T3,90,Single-ply,2002,,LA,85.72,-235,235,242.5,242.5,-197.5,-197.5,-197.5,,-215,,,,,,
1,Joseph Garza,M,SBD,M-T3,100,Single-ply,2003,,TX,90.76,185,192.5,197.5,197.5,102.5,-107.5,-107.5,102.5,200,210,227.5,227.5,527.5,,
1,Leland Stanford,M,SBD,M-T3,110,Single-ply,2002,,KS,105.49,215,225,230,230,117.5,122.5,125,125,230,245,255,255,610,,
1,Cody Rice,M,SBD,M-T3,140,Single-ply,2002,,NE,137.56,215,227.5,232.5,232.5,125,132.5,137.5,137.5,230,245,272.5,272.5,642.5,,
