Division,WeightClassKg,Place,Name,Team,BodyweightKg,Best3SquatKg,Best3BenchKg,Best3DeadliftKg,TotalKg,Equipment,Event,Sex,BirthDate
Boys,51.71,1,Talon Cavazos,Big Spring,50.76,111.13,65.77,142.88,319.78,Single-ply,SBD,M,
Boys,51.71,2,Quaylon Rios,Fort Stockton,51.53,113.4,70.31,111.13,294.84,Single-ply,SBD,M,
Boys,51.71,3,David Haygood,Andrews,50.08,95.25,61.23,124.74,281.23,Single-ply,SBD,M,
Boys,55.79,1,Elijah Mier,Big Spring,54.75,136.08,77.11,151.95,365.14,Single-ply,SBD,M,
Boys,55.79,2,David Rojas,Odessa,52.75,122.47,70.31,136.08,328.85,Single-ply,SBD,M,
Boys,55.79,3,Jayden Ramirez,Fort Stockton,55.25,102.06,70.31,127.01,299.37,Single-ply,SBD,M,
Boys,59.87,1,Ivan Zamora,Andrews,57.11,183.7,115.67,172.37,471.74,Single-ply,SBD,M,
Boys,59.87,2,Carlos Alvarado,Odessa,59.33,176.9,88.45,195.04,460.4,Single-ply,SBD,M,
Boys,59.87,3,Kenny Richardson,Big Spring,59.33,167.83,99.79,181.44,449.06,Single-ply,SBD,M,
Boys,59.87,4,Andy Martinez,Odessa,59.74,165.56,83.91,145.15,394.63,Single-ply,SBD,M,
Boys,59.87,5,Arturo Del Valle,Big Spring,58.33,142.88,92.99,147.42,383.29,Single-ply,SBD,M,
Boys,67.13,1,Sonny Ledesma,Big Spring,66.13,165.56,83.91,190.51,439.98,Single-ply,SBD,M,
Boys,67.13,2,Kendric Porras,Fort Stockton,64.68,163.29,86.18,151.95,401.43,Single-ply,SBD,M,
Boys,67.13,3,Evan Medrano,Big Spring,62.73,124.74,79.38,163.29,367.41,Single-ply,SBD,M,
Boys,67.13,4,Gadiel Rubio,Monahans,66.59,131.54,83.91,149.69,365.14,Single-ply,SBD,M,
Boys,67.13,5,Kaiden Taramillo,Andrews,66.32,92.99,45.36,120.2,258.55,Single-ply,SBD,M,
Boys,74.84,1,Indiana Taylor,Andrews,74.75,215.46,156.49,226.8,598.74,Single-ply,SBD,M,
Boys,74.84,2,David Madrid,Pecos,74.62,188.24,133.81,199.58,521.63,Single-ply,SBD,M,
Boys,74.84,3,Gio Tarango,Midland Greenwood,74.84,215.46,122.47,183.7,521.63,Single-ply,SBD,M,
Boys,74.84,4,Clayton Kelly,Midland Classical Academy,73.3,174.63,115.67,215.46,505.76,Single-ply,SBD,M,
Boys,74.84,5,Daniel Montano,Andrews,67.31,204.12,95.25,199.58,498.95,Single-ply,SBD,M,
Boys,74.84,6,John Breeden,Midland Greenwood,73.35,183.7,95.25,197.31,476.27,Single-ply,SBD,M,
Boys,74.84,7,Jared Wacker,Midland Classical Academy,68.22,176.9,99.79,197.31,474,Single-ply,SBD,M,
Boys,74.84,8,Fabio Ramos,Odessa,74.84,183.7,106.59,183.7,474,Single-ply,SBD,M,
Boys,74.84,9,Jose Armendariz,Andrews,74.57,172.37,102.06,181.44,455.86,Single-ply,SBD,M,
Boys,74.84,10,Andrew Strahan,Midland Classical Academy,69.22,156.49,88.45,192.78,437.72,Single-ply,SBD,M,
Boys,74.84,11,Tyson Valenzuela,Andrews,73.71,158.76,79.38,190.51,428.64,Single-ply,SBD,M,
Boys,74.84,12,Kaleb Paz,Pecos,68.95,147.42,90.72,151.95,390.09,Single-ply,SBD,M,
Boys,74.84,13,Rene Orona,Monahans,73.48,131.54,86.18,158.76,376.48,Single-ply,SBD,M,
Boys,74.84,DQ,Thomas Mireles,Midland Greenwood,74.8,,,,,Single-ply,SBD,M,
Boys,82.1,1,George Wagner,Andrews,80.51,240.4,145.15,254.01,639.57,Single-ply,SBD,M,
Boys,82.1,2,Ernan Carrasco,Andrews,81.74,238.14,154.22,233.6,625.96,Single-ply,SBD,M,
Boys,82.1,3,Sebastian Bejarano,Odessa,80.42,206.38,133.81,215.46,555.65,Single-ply,SBD,M,
Boys,82.1,4,Karl Karabanoff,Big Spring,80.15,204.12,120.2,208.65,532.97,Single-ply,SBD,M,
Boys,82.1,5,Connor McCrarey,Andrews,81.24,208.65,111.13,199.58,519.36,Single-ply,SBD,M,
Boys,82.1,6,John Hyatt,Midland Greenwood,79.2,188.24,106.59,176.9,471.74,Single-ply,SBD,M,
Boys,82.1,7,Jacob Guy,Andrews,76.93,183.7,111.13,161.03,455.86,Single-ply,SBD,M,
Boys,82.1,DQ,Grayson Layh,Midland Classical Academy,79.29,,,,,Single-ply,SBD,M,
Boys,82.1,DQ,Jimmy Vasquez,Midland Greenwood,75.11,260.82,113.4,,,Single-ply,SBD,M,
Boys,82.1,DQ,Wyatt Olive,Midland Greenwood,80.74,219.99,113.4,,,Single-ply,SBD,M,
Boys,89.81,1,Luis Cervantes,Andrews,89.13,251.74,136.08,229.06,616.89,Single-ply,SBD,M,
Boys,89.81,2,Justin Sanchez,Fort Stockton,82.69,208.65,145.15,226.8,580.6,Single-ply,SBD,M,
Boys,89.81,3,Orlando Baeza,Midland Greenwood,89.13,240.4,145.15,192.78,578.33,Single-ply,SBD,M,
Boys,89.81,4,Seth Olsen,Big Spring,86.68,204.12,115.67,235.87,555.65,Single-ply,SBD,M,
Boys,89.81,5,Kyen Purser,Midland Greenwood,88.27,226.8,120.2,197.31,544.31,Single-ply,SBD,M,
Boys,89.81,6,Brandon Castillo,Andrews,87.77,217.72,120.2,204.12,542.04,Single-ply,SBD,M,
Boys,89.81,7,Jaydrien Ramirez,Fort Stockton,82.92,204.12,129.27,188.24,521.63,Single-ply,SBD,M,
Boys,89.81,8,Isaih Montoya,Andrews,89.58,185.97,124.74,197.31,508.02,Single-ply,SBD,M,
Boys,89.81,DQ,Evan Mendoza,Pecos,88.41,165.56,113.4,,,Single-ply,SBD,M,
Boys,99.79,1,Jaxon Lawdermilk,Andrews,98.11,254.01,124.74,238.14,616.89,Single-ply,SBD,M,
Boys,99.79,2,Kyle Warren,Big Spring,95.35,219.99,104.33,213.19,537.51,Single-ply,SBD,M,
Boys,99.79,3,Lucas Ordonez,Monahans,96.8,192.78,136.08,199.58,528.44,Single-ply,SBD,M,
Boys,99.79,4,Elijah Burton,Big Spring,98.02,201.85,124.74,192.78,519.36,Single-ply,SBD,M,
Boys,99.79,5,Joseph Vowles,Monahans,99.25,195.04,113.4,190.51,498.95,Single-ply,SBD,M,
Boys,99.79,6,Elijah Escajeda,Fort Stockton,97.52,183.7,124.74,188.24,496.68,Single-ply,SBD,M,
Boys,99.79,7,Rito Gomez,Fort Stockton,91.85,142.88,117.93,142.88,403.7,Single-ply,SBD,M,
Boys,99.79,DQ,Michael Marin,Odessa,99.25,188.24,115.67,,,Single-ply,SBD,M,
Boys,99.79,DQ,Cameron Saldovar,Andrews,96.75,,,,,Single-ply,SBD,M,
Boys,109.77,1,Joe Bolanos,Odessa,105.87,247.21,158.76,251.74,657.71,Single-ply,SBD,M,
Boys,109.77,2,Adrian Salcido,Andrews,107.68,258.55,167.83,226.8,653.17,Single-ply,SBD,M,
Boys,109.77,3,Cash Caswell,Andrews,108.18,229.06,133.81,226.8,589.67,Single-ply,SBD,M,
Boys,109.77,4,Gage Strain,Pecos,107.86,235.87,136.08,213.19,585.13,Single-ply,SBD,M,
Boys,109.77,5,David Zamora,Andrews,106.59,217.72,120.2,235.87,573.79,Single-ply,SBD,M,
Boys,109.77,6,Damian Dominguez,Odessa,109.59,229.06,122.47,204.12,555.65,Single-ply,SBD,M,
Boys,109.77,7,Jonathan Dozal,Odessa,105.05,201.85,122.47,206.38,530.7,Single-ply,SBD,M,
Boys,109.77,8,Gavin Garcia,Andrews,102.51,170.1,124.74,165.56,460.4,Single-ply,SBD,M,
Boys,109.77,9,Nathan Marquez,Monahans,104.1,163.29,86.18,176.9,426.38,Single-ply,SBD,M,
Boys,109.77,DQ,Jacob Payne,Monahans,109,226.8,124.74,,,Single-ply,SBD,M,
Boys,124.74,1,Josiah Flores,Andrews,119.48,272.16,176.9,226.8,675.85,Single-ply,SBD,M,
Boys,124.74,2,Drew Coker,Monahans,120.43,242.67,138.35,219.99,601.01,Single-ply,SBD,M,
Boys,124.74,3,Moises Rodriguez,Monahans,112.54,197.31,140.61,226.8,564.72,Single-ply,SBD,M,
Boys,124.74,4,Ivan Montes,Monahans,110.27,204.12,111.13,247.21,562.45,Single-ply,SBD,M,
Boys,124.74,5,Damareon Gray,Odessa,113.4,195.04,140.61,219.99,555.65,Single-ply,SBD,M,
Boys,124.74,6,Jayce Harris,Pecos,119.98,199.58,145.15,188.24,532.97,Single-ply,SBD,M,
Boys,124.74,7,Andrew Gonzales,Fort Stockton,116.8,195.04,111.13,190.51,496.68,Single-ply,SBD,M,
Boys,124.74,8,Alec Galindo,Fort Stockton,120.29,183.7,111.13,167.83,462.66,Single-ply,SBD,M,
Boys,139.71,1,Jacob Yanez,Big Spring,133.17,272.16,145.15,204.12,621.42,Single-ply,SBD,M,
Boys,139.71,2,Gerardo Vazquez,Odessa,131.45,260.82,138.35,206.38,605.55,Single-ply,SBD,M,
Boys,139.71,3,Luis Mendoza,Fort Stockton,134.22,251.74,136.08,181.44,569.26,Single-ply,SBD,M,
Boys,139.71,4,Gilberto Martinez,Andrews,139.39,176.9,117.93,174.63,469.47,Single-ply,SBD,M,
Boys,139.71+,1,Emilio Dominguez,Odessa,143.97,328.85,195.04,249.48,773.37,Single-ply,SBD,M,
Boys,139.71+,2,Julius Garcia,Fort Stockton,143.7,142.88,83.91,124.74,351.53,Single-ply,SBD,M,
Boys,139.71+,DQ,Chico Delgado,Andrews,144.79,,,,,Single-ply,SBD,M,
