Division,WeightClassKg,Place,Name,Team,BodyweightKg,Best3SquatKg,Best3BenchKg,Best3DeadliftKg,TotalKg,Equipment,Event,Sex,BirthDate
Boys,51.71,1,Colby Murphey,Ponder,49.44,120.2,72.57,115.67,308.44,Single-ply,SBD,M,
Boys,51.71,2,Jaden Dobyns,Alvord,50.8,108.86,56.7,115.67,281.23,Single-ply,SBD,M,
Boys,51.71,3,Nicky Diaz,Nocona,50.8,99.79,70.31,108.86,278.96,Single-ply,SBD,M,
Boys,55.79,1,Miguel Olivares,Nocona,55.79,156.49,90.72,154.22,401.43,Single-ply,SBD,M,
Boys,55.79,2,Colton Covington,Bowie,55.79,129.27,90.72,151.95,371.95,Single-ply,SBD,M,
Boys,55.79,3,Leander Lovelace,Alvord,55.79,129.27,63.5,136.08,328.85,Single-ply,SBD,M,
Boys,55.79,4,Tyler Slimp,Alvord,55.79,108.86,68.04,113.4,290.3,Single-ply,SBD,M,
Boys,55.79,5,James Allison,Bowie,53.52,106.59,63.5,113.4,283.5,Single-ply,SBD,M,
Boys,55.79,DQ,Colton Prestridge,Paradise,54.43,122.47,68.04,,,Single-ply,SBD,M,
Boys,59.87,1,Wyatt Abbott,Alvord,58.06,165.56,95.25,197.31,458.13,Single-ply,SBD,M,
Boys,59.87,2,Damian Estrada,Paradise,59.87,161.03,90.72,142.88,394.63,Single-ply,SBD,M,
Boys,59.87,3,Dorian Ellis,Nocona,58.51,149.69,83.91,151.95,385.55,Single-ply,SBD,M,
Boys,59.87,4,Claetyn Moore,Ponder,59.87,154.22,72.57,131.54,358.34,Single-ply,SBD,M,
Boys,59.87,5,Damien Lopez,Chico,59.87,136.08,70.31,129.27,335.66,Single-ply,SBD,M,
Boys,67.13,1,Tucker Abbott,Alvord,63.96,197.31,115.67,224.53,537.51,Single-ply,SBD,M,
Boys,67.13,2,Arturo Parra,Chico,67.13,199.58,104.33,181.44,485.34,Single-ply,SBD,M,
Boys,67.13,3,Mason Hodges,Ponder,67.13,183.7,97.52,161.03,442.25,Single-ply,SBD,M,
Boys,67.13,4,Lane Medlock,Boyd,65.77,167.83,92.99,172.37,433.18,Single-ply,SBD,M,
Boys,67.13,5,Jason Vaughn,Bowie,63.96,117.93,92.99,149.69,360.61,Single-ply,SBD,M,
Boys,67.13,6,Wyatt Davis,Boyd,65.32,136.08,83.91,136.08,356.07,Single-ply,SBD,M,
Boys,67.13,7,Gavin Furgerson,Boyd,67.13,124.74,68.04,113.4,306.17,Single-ply,SBD,M,
Boys,74.84,1,Chase Compton,Alvord,70.31,208.65,117.93,174.63,501.22,Single-ply,SBD,M,
Boys,74.84,2,Trevor Hopson,Bowie,69.4,167.83,104.33,172.37,444.52,Single-ply,SBD,M,
Boys,74.84,3,Xavier Ochoa,Alvord,70.31,170.1,111.13,158.76,439.98,Single-ply,SBD,M,
Boys,74.84,4,Isaac Vara,Alvord,73.94,170.1,113.4,149.69,433.18,Single-ply,SBD,M,
Boys,74.84,5,Charles Marks,Ponder,71.67,161.03,92.99,170.1,424.11,Single-ply,SBD,M,
Boys,74.84,6,Jaxson Johnston,Bowie,73.94,151.95,102.06,158.76,412.77,Single-ply,SBD,M,
Boys,74.84,7,Kale Jones,Ponder,73.03,147.42,92.99,151.95,392.36,Single-ply,SBD,M,
Boys,74.84,8,Christian Masters,Boyd,69.4,151.95,99.79,138.35,390.09,Single-ply,SBD,M,
Boys,74.84,9,Carson Garite,Ponder,73.03,149.69,83.91,151.95,385.55,Single-ply,SBD,M,
Boys,74.84,10,Chase Eustace,Boyd,68.04,136.08,86.18,149.69,371.95,Single-ply,SBD,M,
Boys,74.84,11,Matthew Longacre,Chico,73.03,124.74,81.65,158.76,365.14,Single-ply,SBD,M,
Boys,74.84,12,Christian Aguilar,Boyd,73.94,136.08,81.65,138.35,356.07,Single-ply,SBD,M,
Boys,74.84,13,Darren Loper,Paradise,68.04,120.2,77.11,142.88,340.19,Single-ply,SBD,M,
Boys,82.1,1,Caden Smith,Ponder,81.65,199.58,138.35,226.8,564.72,Single-ply,SBD,M,
Boys,82.1,2,Rayce Pennartz,Alvord,78.93,217.72,120.2,204.12,542.04,Single-ply,SBD,M,
Boys,82.1,3,Tad Tamplen,Ponder,79.38,226.8,120.2,195.04,542.04,Single-ply,SBD,M,
Boys,82.1,4,Landon Wilson,Nocona,80.74,183.7,138.35,208.65,530.7,Single-ply,SBD,M,
Boys,82.1,5,Michael Nelson,Boyd,78.93,190.51,108.86,217.72,517.1,Single-ply,SBD,M,
Boys,82.1,6,Zane Cassidy,Ponder,78.02,192.78,111.13,183.7,487.61,Single-ply,SBD,M,
Boys,82.1,7,Jace Wilder,Boyd,78.47,140.61,115.67,151.95,408.23,Single-ply,SBD,M,
Boys,82.1,8,Isaac Fulumana,Nocona,80.74,133.81,58.97,115.67,308.44,Single-ply,SBD,M,
Boys,89.81,1,Callan Furgerson,Boyd,86.18,190.51,133.81,199.58,523.9,Single-ply,SBD,M,
Boys,89.81,2,Johnny Stone,Nocona,83.46,192.78,104.33,199.58,496.68,Single-ply,SBD,M,
Boys,89.81,3,Merrick Harvey,Paradise,83.91,188.24,120.2,181.44,489.88,Single-ply,SBD,M,
Boys,89.81,4,Tucker Thompson,Ponder,83.91,185.97,113.4,174.63,474,Single-ply,SBD,M,
Boys,89.81,5,Jesse Nelson,Boyd,87.54,172.37,108.86,167.83,449.06,Single-ply,SBD,M,
Boys,89.81,6,Blaine Warner,Paradise,88,154.22,104.33,154.22,412.77,Single-ply,SBD,M,
Boys,99.79,1,Colby Price,Bowie,91.63,219.99,117.93,188.24,526.17,Single-ply,SBD,M,
Boys,99.79,2,Jessie Rodriguez,Boyd,97.52,208.65,120.2,174.63,503.49,Single-ply,SBD,M,
Boys,99.79,3,Levi Waggoner,Paradise,95.25,204.12,108.86,174.63,487.61,Single-ply,SBD,M,
Boys,99.79,4,Mikah Winters,Boyd,95.25,181.44,104.33,183.7,469.47,Single-ply,SBD,M,
Boys,99.79,5,Alessandro Rico,Nocona,92.53,156.49,102.06,185.97,444.52,Single-ply,SBD,M,
Boys,99.79,6,Peter Bonenberger,Ponder,90.72,158.76,102.06,149.69,410.5,Single-ply,SBD,M,
Boys,109.77,1,Jakson Hofbauer,Bowie,109.32,244.94,138.35,208.65,591.94,Single-ply,SBD,M,
Boys,109.77,2,Hayden Sands,Alvord,108.86,235.87,151.95,197.31,585.13,Single-ply,SBD,M,
Boys,109.77,3,Josh Tucker,Paradise,107.95,217.72,122.47,224.53,564.72,Single-ply,SBD,M,
Boys,109.77,4,Bryan DeLeon,Ponder,107.05,238.14,124.74,188.24,551.11,Single-ply,SBD,M,
Boys,109.77,5,James Frye,Alvord,101.6,185.97,97.52,165.56,449.06,Single-ply,SBD,M,
Boys,109.77,6,Fabian Ortiz,Paradise,105.69,117.93,104.33,158.76,381.02,Single-ply,SBD,M,
Boys,109.77,DQ,Jakob Reed,Bowie,104.33,165.56,,,,Single-ply,SBD,M,
Boys,124.74,1,Bryan Arellano,Bowie,116.57,294.84,181.44,206.38,682.66,Single-ply,SBD,M,
Boys,124.74,2,Gabe Arencibia,Bowie,115.21,197.31,127.01,226.8,551.11,Single-ply,SBD,M,
Boys,124.74,3,Joe Green,Ponder,112.49,222.26,129.27,188.24,539.77,Single-ply,SBD,M,
Boys,124.74,4,Thomas Carmona,Ponder,116.12,199.58,115.67,185.97,501.22,Single-ply,SBD,M,
Boys,139.71,1,Coleton Price,Bowie,135.17,294.84,147.42,235.87,678.12,Single-ply,SBD,M,
Boys,139.71,2,William Estel,Boyd,126.55,249.48,131.54,181.44,562.45,Single-ply,SBD,M,
Boys,139.71,3,Jacobi McGregor,Bowie,131.09,181.44,108.86,163.29,453.59,Single-ply,SBD,M,
Boys,139.71,DQ,Ihra Montoya,Ponder,135.17,222.26,120.2,217.72,,Single-ply,SBD,M,
