Name,Sex,BirthDate,Age,BodyweightKg,Country,WeightClassKg,Division,Equipment,Event,Squat1Kg,Squat2Kg,Squat3Kg,Squat4Kg,Best3SquatKg,Bench1Kg,Bench2Kg,Bench3Kg,Bench4Kg,Best3BenchKg,Deadlift1Kg,Deadlift2Kg,Deadlift3Kg,Deadlift4Kg,Best3DeadliftKg,TotalKg,Place
Oleh Boiko,M,1986-08-10,34,78.3,,82.5,O,Multi-ply,B,,,,,,150,,,,150,,,,,,150,1
Juraj Bokroš,M,1999-04-28,21,99.6,Slovakia,100,J,Multi-ply,B,,,,,,120,130,140,,140,,,,,,140,2
Petr Bolf,M,1987-05-01,33,115.3,Czechia,125,O,Multi-ply,B,,,,,,-345,-345,-345,,,,,,,,,DQ
Ilarie Marcel Ciorei,M,1998-11-11,21,71.3,,75,J,Multi-ply,B,,,,,,-120,-120,120,,120,,,,,,120,1
Norbert Deli,M,1981-06-27,39,74.6,Hungary,75,O,Multi-ply,B,,,,,,150,160,162.5,,162.5,,,,,,162.5,3
Dawid Deptuch,M,1986-11-28,33,87,Poland,90,O,Multi-ply,B,,,,,,210,-220,220,,220,,,,,,220,2
Rebeca Ficeková,F,2000-12-29,19,75.4,Slovakia,82.5,T3,Multi-ply,B,,,,,,-80,80,-90,-90,80,,,,,,80,1
Max Glok,M,2001-06-10,19,94.2,Germany,100,T3,Multi-ply,B,,,,,,115,122.5,-127.5,,122.5,,,,,,122.5,1
Milan Greguš,M,1968-04-30,52,98.7,Czechia,100,M3,Multi-ply,B,,,,,,,,,,,,,,,,,DQ
Marek Herák,M,1995-12-20,24,71.4,Slovakia,75,O,Multi-ply,B,,,,,,-200,200,-210,,200,,,,,,200,1
Libor Hurdálek,M,1954-08-05,66,99.9,Czechia,100,M6,Multi-ply,B,,,,,,160,170,-180,,170,,,,,,170,2
Marián Janovský,M,1999-11-23,20,95.5,Czechia,100,J,Multi-ply,B,,,,,,150,-160,-165,,150,,,,,,150,1
Filip Kaňák,M,1993-01-03,27,65.3,Czechia,67.5,O,Multi-ply,B,,,,,,90,100,-110,,100,,,,,,100,1
Jozef Kopálek,M,1982-04-17,38,109.7,Slovakia,110,O,Multi-ply,B,,,,,,-210,-210,210,,210,,,,,,210,1
Adam Kostura,M,1995-06-04,25,138.7,Czechia,140,O,Multi-ply,B,,,,,,210,220,-230,,220,,,,,,220,1
Andrii Kotovenko,M,1983-01-16,37,89.8,Ukraine,90,O,Multi-ply,B,,,,,,180,-200,-200,,180,,,,,,180,3
Martin Krajčí,M,1988-01-06,32,116.3,Slovakia,125,O,Multi-ply,B,,,,,,230,240,-250,,240,,,,,,240,1
Dagmar Liptáková,F,1976-02-19,44,59.8,Slovakia,60,M1,Multi-ply,B,,,,,,120,-130,-130,-130,120,,,,,,120,1
Mieczysłąw Maczka,M,1954-09-11,65,84.5,Germany,90,M6,Multi-ply,B,,,,,,95,102.5,,,102.5,,,,,,102.5,1
Kevin Maher,M,1961-06-03,59,108.1,UK,110,M4,Multi-ply,B,,,,,,185,197.5,205,,205,,,,,,205,1
Pavel Malina,M,1960-02-25,60,62.3,Czechia,67.5,M5,Multi-ply,B,,,,,,107.5,115,-120,,115,,,,,,115,1
Petr Pastýřík,M,1989-08-07,31,120.5,Czechia,125,O,Multi-ply,B,,,,,,-220,220,-252.5,,220,,,,,,220,2
Edgars Peterlēvics,M,1986-09-29,33,87.5,Latvia,90,O,Multi-ply,B,,,,,,255,265,-270,-281,265,,,,,,265,1
Radoslav Radusinović,M,1968-08-13,52,112.8,Croatia,125,M3,Multi-ply,B,,,,,,200,-210,210,,210,,,,,,210,1
Peter Sakala,M,1996-08-09,24,141.5,Slovakia,140+,O,Multi-ply,B,,,,,,-340,-340,-340,,,,,,,,,DQ
Jan Satrapa,M,1986-10-10,33,96.1,Czechia,100,O,Multi-ply,B,,,,,,230,240,-260,,240,,,,,,240,1
Stefan Sochaňski,M,1948-11-17,71,87.5,Poland,90,M7,Multi-ply,B,,,,,,92.5,97.5,,,97.5,,,,,,97.5,1
Franciszek Szabluk,M,1956-09-17,63,97.6,Poland,100,M5,Multi-ply,B,,,,,,-210,-210,-210,,,,,,,,,DQ
József Sztanke,M,1954-06-14,66,93.9,Hungary,100,M6,Multi-ply,B,,,,,,188,195,200,,200,,,,,,200,1
Károly Szuder,M,1987-03-16,33,99,Hungary,100,O,Multi-ply,B,,,,,,215,220,225,,225,,,,,,225,2
Krzysztof Wolszczak,M,1985-06-02,35,74.2,Poland,75,O,Multi-ply,B,,,,,,170,-180,-180,,170,,,,,,170,2
Oskars Zvarts,M,1979-01-01,41,147.7,Latvia,140+,O,Multi-ply,B,,,,,,250,270,-275,,270,,,,,,270,1
Marc Assirelli,M,1948-08-07,72,98.7,France,100,M7,Raw,B,,,,,,110,120,125,,125,,,,,,125,1
Kamil Babiš,M,1991-10-17,28,88.4,Czechia,90,O,Raw,B,,,,,,-170,-175,-175,,,,,,,,,DQ
Marcel Baláž,M,1977-08-06,43,101.6,Slovakia,110,M1,Raw,B,,,,,,175,185,-190,,185,,,,,,185,2
Diana Balážová,F,2003-01-10,17,90,Slovakia,90,T2,Raw,B,,,,,,45,50,52.5,,52.5,,,,,,52.5,1
Melisa Bartková,F,2003-04-12,17,58.3,Slovakia,60,T2,Raw,B,,,,,,35,40,45,,45,,,,,,45,1
Petr Bartošík,M,2001-05-23,19,74.2,Czechia,75,T3,Raw,B,,,,,,130,132.5,-135,,132.5,,,,,,132.5,1
Stanislav Beneš,M,1989-12-04,30,74,Czechia,75,O,Raw,B,,,,,,165,-170,-170,,165,,,,,,165,1
Alexander Benik,M,1975-08-08,45,89,Germany,90,M2,Raw,B,,,,,,170,172.5,-175,,172.5,,,,,,172.5,1
Dana Bešková,F,1954-09-29,65,59.8,Czechia,60,M6,Raw,B,,,,,,35,40,45,,45,,,,,,45,1
Oleh Boiko,M,1986-08-10,34,76.4,Ukraine,82.5,O,Raw,B,,,,,,140,150,-157.5,,150,,,,,,150,2
Michal Bokroš,M,2006-11-20,13,108,Slovakia,110,T1,Raw,B,,,,,,90,100,110,,110,,,,,,110,1
Lukáš Borůvka,M,1988-09-19,31,104.5,Czechia,110,O,Raw,B,,,,,,165,175,-177.5,,175,,,,,,175,5
Zdislav Bradáč,M,1975-08-19,45,122.7,Czechia,125,M2,Raw,B,,,,,,205,-210,,,205,,,,,,205,1
Jarosław Buczko,M,1992-04-24,28,97,Poland,100,O,Raw,B,,,,,,220,227.5,232.5,,232.5,,,,,,232.5,1
Burkhard Steffen,M,1950-05-29,70,69.1,Germany,75,M7,Raw,B,,,,,,80,85,87.5,,87.5,,,,,,87.5,2
Juraj Bystrianský,M,1999-05-26,21,109.6,Slovakia,110,J,Raw,B,,,,,,190,-200,200,,200,,,,,,200,2
Michal Čorba,M,1979-11-27,40,122.7,Slovakia,125,M1,Raw,B,,,,,,170,-175,-175,,170,,,,,,170,2
Krisztián Deme,M,2002-09-25,17,74.6,Slovakia,75,T2,Raw,B,,,,,,110,120,130,,130,,,,,,130,1
Sam Drozdzik,M,1999-06-27,21,134.6,UK,140,J,Raw,B,,,,,,227.5,-247.5,247.5,,247.5,,,,,,247.5,1
Tomasz Drzewiecki,M,1973-08-06,47,129.4,Ireland,140,O,Raw,B,,,,,,180,185,187.5,,187.5,,,,,,187.5,3
Tetiana Dudnyk,F,1983-05-23,37,78.8,Ukraine,82.5,O,Raw,B,,,,,,95,-102.5,-102.5,,95,,,,,,95,1
Irena Dvorská,F,1974-04-13,46,92.5,Czechia,110,M2,Raw,B,,,,,,120,130,-137.5,,130,,,,,,130,1
Hubert Fink,M,1999-11-15,20,94,Poland,100,J,Raw,B,,,,,,150,160,170,,170,,,,,,170,2
Ľudovít Fürješ,M,1972-03-11,48,131.6,Slovakia,140,M2,Raw,B,,,,,,145,155,-160,,155,,,,,,155,4
János Gombos,M,1968-05-24,52,98.6,Hungary,100,M3,Raw,B,,,,,,170,177.5,-182.5,,177.5,,,,,,177.5,1
Patryk Hajduk,M,1996-12-30,23,89.7,Poland,90,J,Raw,B,,,,,,150,-165,,,150,,,,,,150,3
Krzysztof Halczyk,M,1974-12-15,45,134.4,Poland,140,O,Raw,B,,,,,,175,182.5,-187.5,,182.5,,,,,,182.5,4
Vojtěch Herka,M,1997-06-06,23,116.1,Czechia,125,J,Raw,B,,,,,,175,185,192.5,,192.5,,,,,,192.5,1
Zoltán Holczmann,M,1971-05-26,49,142,Hungary,140+,M2,Raw,B,,,,,,170,-190,-190,,170,,,,,,170,1
Erik Honzík,M,1999-04-25,21,86.6,Czechia,90,J,Raw,B,,,,,,162.5,-170,170,,170,,,,,,170,2
Ján Hubay,M,1971-04-16,49,123.7,Slovakia,125,M2,Raw,B,,,,,,140,-145,,,140,,,,,,140,4
Ondrej Hudák,M,1975-02-02,45,120.1,Slovakia,125,M2,Raw,B,,,,,,175,185,200,,200,,,,,,200,2
Peter Chrápek,M,2001-01-17,19,55.5,Slovakia,56,T3,Raw,B,,,,,,-80,85,-95,,85,,,,,,85,1
Oldřich Janoušek,M,1999-04-03,21,74.6,Czechia,75,J,Raw,B,,,,,,100,110,-120,,110,,,,,,110,2
Kateřina Janoutová,F,2002-08-11,18,55.6,Czechia,56,T3,Raw,B,,,,,,55,-60,60,,60,,,,,,60,1
Lukáš Jiruška,M,1983-07-20,37,105.2,Czechia,110,O,Raw,B,,,,,,175,180,-185,,180,,,,,,180,4
Andrzej Juraszek,M,1977-11-30,42,93.3,Poland,100,M1,Raw,B,,,,,,160,165,170,,170,,,,,,170,3
Juraj Kačmárik,M,1985-03-25,35,109.8,Slovakia,110,O,Raw,B,,,,,,175,-185,187.5,,187.5,,,,,,187.5,3
Josef Kajzr,M,1983-07-03,37,82.2,Czechia,82.5,O,Raw,B,,,,,,160,180,,,180,,,,,,180,1
Wojciech Kaliciak,M,1971-12-15,48,99.2,Poland,100,M2,Raw,B,,,,,,125,135,-142.5,,135,,,,,,135,5
Grzegorz Kantor,M,1972-01-19,48,131.7,Poland,140,M2,Raw,B,,,,,,160,165,-167.5,,165,,,,,,165,3
Vladimír Kendiura,M,1975-01-30,45,127.5,Czechia,140,M2,Raw,B,,,,,,210,217.5,222.5,,222.5,,,,,,222.5,1
Jozef Kišš,M,1975-08-17,45,93.2,Slovakia,100,M2,Raw,B,,,,,,180,185,,,185,,,,,,185,2
Jaroslav Klička,M,1983-03-31,37,87.4,Czechia,90,O,Raw,B,,,,,,155,165,170,,170,,,,,,170,2
Dominika Kmeťová,F,1996-08-10,24,67.1,Slovakia,67.5,O,Raw,B,,,,,,77.5,82.5,87.5,,87.5,,,,,,87.5,1
Milan Kohout,M,1972-12-23,47,118.8,Czechia,125,M2,Raw,B,,,,,,175,185,197.5,,197.5,,,,,,197.5,3
Robert Kolena,M,1995-07-10,25,91.7,Czechia,100,O,Raw,B,,,,,,127.5,137.5,142.5,,142.5,,,,,,142.5,3
Michał Kopiec,M,1974-08-29,46,88.7,Poland,90,M2,Raw,B,,,,,,-165,165,-170,,165,,,,,,165,2
Juraj Korman,M,1996-02-06,24,105.9,Slovakia,110,O,Raw,B,,,,,,-170,175,-180,,175,,,,,,175,6
Marcel Koštíř,M,1983-05-28,37,126.4,Czechia,140,O,Raw,B,,,,,,160,170,-175,,170,,,,,,170,5
Andrii Kotovenko,M,1983-01-16,37,90.9,Ukraine,100,O,Raw,B,,,,,,185,-192.5,-192.5,,185,,,,,,185,2
Michał Kowalski,M,2001-12-10,18,77.4,Poland,82.5,T3,Raw,B,,,,,,150,157.5,160,,160,,,,,,160,1
Marek Kratochvíl,M,2003-04-13,17,65,Czechia,67.5,T2,Raw,B,,,,,,100,107.5,115,,115,,,,,,115,1
Rémy Kreyzel,M,1955-06-22,65,87.7,Czechia,90,M6,Raw,B,,,,,,155,165,172,,172,,,,,,172,1
Olha Krotova,F,1978-10-27,41,77.8,Ukraine,82.5,M1,Raw,B,,,,,,95,-102.5,-102.5,,95,,,,,,95,1
Antonín Křížek,M,1997-07-15,23,111.1,Czechia,125,J,Raw,B,,,,,,-160,160,-180,,160,,,,,,160,2
Tomáš Kunz,M,2002-05-16,18,66.5,Czechia,67.5,T3,Raw,B,,,,,,80,90,-95,,90,,,,,,90,1
László Kupcsik,M,1967-01-03,53,85.6,Hungary,90,M3,Raw,B,,,,,,170,-190,-190,,170,,,,,,170,1
Eduard Laczko,M,1999-08-03,21,88.2,Slovakia,90,J,Raw,B,,,,,,160,170,175,,175,,,,,,175,1
Boris Laishin,M,1950-08-06,70,68.5,Israel,75,M7,Raw,B,,,,,,102.5,107.5,110,,110,,,,,,110,1
Vojtech Lázók,M,1968-09-03,51,115.2,Slovakia,125,M3,Raw,B,,,,,,150,160,170,,170,,,,,,170,1
Ladislav Lechan,M,1994-07-30,26,66.5,Slovakia,67.5,O,Raw,B,,,,,,80,90,-100,,90,,,,,,90,1
Petr Maceášik,M,1975-05-26,45,98.4,Czechia,100,M2,Raw,B,,,,,,200,-210,,,200,,,,,,200,1
Mieczysłąw Maczka,M,1954-09-11,65,82.5,Germany,82.5,M6,Raw,B,,,,,,90,100,,,100,,,,,,100,1
Tatiana Magulová,F,1981-06-30,39,66.8,Slovakia,67.5,O,Raw,B,,,,,,80,85,-87.5,,85,,,,,,85,2
Jozef Meravý,M,1950-04-20,70,100.6,Slovakia,110,M7,Raw,B,,,,,,80,-90,95,,95,,,,,,95,1
Július Mertvík,M,1996-11-05,23,95.2,Slovakia,100,J,Raw,B,,,,,,170,180,-185,,180,,,,,,180,1
Iveta Mikesková,F,2002-01-23,18,59.3,Czechia,60,T3,Raw,B,,,,,,52.5,55,57.5,,57.5,,,,,,57.5,1
Gábor Minya,M,1969-10-30,50,124.8,Hungary,125,M3,Raw,B,,,,,,-180,-180,-180,,,,,,,,,DQ
Stanislav Močkor,M,1996-06-25,24,114.3,Slovakia,125,O,Raw,B,,,,,,210,-217.5,-220,,210,,,,,,210,3
Ádám Moszkál,M,1996-01-31,24,113.1,Hungary,125,O,Raw,B,,,,,,215,-230,230,,230,,,,,,230,1
Milan Mrázek,M,1979-02-13,41,142,Czechia,140+,M1,Raw,B,,,,,,210,220,-230,,220,,,,,,220,1
Imre Nagy,M,1962-11-29,57,103.3,Hungary,110,M4,Raw,B,,,,,,120,130,,,130,,,,,,130,1
Tomáš Nesvadba,M,1993-07-02,27,139,Czechia,140,O,Raw,B,,,,,,220,230,235,,235,,,,,,235,1
Dominik Nitsche,M,2002-12-31,17,78.2,Czechia,82.5,T2,Raw,B,,,,,,132.5,137.5,-140,,137.5,,,,,,137.5,1
Petr Novák,M,1977-10-23,42,97,Czechia,100,M1,Raw,B,,,,,,195,-205,205,,205,,,,,,205,1
Ákos Oláh,M,1989-03-04,31,103.4,Hungary,110,O,Raw,B,,,,,,205,-215,-215,,205,,,,,,205,2
László Orosz,M,1989-03-30,31,125.5,Hungary,140,O,Raw,B,,,,,,210,220,-230,,220,,,,,,220,2
Eva Padová,F,1990-02-01,30,58.7,Slovakia,60,O,Raw,B,,,,,,45,50,52.5,,52.5,,,,,,52.5,1
Ladislav Pasecký,M,1985-04-14,35,74.7,Czechia,75,O,Raw,B,,,,,,150,160,-162.5,,160,,,,,,160,2
Petr Pastýřík,M,1989-08-07,31,120.5,Czechia,125,O,Raw,B,,,,,,180,190,,,190,,,,,,190,4
Josef Peška,M,1965-10-17,54,74.2,Czechia,75,M3,Raw,B,,,,,,135,145,-155,,145,,,,,,145,1
Peter Pletka,M,1975-12-06,44,119.3,Slovakia,125,M1,Raw,B,,,,,,-165,-165,-165,,,,,,,,,DQ
Alexander Popa,M,1988-05-09,32,109.8,Czechia,110,O,Raw,B,,,,,,230,240,-245,,240,,,,,,240,1
Paweł Pracownik,M,1973-08-27,47,72.2,Poland,75,M2,Raw,B,,,,,,130,140,150,,150,,,,,,150,1
Filip Prchal,M,2003-05-30,17,60,Czechia,60,T2,Raw,B,,,,,,90,95,97.5,100,97.5,,,,,,97.5,1
Oldřich Procházka,M,1970-12-23,49,98.5,Czechia,100,M2,Raw,B,,,,,,185,-190,-190,,185,,,,,,185,3
Simona Rančev,F,2002-02-28,18,56.8,Czechia,60,T3,Raw,B,,,,,,52.5,-55,-55,,52.5,,,,,,52.5,2
David Řehulka,M,1997-08-25,23,79.9,Czechia,82.5,J,Raw,B,,,,,,135,142.5,150,,150,,,,,,150,1
František Sajko,M,1971-05-08,49,96.3,Slovakia,100,M2,Raw,B,,,,,,150,160,165,,165,,,,,,165,4
András Sebők,M,1977-05-01,43,118.5,Hungary,125,M1,Raw,B,,,,,,210,-220,-225,,210,,,,,,210,1
Karel Schoř,M,1955-09-09,64,81,Czechia,82.5,M5,Raw,B,,,,,,125,-135,135,,135,,,,,,135,1
Ján Slovík,M,1951-03-19,69,108.5,Slovakia,110,M6,Raw,B,,,,,,80,-90,-90,,80,,,,,,80,2
Stefan Sochaňski,M,1948-11-17,71,87.5,Poland,90,M7,Raw,B,,,,,,80,85,,,85,,,,,,85,1
Filip Stanko,M,1990-05-25,30,86.1,Slovakia,90,O,Raw,B,,,,,,170,-180,180,,180,,,,,,180,1
Hynek Stružka,M,1951-12-05,68,108.2,Czechia,110,M6,Raw,B,,,,,,110,-132.5,-132.5,,110,,,,,,110,1
Erik Susztay,M,1972-06-26,48,135.8,Slovakia,140,M2,Raw,B,,,,,,200,210,-215,,210,,,,,,210,2
Vladimír Svoboda,M,1952-08-12,68,90.4,Czechia,100,M6,Raw,B,,,,,,85,95,100,,100,,,,,,100,2
Henryk Świerzy,M,1956-03-08,64,106.6,Poland,110,M5,Raw,B,,,,,,135,140,145,,145,,,,,,145,1
Sebastian Świtoński,M,1998-04-09,22,75,Poland,75,J,Raw,B,,,,,,140,155,-165.5,-165.5,155,,,,,,155,1
Matěj Syrovátka,M,1998-10-28,21,100.9,Czechia,110,J,Raw,B,,,,,,205,215,222.5,,222.5,,,,,,222.5,1
Franciszek Szabluk,M,1956-09-17,63,99,Poland,100,M5,Raw,B,,,,,,145,152.5,160,,160,,,,,,160,1
István Szeifert,M,1977-01-13,43,93.8,Hungary,100,M1,Raw,B,,,,,,165,170,172.5,,172.5,,,,,,172.5,2
József Sztanke,M,1954-06-14,66,93.5,Hungary,100,M6,Raw,B,,,,,,145,157.5,-160.5,,157.5,,,,,,157.5,1
Miloš Šnajdr,M,1977-03-11,43,137,Slovakia,140,M1,Raw,B,,,,,,210,220,-235,,220,,,,,,220,1
Florián Tichý,M,1986-11-11,33,72.2,Slovakia,75,O,Raw,B,,,,,,145,150,-162.5,,150,,,,,,150,3
Robert Tomáš,M,1972-07-07,48,84.6,Czechia,90,M2,Raw,B,,,,,,140,-150,-150,,140,,,,,,140,5
Lukáš Tomášov,M,1997-12-10,22,108.9,Czechia,110,J,Raw,B,,,,,,180,190,192.5,,192.5,,,,,,192.5,3
Kristýna Tomšovicová,F,1998-03-22,22,90.8,Czechia,110,J,Raw,B,,,,,,25,30,-32.5,32.5,30,,,,,,30,1
Stanislav Tůma,M,1977-01-04,43,88.9,Czechia,90,M1,Raw,B,,,,,,150,160,,,160,,,,,,160,1
Ernő Varga,M,1965-07-28,55,70.8,Hungary,75,M4,Raw,B,,,,,,120,125,-130,,125,,,,,,125,1
Zdeněk Večeřa,M,1990-03-17,30,122.5,Czechia,125,O,Raw,B,,,,,,210,220,-222.5,,220,,,,,,220,2
Pavel Vechter,M,1976-08-16,44,73.8,Slovakia,75,M1,Raw,B,,,,,,132.5,-137.5,140,,140,,,,,,140,1
Július Vrbiniak,M,1956-12-20,63,112.5,Slovakia,125,M5,Raw,B,,,,,,165,170,175,,175,,,,,,175,1
Bruno Walter,M,1967-12-02,52,97.2,Czechia,100,M3,Raw,B,,,,,,160,-170,-170,,160,,,,,,160,2
Roman Wanot,M,1948-05-22,72,81,Poland,82.5,M7,Raw,B,,,,,,80,85,-90,,85,,,,,,85,1
Krzysztof Wieczorek,M,1979-01-26,41,81.6,Poland,82.5,M1,Raw,B,,,,,,110,120,-125,,120,,,,,,120,1
Wojciech Witkowski,M,2003-05-03,17,86,Poland,90,T2,Raw,B,,,,,,120,127.5,-132.5,,127.5,,,,,,127.5,1
Krzysztof Zakrzewski,M,1977-12-09,42,105.7,Poland,110,M1,Raw,B,,,,,,185,195,205,,205,,,,,,205,1
Vladan Zapletal,M,1971-08-18,49,88.5,Czechia,90,M2,Raw,B,,,,,,155,162.5,-165,,162.5,,,,,,162.5,3
Juliusz Zbierski,M,1974-04-02,46,88.2,Poland,90,M2,Raw,B,,,,,,155,-160,-162.5,,155,,,,,,155,4
Gary Boulton,M,1964-07-06,56,133.8,UK,140,M4,Multi-ply,D,,,,,,,,,,,235,260,-300,-300,260,260,1
Karol Brečka,M,1961-04-16,59,79.4,Czechia,82.5,M4,Multi-ply,D,,,,,,,,,,,215,-235,235,-240.5,235,235,1
Stephen Davies #1,M,1966-07-06,54,106.6,UK,110,M3,Multi-ply,D,,,,,,,,,,,210,235,240,,240,240,1
Ivan Egyed,M,1994-11-17,25,71.3,Slovakia,75,O,Multi-ply,D,,,,,,,,,,,230,-250,-250,,230,230,1
Rebeca Ficeková,F,2000-12-29,19,75.5,Slovakia,82.5,T3,Multi-ply,D,,,,,,,,,,,100,120,-130,-130,120,120,1
Antonio Foroni,M,1974-08-23,46,114,Italy,125,M2,Multi-ply,D,,,,,,,,,,,-305,-305,-305,,,,DQ
Dmytro Hotlashov,M,1985-06-29,35,117,Ukraine,125,O,Multi-ply,D,,,,,,,,,,,275,290,-300,,290,290,2
Ondrej Hudák,M,1975-02-02,45,120.1,Slovakia,125,M2,Multi-ply,D,,,,,,,,,,,270,290,305,,305,305,1
Filip Kaňák,M,1993-01-03,27,64.9,Czechia,67.5,O,Multi-ply,D,,,,,,,,,,,190,-200,200,,200,200,1
Jozef Kopálek,M,1982-01-01,38,109.7,Slovakia,110,O,Multi-ply,D,,,,,,,,,,,220,240,-250,,240,240,1
Adam Kostura,M,1995-06-04,25,138.2,Czechia,140,O,Multi-ply,D,,,,,,,,,,,300,-315,-315,,300,300,1
Jindřich Krajdl,M,1986-07-23,34,99.5,Czechia,100,O,Multi-ply,D,,,,,,,,,,,270,290,-300,,290,290,1
Mieczysłąw Maczka,M,1954-09-11,65,82.5,Germany,82.5,M6,Multi-ply,D,,,,,,,,,,,120,,,,120,120,1
Pavel Malina,M,1960-02-25,60,61.9,Czechia,67.5,M5,Multi-ply,D,,,,,,,,,,,170,-182.5,182.5,,182.5,182.5,1
Lee Marshall,M,1959-01-11,61,116,UK,125,M5,Multi-ply,D,,,,,,,,,,,260,270,273,,273,273,1
Giancarlo Natale,M,1982-06-24,38,98.5,Italy,100,O,Multi-ply,D,,,,,,,,,,,280,-300,-300,,280,280,2
Petr Pastýřík,M,1989-08-07,31,120.5,Czechia,125,O,Multi-ply,D,,,,,,,,,,,270,-290,-292.5,,270,270,3
Radoslav Radusinović,M,1968-08-13,52,112.3,Croatia,125,M3,Multi-ply,D,,,,,,,,,,,290,300,310,-315,310,310,1
Liothar Schulze,M,1950-04-25,70,81,Germany,82.5,M7,Multi-ply,D,,,,,,,,,,,155,165,,,165,165,1
Stefan Sochaňski,M,1948-11-17,71,87.5,Poland,90,M7,Multi-ply,D,,,,,,,,,,,175,190,,,190,190,1
Filip Stanko,M,1990-05-25,30,86.1,Slovakia,90,O,Multi-ply,D,,,,,,,,,,,200,220,230,,230,230,1
Magdalena Maria Szpila,F,2002-03-06,18,46.2,Poland,48,T3,Multi-ply,D,,,,,,,,,,,105,110,115,,115,115,1
Jaroslav Tomanec,M,1943-04-22,77,81.3,Czechia,82.5,M8,Multi-ply,D,,,,,,,,,,,145,150,-152.5,,150,150,1
Nikolas Tóth,M,1998-08-11,22,115.9,Slovakia,125,O,Multi-ply,D,,,,,,,,,,,325,350,370.5,,370.5,370.5,1
Wiesław Wrŏbel,M,1957-07-02,63,99.7,Poland,100,M5,Multi-ply,D,,,,,,,,,,,120,,,,120,120,1
Jiří Balabán,M,1995-07-14,25,74,Czechia,75,O,Raw,D,,,,,,,,,,,260,270,280,,280,280,1
Pavel Balážik,M,1979-08-23,41,58.9,Slovakia,60,O,Raw,D,,,,,,,,,,,130,140,147.5,,147.5,147.5,1
Jiří Beneš,M,1998-07-12,22,106.7,Czechia,110,J,Raw,D,,,,,,,,,,,200,220,240,,240,240,1
Dana Bešková,F,1954-10-16,65,59.8,Czechia,60,M6,Raw,D,,,,,,,,,,,85,87.5,-95,,87.5,87.5,1
Radosław Bober,M,2004-01-28,16,56.9,Poland,60,T2,Raw,D,,,,,,,,,,,140,152.5,155,,155,155,1
Robert Brasseur,M,1961-05-27,59,100,France,100,M4,Raw,D,,,,,,,,,,,200,215,-225,,215,215,1
Zdeněk Brauner,M,1972-07-08,48,97.3,Czechia,100,M2,Raw,D,,,,,,,,,,,245,265,-276,,265,265,2
Michael Burton,M,1966-01-28,54,82,Czechia,82.5,M3,Raw,D,,,,,,,,,,,-165,,,,,,DQ
Grzegorz Drewniany,M,1977-03-20,43,100,Poland,100,M1,Raw,D,,,,,,,,,,,220,230,237.5,,237.5,237.5,1
Szabina Erdei,F,1980-02-27,40,65.4,Hungary,67.5,M1,Raw,D,,,,,,,,,,,170,175,-180,,175,175,1
János Farkas,M,1998-11-24,21,98.9,Hungary,100,J,Raw,D,,,,,,,,,,,260,270,280,,280,280,2
Veronika Francová,F,1976-07-15,44,55.1,Czechia,56,M1,Raw,D,,,,,,,,,,,127.5,-132.5,-132.5,,127.5,127.5,1
Adrián Galo,M,2002-09-08,17,84.8,Slovakia,90,T2,Raw,D,,,,,,,,,,,-200,200,-210,,200,200,1
Tibor Gejdoš,M,1963-11-11,56,106.2,Slovakia,110,M4,Raw,D,,,,,,,,,,,220,240,250,,250,250,1
Tamara Gejdošová,F,2004-07-08,16,61.1,Slovakia,67.5,T2,Raw,D,,,,,,,,,,,85,95,107.5,,107.5,107.5,1
Max Glok,M,2001-06-10,19,94.2,Germany,100,T3,Raw,D,,,,,,,,,,,155,170,180,,180,180,1
Michal Grepl,M,2003-01-08,17,79.8,Czechia,82.5,T2,Raw,D,,,,,,,,,,,230,245,-250,,245,245,1
Martin Havlíček,M,1998-06-28,22,97,Czechia,100,J,Raw,D,,,,,,,,,,,310,325,330,,330,330,1
Peter Herák,M,1960-12-23,59,89.4,Slovakia,90,M4,Raw,D,,,,,,,,,,,200,215,225,,225,225,1
Petr Horák,M,1979-07-12,41,88.5,Czechia,90,M1,Raw,D,,,,,,,,,,,250,272.5,285,,285,285,1
Dmytro Hotlashov,M,1985-06-29,35,119.4,Ukraine,125,O,Raw,D,,,,,,,,,,,280,300,-310,,300,300,1
Peter Chrápek,M,2001-01-17,19,55.3,Slovakia,56,T3,Raw,D,,,,,,,,,,,-110,-140,-140,,,,DQ
Vojtěch Chytka,M,2002-04-04,18,105,Czechia,110,T3,Raw,D,,,,,,,,,,,260,280,300,-310,300,300,1
Denis Jarma,M,1999-03-09,21,59.1,Czechia,60,J,Raw,D,,,,,,,,,,,215,230,-240,-240,230,230,1
Josef Jeníček,M,1973-06-16,47,102.6,Czechia,110,M2,Raw,D,,,,,,,,,,,190,210,-215,,210,210,1
Juraj Kačmárik,M,1985-03-25,35,109.5,Slovakia,110,O,Raw,D,,,,,,,,,,,310,330,352.5,360,352.5,352.5,1
Ela Kardaś,F,1999-12-16,20,55.5,Poland,56,J,Raw,D,,,,,,,,,,,130,142.5,-147.5,,142.5,142.5,1
Karina Khanahian,F,1997-07-06,23,60,Ukraine,60,J,Raw,D,,,,,,,,,,,130,140,-150,,140,140,1
Andrii Kotovenko,M,1983-01-16,37,89.8,Ukraine,90,O,Raw,D,,,,,,,,,,,100,,,,100,100,1
Irena Krajdlová,F,1983-07-21,37,74.2,Czechia,75,O,Raw,D,,,,,,,,,,,160,170,185.5,-190,185.5,185.5,1
Rémy Kreyzel,M,1955-06-22,65,86.8,Czechia,90,M6,Raw,D,,,,,,,,,,,200,215,232.5,,232.5,232.5,1
Oliver Kurek,M,1999-03-23,21,77.5,Slovakia,82.5,J,Raw,D,,,,,,,,,,,,,,,,,DQ
Boris Laishin,M,1950-08-06,70,68.5,Latvia,75,M7,Raw,D,,,,,,,,,,,140,150,157.5,,157.5,157.5,1
Ladislav Lechan,M,1994-07-30,26,66.6,Slovakia,67.5,O,Raw,D,,,,,,,,,,,180,195,-200,,195,195,1
Ivan Levický,M,1970-04-10,50,99,Slovakia,100,M3,Raw,D,,,,,,,,,,,210,220,-230,,220,220,1
Petr Maceášik,M,1975-06-25,45,98.4,Czechia,100,M2,Raw,D,,,,,,,,,,,260,270,-276,,270,270,1
Mieczysłąw Maczka,M,1954-09-11,65,84.5,Germany,90,M6,Raw,D,,,,,,,,,,,120,,,,120,120,2
Patrik Mach,M,1998-10-27,21,81.9,Czechia,82.5,J,Raw,D,,,,,,,,,,,230,245,-255,,245,245,1
Maciej Markowski #2,M,1984-07-31,36,76.5,Slovakia,82.5,O,Raw,D,,,,,,,,,,,180,,,,180,180,2
Šimon Matějka,M,1994-03-23,26,79.6,Czechia,82.5,O,Raw,D,,,,,,,,,,,-250,250,-270,-300.5,250,250,1
Kristián Matejovie,M,1999-12-03,20,86.6,Slovakia,90,J,Raw,D,,,,,,,,,,,190,200,-210,,200,200,1
Martin Medvedyk,M,1999-05-23,21,99.5,Czechia,100,J,Raw,D,,,,,,,,,,,280,-300,-300,,280,280,3
Sławomir Milewski,M,1981-04-18,39,122.4,Poland,125,O,Raw,D,,,,,,,,,,,200,-220,-220,,200,200,2
Robert Nemś,M,1969-06-15,51,122.1,Poland,125,M3,Raw,D,,,,,,,,,,,250,,,,250,250,1
Ladislav Pasecký,M,1959-02-20,61,88.5,Czechia,90,M5,Raw,D,,,,,,,,,,,200,-220,,,200,200,1
Paweł Pracownik,M,1973-08-27,47,71,Poland,75,M2,Raw,D,,,,,,,,,,,232.5,247.5,257.5,,257.5,257.5,1
Simona Rančev,F,2002-02-28,18,57.1,Czechia,60,T3,Raw,D,,,,,,,,,,,110,117.5,-122.5,,117.5,117.5,1
Karol Kornel Repiský,M,1964-06-26,56,122,Slovakia,125,M4,Raw,D,,,,,,,,,,,230,240,-250,,240,240,1
Karel Schoř,M,1955-09-09,64,81.3,Czechia,82.5,M5,Raw,D,,,,,,,,,,,185,200,-210,,200,200,1
Stefan Sochaňski,M,1948-11-17,71,87.5,Poland,90,M7,Raw,D,,,,,,,,,,,167.5,-185,,,167.5,167.5,1
Martin Studnička,M,1993-02-14,27,92.4,Czechia,100,O,Raw,D,,,,,,,,,,,190,200,207.5,,207.5,207.5,1
Péter Szabó,M,1964-07-04,56,117.4,Slovakia,125,M4,Raw,D,,,,,,,,,,,190,210,,,210,210,2
Bartłomiej Szaflarski,M,1990-08-01,30,79.8,Poland,82.5,O,Raw,D,,,,,,,,,,,-200,-220,-220,,,,DQ
Magdalena Szpila,F,2002-03-06,18,46.4,Poland,48,T3,Raw,D,,,,,,,,,,,110,117.5,120,,120,120,1
Michal Šafařík,M,1967-01-14,53,108.9,Czechia,110,M3,Raw,D,,,,,,,,,,,235,250,-257.5,,250,250,1
Matyáš Šenkýř,M,1999-06-21,21,80.4,Czechia,82.5,J,Raw,D,,,,,,,,,,,200,210,-220,,210,210,2
Michal Švajka,M,1978-05-17,42,96.7,Slovakia,100,M1,Raw,D,,,,,,,,,,,200,215,-235,,215,215,2
Adam Švehla,M,1981-03-19,39,139.2,Czechia,140,O,Raw,D,,,,,,,,,,,305,-352.5,-352.5,,305,305,1
Wiesław Wrŏbel,M,1957-07-02,63,99.2,Poland,100,M5,Raw,D,,,,,,,,,,,260,-275,,,260,260,1
Mariusz Wyrozębski,M,1982-04-01,38,143.5,Poland,140+,O,Raw,D,,,,,,,,,,,210,230,237.5,,237.5,237.5,1
Renata Zapała,F,1994-07-28,26,73.4,Poland,75,O,Raw,D,,,,,,,,,,,115,125,-130,,125,125,2
Jan Augustat,M,1969-05-17,51,80.7,Germany,82.5,M3,Wraps,SBD,185,-200,200,,200,115,122.5,-127.5,,122.5,185,200,-210,,200,522.5,1
Ján Babčan,M,1986-07-29,34,74.7,Slovakia,75,O,Wraps,SBD,-200,210,-215,,210,130,140,150,,150,200,215,217.5,,217.5,577.5,1
Vlastislav Bednařík,M,1994-07-25,26,122.8,Czechia,125,O,Wraps,SBD,220,240,-250,,240,140,160,-170,,160,240,260,-270,,260,660,3
Józef Bejgrowicz,M,1952-09-24,67,82.5,Poland,82.5,M6,Wraps,SBD,160,,,,160,80,,,,80,220,-235.5,-235.5,,220,460,1
Tomasz Bejgrowicz,M,1979-05-25,41,109.7,Poland,110,M1,Wraps,SBD,170,185,195,,195,140,145,,,145,200,220,,,220,560,2
Angeline Berva,F,1994-05-26,26,78.2,France,82.5,O,Wraps,SBD,160,170,-180,,170,85,90,-95,,90,170,-180,185,,185,445,3
Hanne Bingle,F,1959-06-06,61,73.7,UK,75,M5,Wraps,SBD,-115,120,130,,130,80,87.5,-92.5,,87.5,115,122.5,130,,130,347.5,1
Ian Bingle,M,1959-03-21,61,105,UK,110,M5,Wraps,SBD,170,180,-190,,180,120,127.5,-132.5,,127.5,200,-215,,,200,507.5,1
Gary Boulton,M,1964-07-06,56,129.5,UK,140,M4,Multi-ply,SBD,315,-342.5,-342.5,,315,-225,225,,,225,255,272.5,-285,,272.5,812.5,1
Karol Brečka,M,1961-04-16,59,80.6,Czechia,82.5,M4,Multi-ply,SBD,215,230,235,,235,130,-136,136,,136,210,222.5,235.5,,235.5,606.5,1
Josef Brož,M,2000-06-14,20,82.5,Czechia,82.5,J,Wraps,SBD,180,195,210,,210,100,-110,-110,,100,180,200,-205,,200,510,7
Sándor Bruck,M,1999-03-31,21,70.3,Hungary,75,J,Wraps,SBD,50,70,,,70,60,70,,,70,160,170,,,170,310,2
Michael Burton,M,1966-01-28,54,81.5,Czechia,82.5,M3,Wraps,SBD,130,140,150,,150,102.5,107.5,115,,115,165,175,182.5,,182.5,447.5,2
Zdeno Bystriansky,M,1989-05-03,31,82.4,Slovakia,82.5,O,Wraps,SBD,250,-260,-260,,250,145,155,-160,,155,240,-250,-250,,240,645,3
Jan Cafourek,M,2002-07-17,18,87.3,Czechia,90,T3,Wraps,SBD,180,200,-205,,200,120,-130,-130,,120,240,255,-265,,255,575,1
Andrew Cairney,M,1979-07-09,41,127.4,Scotland,140,M1,Wraps,SBD,320,-340,360,,360,190,-200,-200,,190,290,312.5,320,,320,870,1
Josef Cichý,M,1952-12-28,67,61.9,Czechia,67.5,M6,Wraps,SBD,140,151,155,,155,60,-65,70,,70,150,160,162.5,,162.5,387.5,1
Richard Cvrkal,M,1994-04-21,26,98.9,Czechia,100,O,Wraps,SBD,285,300,-315,,300,155,165,-172.5,,165,270,290,-300,,290,755,2
Filip Čáp,M,2001-12-04,18,79.4,Czechia,82.5,T3,Wraps,SBD,160,167.5,-175,,167.5,-105,105,-112.5,,105,200,210,-215,,210,482.5,2
Stephen Davies #1,M,1966-07-06,54,107.2,UK,110,M3,Wraps,SBD,205,220,235,,235,125,140,145,,145,220,240,250,,250,630,1
Michael Dickson,M,1990-05-22,30,107.8,UK,110,O,Wraps,SBD,280,300,-310,,300,212.5,230,-240.5,,230,280,300,-305,,300,830,1
Grzegorz Drewniany,M,1977-03-20,43,100,Poland,100,M1,Wraps,SBD,230,245,252.5,,252.5,155,160,-162.5,,160,230,240,247.5,,247.5,660,1
Ján Duras,M,2002-10-07,17,98.6,Slovakia,100,T2,Wraps,SBD,170,190,-195,,190,95,-102.5,102.5,,102.5,210,222.5,-227.5,,222.5,515,1
Markéta Dvorská,F,2003-12-17,16,71.4,Czechia,75,T2,Wraps,SBD,120,130,135,,135,65,70,-72.5,,70,100,110,120,,120,325,1
Martin Dvořáček,M,1997-08-12,23,91.3,Czechia,100,O,Wraps,SBD,305,330,345,,345,195,-205,-205,,195,-335,-335,-335,,,,DQ
Sammie England,F,1984-03-31,36,66.5,UK,67.5,O,Wraps,SBD,112.5,122.5,130,,130,57.5,62.5,-65,,62.5,127.5,137.5,145,,145,337.5,1
Pavel Erban,M,1952-02-06,68,90.7,Czechia,100,M6,Wraps,SBD,115,125,135,,135,75,-80,80,,80,120,130,140,,140,355,1
Richárd Ferkl,M,1969-10-29,50,96.6,Czechia,100,M3,Wraps,SBD,150,160,170,,170,105,-115,115,,115,170,185,200,,200,485,2
Richárd Ferkl,M,2002-11-12,17,80.2,Czechia,82.5,T2,Wraps,SBD,150,160,175,,175,90,100,-107.5,,100,170,180,187.5,,187.5,462.5,2
Ivan Flek,M,1971-04-18,49,95.7,Czechia,100,M2,Wraps,SBD,190,205,220,,220,135,145,-150,,145,200,220,235,,235,600,2
Ellen Freeborn,F,1991-08-24,29,58.9,UK,60,O,Wraps,SBD,155,170,175,,175,75,80,-82.5,,80,165,172.5,180,-190.5,180,435,1
Jozef Gabrhel,M,1955-12-23,64,72.6,Slovakia,75,M5,Wraps,SBD,130,140,,,140,90,95,-100,,95,165,-175,-175,,165,400,1
Milan Greguš,M,1968-04-30,52,98.6,Czechia,100,M3,Multi-ply,SBD,265,280,-290,296,280,207.5,215,-220,,215,-245,250,260,,260,755,1
Filip Grznár,M,1985-02-01,35,99,Czechia,100,O,Multi-ply,SBD,280,,,,280,-200,200,,,200,-150,150,,,150,630,1
Mark Habuda,M,2003-05-21,17,72.3,Czechia,75,T2,Wraps,SBD,160,-165,,,160,90,95,-97.5,,95,180,-190,,,180,435,3
Peter Herák,M,1960-12-23,59,89.6,Slovakia,90,M4,Wraps,SBD,-240,-240,-240,,,,,,,,,,,,,,DQ
Vojtěch Herka,M,1997-06-06,23,118.5,Czechia,125,J,Wraps,SBD,-240,250,260,,260,180,190,-200,,190,280,300,310,,310,760,2
Petr Hloušek,M,1998-01-06,22,101.3,Czechia,110,J,Wraps,SBD,270,290,-300,,290,140,150,-157.5,,150,280,295,-305,,295,735,2
Martin Horák,M,1977-01-06,43,98.8,Czechia,100,M1,Wraps,SBD,220,227.5,-235,,227.5,160,-165,165,,165,220,230,235,,235,627.5,2
Petr Horák,M,1979-07-12,41,88.1,Czechia,90,M1,Wraps,SBD,-220,220,-250,,220,140,150,,,150,260,,,,260,630,1
Dominik Hošek,M,2002-09-07,17,60,Czechia,60,T2,Wraps,SBD,-170,170,175,,175,85,90.5,-92.5,,90.5,180,195,205,,205,470.5,1
Lukáš Hroděj,M,1999-11-23,20,82.3,Czechia,82.5,J,Wraps,SBD,170,180,-190,,180,110,-115,115,,115,200,-205,-205,,200,495,8
James Ingram,M,1973-10-04,46,89.4,UK,90,M2,Wraps,SBD,190,210,-220,,210,127.5,-140,-140,,127.5,220,230,240,,240,577.5,2
Kateřina Janoutová,F,2002-08-11,18,54.7,Czechia,56,T3,Wraps,SBD,80,90,100,,100,50,-60,60,-61,60,110,115,120,-125,120,280,1
Josef Jeníček,M,1973-06-16,47,103.7,Czechia,110,M2,Wraps,SBD,170,-175,175,,175,120,125,-130,,125,180,200,205,,205,505,2
Juraj Kačmárik,M,1985-03-25,35,107.7,Slovakia,110,O,Wraps,SBD,-310,-310,-312.5,,,,,,,,,,,,,,DQ
Michal Kadlec,M,1989-06-26,31,124.8,Czechia,125,O,Wraps,SBD,320,-340,-340,,320,230,240,,,240,300,320,-330,,320,880,2
Kevin Anthony Kalapoš,M,2000-04-18,20,100.3,Slovakia,110,J,Wraps,SBD,225,-240,240,,240,130,-142.5,-142.5,,130,240,252.5,262.5,,262.5,632.5,4
Petr Kalčík,M,2000-10-30,19,79.8,Czechia,82.5,T3,Wraps,SBD,200,220,-230,,220,115,130,-135,,130,180,-200,-200,,180,530,1
Juhani Kärkkäinen,M,1959-10-17,60,98.3,Finland,100,M5,Wraps,SBD,205,215,225,,225,135,140,-145,,140,215,230,245,,245,610,1
Ondřej Kasal,M,1999-04-24,21,97.2,Czechia,100,J,Wraps,SBD,180,195,205,,205,107.5,112.5,-117.5,,112.5,200,220,,,220,537.5,5
Kristína Kastelic,F,2001-03-16,19,80.2,Slovenia,82.5,T3,Wraps,SBD,125,132.5,137.5,,137.5,45,-50,-50,,45,130,-135,-135,,130,312.5,1
Andrej Katrenčík,M,1991-11-04,28,118.6,Slovakia,125,O,Wraps,SBD,330,-350,350,,350,225,235,-245,,235,325,335,-345,,335,920,1
Radek Knápek,M,2003-04-14,17,73.2,Czechia,75,T2,Wraps,SBD,210,220,-225,,220,115,125,130,,130,175,-190,190,,190,540,1
Kristýna Kohoutová,F,1996-10-28,23,77,Czechia,82.5,J,Wraps,SBD,155,170,185,,185,80,90,-92.5,,90,145,165,172.5,,172.5,447.5,1
Martin Kolodžej,M,1973-11-27,46,103.5,Czechia,110,M2,Wraps,SBD,235,250,-260,,250,120,-127.5,-130,,120,225,235,-240,,235,605,1
Tomáš Komárek,M,1993-05-08,27,98.5,Czechia,100,O,Wraps,SBD,230,245,260,,260,170,185,192.5,,192.5,260,280,-290,,280,732.5,3
Michal Koudela,M,2000-06-27,20,81.7,Czechia,82.5,J,Wraps,SBD,180,190,205,,205,85,95,-100,,95,230,250,255,,255,555,4
Zsolt Kovács,M,1963-01-24,57,123.7,Hungary,125,M4,Wraps,SBD,120,140,-160,,140,100,110,-115,,110,200,222.5,,,222.5,472.5,1
Ivo Kříž,M,1986-09-27,33,80.8,Czechia,82.5,O,Wraps,SBD,135,140,-150,,140,-105,-105,-105,,,160,170,180,,180,,DQ
Oliver Kurek,M,1999-03-23,21,74.3,Slovakia,75,J,Wraps,SBD,220,235,240,,240,140,-145,-145,,140,270,290,-302.5,,290,670,1
Petr Kutner,M,1950-05-25,70,81.3,Czechia,82.5,M7,Multi-ply,SBD,130,140,,,140,72.5,77.5,,,77.5,140,155,165,,165,382.5,1
Ludvík Lagron,M,2000-03-04,20,80.9,Czechia,82.5,J,Wraps,SBD,230,250,270,,270,135,145,-150,,145,230,-240,,,230,645,1
Petra Lampertová,F,1991-10-04,28,64,Slovakia,67.5,O,Wraps,SBD,90,105,115,,115,35,42.5,52.5,,52.5,105,117.5,-125,,117.5,285,2
Peter Lehocký,M,1972-03-05,48,86.4,Slovakia,90,M2,Wraps,SBD,215,235,245,,245,150,165,170,,170,245,270,275,,275,690,1
Štefan Lehocký,M,2001-09-20,18,74.7,Slovakia,75,T3,Wraps,SBD,190,205,210,,210,97.5,105,-107.5,,105,190,200,-207.5,,200,515,1
Mieczysłąw Maczka,M,1954-09-11,65,84.8,Germany,90,M6,Multi-ply,SBD,120,145,155,,155,95,102.5,107.5,,107.5,140,157.5,,,157.5,420,1
Mieczysłąw Maczka,M,1954-09-11,65,84.5,Germany,90,M6,Wraps,SBD,132.5,152.5,-160,,152.5,97.5,105,-107.5,,105,140,157.5,170,,170,427.5,1
Patrik Mach,M,1998-10-27,21,81.1,Czechia,82.5,J,Wraps,SBD,200,210,-220,,210,105,-110,-110,,105,220,235,247.5,,247.5,562.5,3
Hana Malinová,F,1983-09-11,36,54.2,Czechia,56,O,Multi-ply,SBD,-90,95,105,,105,40,45,47.5,,47.5,95,105,112.5,,112.5,265,1
Hana Malinová,F,1983-09-11,36,53.8,Czechia,56,O,Wraps,SBD,80,90,-95,,90,30,35,40,,40,80,90,,,90,220,2
Maciej Markowski #2,M,1984-07-31,36,74.8,Slovakia,75,O,Wraps,SBD,190,205,-207.5,,205,-125,127.5,-132.5,,127.5,220,232.5,-240,,232.5,565,3
Gal Maršič,M,2003-09-22,16,66.9,Slovenia,67.5,T2,Wraps,SBD,150,170,-190,,170,85,95,100,,100,160,170,180,,180,450,1
Ľuboš Martiš,M,2001-09-20,18,118.1,Slovakia,125,T3,Wraps,SBD,215,-225,-225,,215,125,132.5,-137.5,,132.5,200,210,215,,215,562.5,1
Roman Mašek,M,1999-12-15,20,79.3,Czechia,82.5,J,Wraps,SBD,170,-185,-185,,170,95,102.5,-107.5,,102.5,180,195,205,,205,477.5,9
Petr Matěna,M,2001-11-23,18,83,Czechia,90,T3,Wraps,SBD,180,190,-200,,190,80,90,92.5,,92.5,180,-195,-195,,180,462.5,2
Radovan Matesz,M,1997-01-01,23,85.7,Slovakia,90,J,Wraps,SBD,-195,195,-205,,195,125,-130,130,,130,220,230,-240,,230,555,4
Lukáš Matušinec,M,1995-08-19,25,117.7,Czechia,125,O,Wraps,SBD,-240,,,,,,,,,,,,,,,,DQ
Petr Mikula,M,1976-11-27,43,95.5,Czechia,100,M1,Multi-ply,SBD,180,195,205,,205,130,140,-150,,140,-185,185,200,,200,545,1
Julia Mills,F,1978-08-01,42,81.5,UK,82.5,O,Wraps,SBD,195,-220,220,,220,125,132.5,-137.5,,132.5,210,227.5,-235,,227.5,580,1
Richard Mrňka,M,1997-12-11,22,89,Czechia,90,J,Wraps,SBD,175,190,-200,,190,130,-135,135,,135,190,205,220,,220,545,5
Jan Mulač,M,1987-01-26,33,108.2,Czechia,110,O,Wraps,SBD,270,-290,290,,290,170,180,185,,185,280,300,-305,,300,775,2
Claude Ngoma,M,1989-09-15,30,92.8,France,100,O,Wraps,SBD,-240,250,-260,,250,140,-150,-150,,140,250,265,-280,,265,655,4
Dalibor Novák,M,1998-06-21,22,104,Czechia,110,J,Wraps,SBD,265,285,300,,300,155,-165,-165,,155,260,280,292.5,,292.5,747.5,1
Jakub Novotný,M,1997-10-31,22,81.5,Czechia,82.5,J,Wraps,SBD,210,230,-240,,230,120,-130,-130,,120,240,255,-265,,255,605,2
Ivan Obert,M,1973-02-10,47,88.8,Czechia,90,M2,Wraps,SBD,130,140,-145,,140,100,105,-110,,105,170,180,185,,185,430,3
František Öszi,M,1954-12-22,65,81.6,Slovakia,82.5,M6,Wraps,SBD,130,145,150,,150,90,-95,,,90,140,150,-160,,150,390,2
Patrik Pangrac,M,2003-09-14,16,73.8,Slovakia,75,T2,Wraps,SBD,180,190,195,,195,115,120,-125,,120,170,180,185,,185,500,2
Patrik Pánis,M,2003-01-16,17,78.1,Slovakia,82.5,T2,Wraps,SBD,-150,-150,150,,150,100,105,110,,110,190,200,207.5,,207.5,467.5,1
Tomáš Pavlech,M,1993-11-12,26,81.9,Slovakia,82.5,O,Wraps,SBD,220,240,245,,245,130,137.5,142.5,,142.5,230,240,-250,,240,627.5,4
Laura Pešić,F,1976-05-27,44,67,Serbia,67.5,M1,Wraps,SBD,185,190,195,196,195,90,-95,95,,95,175,180,185,,185,475,1
Erik Petrinec,M,2001-10-09,18,72.5,Slovakia,75,T3,Wraps,SBD,-160,-160,160,,160,110,-115,-120,,110,200,215,-230,,215,485,2
Aleks Piciga,M,1981-10-26,38,73.8,Slovenia,75,O,Wraps,SBD,140,-150,150,,150,100,102.5,105,,105,170,180,187.5,,187.5,442.5,4
Leanne Plank,F,1988-04-01,32,59.8,UK,60,O,Wraps,SBD,130,-145,145,,145,57.5,60,-65,,60,145,152.5,-160,,152.5,357.5,2
Dominik Ponocný,M,1999-10-27,20,98,Czechia,100,J,Wraps,SBD,295,-315,-320,,295,152.5,-162.5,-162.5,,152.5,265,,,,265,712.5,3
Júlia Popa,F,1989-12-01,30,74.1,Slovakia,75,O,Multi-ply,SBD,245,-265,-275,,245,165,,,,165,180,200,,,200,610,1
Kateřina Puflerová,F,1999-01-28,21,59.6,Czechia,60,J,Wraps,SBD,130,142.5,-150,,142.5,65,-70,,,65,140,155,-160,,155,362.5,1
Chris Pugh #1,M,1993-04-16,27,82,UK,82.5,O,Wraps,SBD,320,-340,340,-360.5,340,190,202.5,-207.5,,202.5,275,297.5,307.5,,307.5,850,1
Tibor Pukáč,M,1971-05-28,49,98.8,Slovakia,100,M2,Wraps,SBD,235,250,-265,,250,160,165,-167.5,,165,235,245,,,245,660,1
Martin Putera,M,2003-12-20,16,108.7,Slovakia,110,T2,Wraps,SBD,-200,200,225,,225,-90,105,-115,,105,200,220,230,,230,560,1
Phoenix Rain,F,1977-05-06,43,55.5,UK,56,M1,Wraps,SBD,-105,110,120,,120,55,-60,-60,,55,125,135,-142.5,,135,310,1
Jan Rajman,M,2004-05-28,16,79.1,Czechia,82.5,T2,Wraps,SBD,-145,145,150,,150,-85,-85,85,,85,150,160,-170,,160,395,3
Simona Rančev,F,2002-02-28,18,56,Czechia,56,T3,Wraps,SBD,87.5,-95,97.5,,97.5,52.5,-57.5,-57.5,,52.5,110,115,120,,120,270,2
Beau Rogers,M,2000-07-28,20,99.4,UK,100,J,Wraps,SBD,200,215,220,,220,110,120,122.5,,122.5,240,257.5,-265,,257.5,600,4
Marcel Rothauszky,M,1995-07-30,25,99.3,Germany,100,O,Wraps,SBD,290,310,325,,325,190,-205,205,,205,280,-300,-300,,280,810,1
Filip Rotter,M,1999-08-27,21,87.3,Czechia,90,J,Wraps,SBD,225,255,-270,,255,130,140,-145,,140,270,-290,-305,,270,665,2
Ladislava Říhová,F,1987-06-07,33,59.6,Czechia,60,O,Wraps,SBD,85,92.5,102.5,,102.5,50,60,62.5,,62.5,110,122.5,135,,135,300,3
Karel Sazma,M,1975-03-31,45,74.7,Czechia,75,M2,Wraps,SBD,150,165,-170,,165,110,117.5,120,,120,180,200,,,200,485,1
Přemysl Skoták,M,1996-12-11,23,108.1,Czechia,110,J,Wraps,SBD,-310,-325,325,,325,-200,-200,-200,,,,,,,,,DQ
Michal Sorát,M,2000-05-02,20,89,Slovakia,90,J,Wraps,SBD,210,225,-235,,225,120,125,130,,130,265,275,-285,,275,630,3
Katarína Sotáková,F,1989-09-23,30,63.4,Slovakia,67.5,O,Wraps,SBD,95,105,-110,,105,55,-60,-60,,55,-120,120,-135,,120,280,3
Filip Stanko,M,1990-05-25,30,87.9,Slovakia,90,O,Multi-ply,SBD,-275,-275,,,,,,,,,,,,,,,DQ
Jez Stevens,M,1999-03-22,21,80.6,UK,82.5,J,Wraps,SBD,180,192.5,-202.5,,192.5,112.5,120,125,,125,180,190,200,,200,517.5,6
Matěj Svoboda,M,1997-02-11,23,107.6,Czechia,110,J,Wraps,SBD,247.5,-260,-270,,247.5,172.5,177.5,182.5,,182.5,250,-262.5,262.5,,262.5,692.5,3
Vladimír Svoboda,M,1952-08-12,68,89.7,Czechia,90,M6,Wraps,SBD,140,150,160,,160,85,95,97.5,,97.5,150,160,170,,170,427.5,2
Matěj Syrovátka,M,1998-10-28,21,99.6,Czechia,100,J,Wraps,SBD,310,330,352.5,,352.5,205,217.5,222.5,,222.5,300,325,,,325,900,1
Maroš Szombath,M,2002-07-30,18,71.8,Slovakia,75,T3,Wraps,SBD,110,120,-130,,120,70,-80,-80,,70,-140,150,160,,160,350,3
Vlastimil Šafařík,M,1998-09-16,21,119.6,Czechia,125,J,Wraps,SBD,270,290,300,,300,180,190,-200,,190,260,275,285,,285,775,1
Pavel Šámal,M,1998-10-16,21,98,Czechia,100,J,Wraps,SBD,245,260,-270,,260,160,170,-175,,170,-290,-290,-290,,,,DQ
Matyáš Šenkýř,M,1999-06-21,21,80,Czechia,82.5,J,Wraps,SBD,180,190,-195,,190,120,130,-135,,130,190,205,215,,215,535,5
Tomáš Šesták,M,1973-08-12,47,78.4,Czechia,82.5,M2,Wraps,SBD,190,205,215,,215,102.5,110,115,,115,220,240,,,240,570,1
Daniel Šimončič,M,1997-03-28,23,59.9,Slovakia,60,J,Wraps,SBD,120,125,-130,,125,95,97.5,100,,100,150,160,165,,165,390,1
Jože Šinkovec,M,1998-02-15,22,89.2,Slovenia,90,J,Wraps,SBD,300,318,325,,325,155,165,170,,170,280,290,-300,,290,785,1
Michael Štěpánek,M,1995-07-21,25,74.4,Czechia,75,O,Wraps,SBD,190,-205,205,,205,115,-117.5,,,115,240,250,-257.5,,250,570,2
Lenka Štollerová,F,1970-08-15,50,64.6,Czechia,67.5,M3,Multi-ply,SBD,-115,-115,115,120,115,80,82.5,87.5,-90,87.5,120,130,140,150,140,342.5,1
Boris Štulajter,M,2000-08-13,20,119.9,Slovakia,125,J,Wraps,SBD,-230,230,-250,,230,140,150,-160,,150,260,275,-285,,275,655,3
Martin Šuverík,M,2000-05-06,20,99.4,Slovakia,100,J,Wraps,SBD,290,310,-325,,310,175,182.5,,,182.5,275,285,-290,,285,777.5,2
Daniel Tallis,M,1986-02-09,34,109.6,UK,110,O,Wraps,SBD,270,290,-302.5,,290,160,170,175,,175,290,-312.5,-315,,290,755,3
Lesley Jayne Thomas,F,1966-04-21,54,58.8,UK,60,M3,Wraps,SBD,140,145,-150.5,,145,62.5,-67.5,,,62.5,150,155,160,-163,160,367.5,1
František Tichý,M,1994-09-07,25,66.6,Czechia,67.5,O,Wraps,SBD,170,-180,180,,180,120,125,130,,130,200,205,210,,210,520,1
Kamil Tůma,M,1984-05-12,36,74.1,Czechia,75,O,Wraps,SBD,-230,-230,-230,,,,,,,,-160,,,,,,DQ
Jiří Uhrin,M,2004-01-31,16,88.7,Czechia,90,T2,Wraps,SBD,150,170,-180,,170,-105,105,110,,110,170,180,-185,,180,460,1
Viktória Váczyová,F,1997-02-17,23,59.6,Slovakia,60,J,Wraps,SBD,85,90,95,,95,45,50,-52.5,,50,90,100,110,,110,255,2
Martina Vargová,F,1988-07-26,32,56,Slovakia,56,O,Wraps,SBD,100,110,120,,120,60,65,-67.5,,65,110,120,130,,130,315,1
Jana Vašková,F,1994-04-15,26,84.2,Slovakia,90,O,Wraps,SBD,185,195.5,205,-210.5,205,115,120,-130.5,,120,220,235,-245.5,,235,560,1
Adam Vokál,M,1993-08-08,27,81.8,Czechia,82.5,O,Wraps,SBD,-250,-250,250,,250,160,170,-175,,170,240,250,,,250,670,2
Truong An Vu,M,2004-11-06,15,74.9,Czechia,75,T1,Wraps,SBD,-185,185,190,,190,90,95,-97.5,,95,160,175,-187.5,,175,460,1
Wojciech Walania,M,1976-01-29,44,80.15,Poland,82.5,M1,Wraps,SBD,120,155,-165,,155,110,125,-130,,125,160,,,,160,440,1
Darren Walker,M,1968-06-16,52,97.6,UK,100,M3,Wraps,SBD,217.5,237.5,250,,250,150,160,-172,172,160,255,275,285,,285,695,1
Barbora Wicková,F,1993-12-23,26,80.7,Czechia,82.5,O,Wraps,SBD,170,180,190,,190,120,125,-130,,125,160,170,180,,180,495,2
Janusz Witkowski,M,1960-02-22,60,109.5,Poland,110,M5,Wraps,SBD,190,200,-205,,200,-130,-130,-130,,,-190,,,,,,DQ
Gemma Young,F,1989-01-30,31,87.4,UK,90,O,Wraps,SBD,130,150,165,,165,62.5,70,75,,75,140,150,160,,160,400,2
Marek Zelo,M,1980-05-12,40,106.9,Slovakia,110,M1,Wraps,SBD,210,225,235,,235,140,150,-155,,150,230,250,260,,260,645,1
Simona Zivčáková,F,1998-10-08,21,55.4,Slovakia,56,J,Wraps,SBD,100,-110,-110,,100,52.5,-55,-55,,52.5,100,110,117.5,,117.5,270,1
Karol Brečka,M,1961-04-16,59,79.9,Czechia,82.5,M4,Multi-ply,S,-210,210,230.5,,230.5,,,,,,,,,,,230.5,1
Milan Greguš,M,1968-04-30,52,98.1,Czechia,100,M3,Multi-ply,S,285,297.5,,,297.5,,,,,,,,,,,297.5,1
Nikolas Lavu,M,1985-01-12,35,101.6,Slovakia,110,O,Multi-ply,S,-250,250,-260,,250,,,,,,,,,,,250,1
Mieczysłąw Maczka,M,1954-09-11,65,84.5,Germany,90,M6,Multi-ply,S,130,,,,130,,,,,,,,,,,130,1
Hana Malinová,F,1983-09-11,36,53.8,Czechia,56,O,Multi-ply,S,-85,85,100,,100,,,,,,,,,,,100,1
Daniel Pianka,M,1977-01-29,43,64.5,Czechia,67.5,O,Multi-ply,S,170,185,195,-202.5,195,,,,,,,,,,,195,1
Péter Pintér,M,1985-04-29,35,120.3,Slovakia,125,O,Multi-ply,S,330,-350,350,,350,,,,,,,,,,,350,1
Radoslav Radusinović,M,1968-08-13,52,114.1,Croatia,125,M3,Multi-ply,S,270,280,290,300,290,,,,,,,,,,,290,1
Rudolf Siska,M,1971-09-08,48,87.2,Slovakia,90,M2,Multi-ply,S,-245,245,260,,260,,,,,,,,,,,260,1
Jaroslav Belejčák,M,1981-02-11,39,89.6,Slovakia,90,O,Wraps,S,165,170,175,,175,,,,,,,,,,,175,2
Jiří Beneš,M,1998-07-12,22,106.7,Czechia,110,J,Wraps,S,200,-215,215,,215,,,,,,,,,,,215,1
Zdeno Bystriansky,M,1989-05-03,31,88,Slovakia,90,O,Wraps,S,240,-250,260,,260,,,,,,,,,,,260,1
Richard Cvrkal,M,1994-04-21,26,99.9,Czechia,100,O,Wraps,S,270,-295,,,270,,,,,,,,,,,270,1
Ivan Giňovský,M,1967-03-31,53,88.4,Slovakia,90,M3,Wraps,S,190,-210,215,,215,,,,,,,,,,,215,1
Max Glok,M,2001-06-10,19,94.2,Germany,100,T3,Wraps,S,130,140,150,,150,,,,,,,,,,,150,2
Martin Horák,M,1977-01-06,43,98.6,Czechia,100,M1,Wraps,S,220,225,-230,,225,,,,,,,,,,,225,1
Dmytro Hotlashov,M,1985-06-29,35,119.4,Ukraine,125,O,Wraps,S,-290,,-300,,,,,,,,,,,,,,DQ
Yana Hotlashova,F,1999-01-16,21,64.6,Ukraine,67.5,J,Wraps,S,30,,,,30,,,,,,,,,,,30,1
Juraj Kačmárik,M,1985-03-25,35,109.5,Slovakia,110,O,Wraps,S,280,300,-320,-330,300,,,,,,,,,,,300,1
Karina Khanahian,F,1997-07-06,23,60,Ukraine,60,J,Wraps,S,110,-120,120,,120,,,,,,,,,,,120,1
Radek Knápek,M,2003-04-14,17,73.5,Czechia,75,T2,Wraps,S,210,220,-225,-225,220,,,,,,,,,,,220,1
Jan Kolář,M,2002-05-18,18,96.2,Czechia,100,T3,Wraps,S,202.5,-221,,,202.5,,,,,,,,,,,202.5,1
Martin Kolodžej,M,1973-11-27,46,104.3,Czechia,110,M2,Wraps,S,230,-250,250,,250,,,,,,,,,,,250,1
Andrii Kotovenko,M,1983-01-16,37,89.8,Ukraine,90,O,Wraps,S,100,,,,100,,,,,,,,,,,100,3
Irena Krajdlová,F,1983-07-21,37,74.2,Czechia,75,O,Wraps,S,160,170.5,180,,180,,,,,,,,,,,180,1
Tomáš Kunz,M,2002-05-16,18,66.7,Czechia,67.5,T3,Wraps,S,150.5,-160,-167.5,,150.5,,,,,,,,,,,150.5,2
Mieczysłąw Maczka,M,1954-09-11,65,84.5,Germany,90,M6,Wraps,S,120,140,,,140,,,,,,,,,,,140,1
Dominik Nitsche,M,2002-12-31,17,77.9,Czechia,82.5,T2,Wraps,S,240,255,262.5,,262.5,,,,,,,,,,,262.5,1
Tibor Pukáč,M,1971-02-28,49,99,Slovakia,100,M2,Wraps,S,220,240,250,255,250,,,,,,,,,,,250,1
Karel Sazma,M,1975-03-31,45,74.2,Czechia,75,M2,Wraps,S,150,163,165,170,165,,,,,,,,,,,165,1
Erik Szabó,M,2002-03-05,18,64.1,Slovakia,67.5,T3,Wraps,S,155,-165,165.5,170,165.5,,,,,,,,,,,165.5,1
Barbora Wicková,F,1993-12-23,26,80,Czechia,82.5,O,Wraps,S,170,-190,190,,190,,,,,,,,,,,190,1
Janusz Witkowski,M,1960-02-22,60,109.8,Poland,110,M5,Wraps,S,175,,,,175,,,,,,,,,,,175,1
