Division,WeightClassKg,Place,Name,Team,BodyweightKg,Best3SquatKg,Best3BenchKg,Best3DeadliftKg,TotalKg,Equipment,Event,Sex,BirthDate
Boys,51.71,1,Felipe Garza,McAllen,50.35,165.56,117.93,172.37,455.86,Single-ply,SBD,M,
Boys,51.71,2,Dashel Burrows,Sharyland Pioneer,49.44,111.13,83.91,136.08,331.12,Single-ply,SBD,M,
Boys,51.71,3,Caleb Moreno,La Joya Juarez-Lincoln,47.17,111.13,65.77,120.2,297.1,Single-ply,SBD,M,
Boys,51.71,4,Daniel Limon,La Joya Juarez-Lincoln,51.26,102.06,56.7,104.33,263.08,Single-ply,SBD,M,
Boys,51.71,5,Ace Reyna,La Joya,49.9,90.72,40.82,81.65,213.19,Single-ply,SBD,M,
Boys,55.79,1,Seth DeLeon,McAllen Memorial,54.88,108.86,58.97,142.88,310.71,Single-ply,SBD,M,
Boys,59.87,1,Ulises Enriquez,Mercedes,58.51,149.69,92.99,185.97,428.64,Single-ply,SBD,M,
Boys,59.87,2,Isaac Lozano,Roma,58.97,165.56,90.72,172.37,428.64,Single-ply,SBD,M,
Boys,59.87,3,Angel Rivera,McAllen Memorial,58.51,158.76,90.72,172.37,421.84,Single-ply,SBD,M,
Boys,59.87,4,Branden Garcia,La Joya,59.87,95.25,58.97,113.4,267.62,Single-ply,SBD,M,
Boys,67.13,1,Gael Gonzalez,La Joya Palmview,64.86,195.04,111.13,197.31,503.49,Single-ply,SBD,M,
Boys,67.13,2,Thomas Marina,Sharyland Pioneer,66.68,183.7,92.99,183.7,460.4,Single-ply,SBD,M,
Boys,67.13,3,Thomas Rivera,Sharyland Pioneer,66.68,151.95,117.93,188.24,458.13,Single-ply,SBD,M,
Boys,67.13,4,Devon Trevino,Mercedes,63.5,165.56,92.99,183.7,442.25,Single-ply,SBD,M,
Boys,67.13,5,Eleazar Gutierrez,Roma,64.41,156.49,92.99,174.63,424.11,Single-ply,SBD,M,
Boys,67.13,6,Adan De La Cruz,McAllen Rowe,67.13,149.69,104.33,149.69,403.7,Single-ply,SBD,M,
Boys,67.13,7,Jose William,La Joya Juarez-Lincoln,63.05,138.35,90.72,165.56,394.63,Single-ply,SBD,M,
Boys,67.13,8,Carlos Rodriguez,La Joya,65.77,136.08,92.99,165.56,394.63,Single-ply,SBD,M,
Boys,67.13,9,Damian Villapando,La Joya Juarez-Lincoln,67.13,142.88,95.25,138.35,376.48,Single-ply,SBD,M,
Boys,67.13,10,Victor Hernandez,Rio Grande City Grulla,65.32,142.88,88.45,124.74,356.07,Single-ply,SBD,M,
Boys,67.13,11,Andrew Knoblac,Sharyland Pioneer,65.32,131.54,79.38,142.88,353.8,Single-ply,SBD,M,
Boys,67.13,12,Eliu Padilla,La Joya Juarez-Lincoln,60.78,129.27,70.31,142.88,342.46,Single-ply,SBD,M,
Boys,67.13,13,Juan Hernandez,La Joya,65.32,117.93,79.38,127.01,324.32,Single-ply,SBD,M,
Boys,67.13,DQ,Francisco Lopez,McAllen Rowe,65.77,102.06,,,,Single-ply,SBD,M,
Boys,74.84,1,Nick Moreno,La Joya Juarez-Lincoln,69.4,219.99,127.01,210.92,557.92,Single-ply,SBD,M,
Boys,74.84,2,Jerry Rodriguez,McAllen Memorial,73.48,192.78,115.67,174.63,483.08,Single-ply,SBD,M,
Boys,74.84,3,Erasmo Leal,Rio Grande City,73.94,161.03,97.52,183.7,442.25,Single-ply,SBD,M,
Boys,74.84,4,Christian Garcia,Rio Grande City,73.48,161.03,102.06,165.56,428.64,Single-ply,SBD,M,
Boys,74.84,5,Isaiah Castro,Mercedes,72.57,161.03,104.33,151.95,417.3,Single-ply,SBD,M,
Boys,74.84,6,Derek Garza,La Joya Palmview,74.84,161.03,83.91,170.1,415.04,Single-ply,SBD,M,
Boys,74.84,7,Eli Guerrero,La Joya Palmview,74.39,151.95,81.65,174.63,408.23,Single-ply,SBD,M,
Boys,74.84,8,Isaac Santyo,McAllen,71.67,145.15,79.38,151.95,376.48,Single-ply,SBD,M,
Boys,74.84,9,Raul Sevilla,Rio Grande City,70.76,138.35,79.38,111.13,328.85,Single-ply,SBD,M,
Boys,74.84,10,Jesus Marroquin,Rio Grande City Grulla,72.57,102.06,83.91,136.08,322.05,Single-ply,SBD,M,
Boys,82.1,1,Angel Cantu,La Joya Palmview,77.11,242.67,149.69,206.38,598.74,Single-ply,SBD,M,
Boys,82.1,2,Fidencio Ortega,La Joya Juarez-Lincoln,81.19,231.33,142.88,208.65,582.87,Single-ply,SBD,M,
Boys,82.1,3,Adolfo Gonzalez,McAllen Rowe,77.56,165.56,115.67,158.76,439.98,Single-ply,SBD,M,
Boys,82.1,4,Patricio Garcia,McAllen Rowe,78.02,151.95,113.4,151.95,417.3,Single-ply,SBD,M,
Boys,82.1,5,Ernesto Garcia,Rio Grande City,81.65,147.42,99.79,138.35,385.55,Single-ply,SBD,M,
Boys,82.1,6,Mario Lozano,La Joya,81.65,145.15,63.5,149.69,358.34,Single-ply,SBD,M,
Boys,82.1,7,Zoe Gonzalez #3,Sharyland Pioneer,81.65,113.4,61.23,170.1,344.73,Single-ply,SBD,M,
Boys,82.1,8,Francisco Alaniz,La Joya,75.75,117.93,68.04,127.01,312.98,Single-ply,SBD,M,
Boys,82.1,DQ,Bryan Fuentez-Cortez,Sharyland Pioneer,80.38,204.12,102.06,,,Single-ply,SBD,M,
Boys,89.81,1,Anthony Del Angel,Sharyland Pioneer,89.81,231.33,151.95,247.21,630.49,Single-ply,SBD,M,
Boys,89.81,2,Ray Pecina,La Joya Palmview,86.18,215.46,124.74,224.53,564.72,Single-ply,SBD,M,
Boys,89.81,3,Tristan Solis,Rio Grande City,89.81,192.78,142.88,215.46,551.11,Single-ply,SBD,M,
Boys,89.81,4,Jorge Torres,Roma,87.54,204.12,142.88,158.76,505.76,Single-ply,SBD,M,
Boys,89.81,5,Demitri Ayala,McAllen,87.54,190.51,122.47,170.1,483.08,Single-ply,SBD,M,
Boys,89.81,6,Jose Moreno,Rio Grande City,89.36,183.7,97.52,174.63,455.86,Single-ply,SBD,M,
Boys,89.81,7,Deven Becerra,Rio Grande City Grulla,88.45,167.83,90.72,124.74,383.29,Single-ply,SBD,M,
Boys,89.81,DQ,Adrian Ramirez,La Joya,88.45,,,,,Single-ply,SBD,M,
Boys,99.79,1,Roan Galvan,Mercedes,98.43,276.69,176.9,235.87,689.46,Single-ply,SBD,M,
Boys,99.79,2,Miguel Jimenez,Mercedes,90.26,267.62,147.42,254.01,669.05,Single-ply,SBD,M,
Boys,99.79,3,Ethan Anciso,Mercedes,92.08,206.38,129.27,206.38,542.04,Single-ply,SBD,M,
Boys,99.79,4,Artemio Belmontes,Roma,97.52,210.92,120.2,183.7,514.83,Single-ply,SBD,M,
Boys,99.79,5,Rene Garcia,La Joya Juarez-Lincoln,99.34,192.78,124.74,192.78,510.29,Single-ply,SBD,M,
Boys,99.79,6,Camilo Galaviz,Sharyland Pioneer,94.8,158.76,124.74,183.7,467.2,Single-ply,SBD,M,
Boys,99.79,7,Roman Vasquez,Roma,93.89,185.97,108.86,167.83,462.66,Single-ply,SBD,M,
Boys,99.79,8,Jesus Rios,Rio Grande City,95.25,170.1,102.06,183.7,455.86,Single-ply,SBD,M,
Boys,99.79,9,Aaron Benavidez,Rio Grande City,97.07,170.1,102.06,183.7,455.86,Single-ply,SBD,M,
Boys,99.79,10,Alejandro Bosada,McAllen Rowe,93.89,138.35,77.11,142.88,358.34,Single-ply,SBD,M,
Boys,99.79,DQ,Juan Cantu,McAllen,98.88,,,,,Single-ply,SBD,M,
Boys,109.77,1,Jose Abundis,Mercedes,103.87,238.14,142.88,206.38,587.4,Single-ply,SBD,M,
Boys,109.77,2,Abelino Lopez,Rio Grande City Grulla,108.41,226.8,138.35,204.12,569.26,Single-ply,SBD,M,
Boys,109.77,3,Nathanael Aguero,Mercedes,107.95,204.12,129.27,181.44,514.83,Single-ply,SBD,M,
Boys,109.77,4,Brandon Lopez,Rio Grande City Grulla,105.69,206.38,108.86,183.7,498.95,Single-ply,SBD,M,
Boys,109.77,DQ,Antonio Zuniga,La Joya,102.06,158.76,,,,Single-ply,SBD,M,
Boys,124.74,1,Carlos Rodriguez,McAllen Memorial,117.48,247.21,151.95,226.8,625.96,Single-ply,SBD,M,
Boys,124.74,2,Aiden Safford,Rio Grande City,121.56,224.53,151.95,231.33,607.81,Single-ply,SBD,M,
Boys,124.74,3,Jesus Garcia,Roma,113.22,231.33,158.76,210.92,601.01,Single-ply,SBD,M,
Boys,124.74,4,Omar Garcia,La Joya Juarez-Lincoln,120.66,219.99,145.15,215.46,580.6,Single-ply,SBD,M,
Boys,124.74,5,Gabriel Dougherty,McAllen Rowe,116.57,206.38,151.95,206.38,564.72,Single-ply,SBD,M,
Boys,124.74,6,Ezekiel Coronado,La Joya,115.67,229.06,115.67,174.63,519.36,Single-ply,SBD,M,
Boys,124.74,7,Barrett Rabel,Mercedes,116.12,210.92,117.93,179.17,508.02,Single-ply,SBD,M,
Boys,124.74,8,Benjamin Rios,Rio Grande City Grulla,119.75,208.65,124.74,174.63,508.02,Single-ply,SBD,M,
Boys,124.74,9,Ethan Hinojosa,Sharyland Pioneer,116.12,204.12,117.93,183.7,505.76,Single-ply,SBD,M,
Boys,124.74,10,Aaron Izaguerre,McAllen,123.83,149.69,97.52,154.22,401.43,Single-ply,SBD,M,
Boys,124.74,11,Jose Portales,La Joya,124.74,161.03,90.72,136.08,387.82,Single-ply,SBD,M,
Boys,124.74,DQ,Ricardo Flores,Rio Grande City,118.39,210.92,,,,Single-ply,SBD,M,
Boys,139.71,1,Thomas Domian,McAllen Memorial,128.82,242.67,181.44,213.19,637.3,Single-ply,SBD,M,
Boys,139.71,2,Jose Silva,Roma,129.23,199.58,115.67,192.78,508.02,Single-ply,SBD,M,
Boys,139.71,3,Jose Garza,Roma,126.55,181.44,111.13,190.51,483.08,Single-ply,SBD,M,
Boys,139.71+,1,Marcos De Ochoa,McAllen Memorial,150.59,303.91,149.69,265.35,718.94,Single-ply,SBD,M,
Boys,139.71+,2,Jamarion Owens,Mercedes,145.15,260.82,158.76,226.8,646.37,Single-ply,SBD,M,
Boys,139.71+,3,Michael Banda,McAllen Rowe,146.06,174.63,124.74,170.1,469.47,Single-ply,SBD,M,
Boys,139.71+,4,Leesandro Martinez,Rio Grande City Grulla,154.22,183.7,106.59,174.63,464.93,Single-ply,SBD,M,
Boys,139.71+,5,Rene Hernandez,Roma,144.24,136.08,102.06,145.15,383.29,Single-ply,SBD,M,
