Division,WeightClassKg,Place,Name,Team,BodyweightKg,Best3SquatKg,Best3BenchKg,Best3DeadliftKg,TotalKg,Equipment,Event,Sex,BirthDate
Boys,55.79,1,Ismael Martin,Junction,54.88,102.06,45.36,108.86,256.28,Single-ply,SBD,M,
Boys,55.79,2,Joshua Wilkerson,Junction,53.07,58.97,36.29,77.11,172.37,Single-ply,SBD,M,
Boys,59.87,1,Keagan Franklin,Midland,59.42,154.22,72.57,142.88,369.68,Single-ply,SBD,M,
Boys,67.13,1,Royce Knight,Midland,66.22,170.1,90.72,183.7,444.52,Single-ply,SBD,M,
Boys,67.13,2,Jose Contreras,Eldorado,64.41,136.08,92.99,179.17,408.23,Single-ply,SBD,M,
Boys,74.84,1,Zion Ward,Midland,74.39,238.14,120.2,206.38,564.72,Single-ply,SBD,M,
Boys,74.84,2,Larry Telles,Junction,73.48,197.31,131.54,206.38,535.24,Single-ply,SBD,M,
Boys,74.84,3,Drayton McCoy,Midland,73.48,188.24,127.01,190.51,505.76,Single-ply,SBD,M,
Boys,74.84,4,Jackson Carroll,Sonora,72.12,190.51,95.25,199.58,485.34,Single-ply,SBD,M,
Boys,74.84,5,Korbin Covarrubiaz,Eldorado,72.57,161.03,108.86,204.12,474,Single-ply,SBD,M,
Boys,74.84,6,Aizik Soto,Eldorado,73.94,161.03,102.06,204.12,467.2,Single-ply,SBD,M,
Boys,82.1,1,Rino Hernandez,Sonora,79.38,185.97,108.86,219.99,514.83,Single-ply,SBD,M,
Boys,82.1,2,Garrett Porter,Eldorado,81.69,172.37,108.86,190.51,471.74,Single-ply,SBD,M,
Boys,89.81,1,Mario Fernandez,Sonora,83.91,174.63,115.67,147.42,437.72,Single-ply,SBD,M,
Boys,99.79,1,Jaime Davila,Midland,95.71,222.26,145.15,210.92,578.33,Single-ply,SBD,M,
Boys,99.79,2,Elijah Samaniego,Sonora,99.34,244.94,136.08,195.04,576.06,Single-ply,SBD,M,
Boys,99.79,3,Marco Ponce,Junction,90.26,174.63,97.52,181.44,453.59,Single-ply,SBD,M,
Boys,109.77,1,Cesar Avila,Junction,109.32,251.74,113.4,235.87,601.01,Single-ply,SBD,M,
Boys,109.77,2,Marvin Ramos,Midland,108.41,217.72,145.15,219.99,582.87,Single-ply,SBD,M,
Boys,109.77,3,Braxton Elias,Eldorado,106.59,213.19,124.74,206.38,544.31,Single-ply,SBD,M,
Boys,109.77,4,Seth Parker,Eldorado,101.29,190.51,102.06,190.51,483.08,Single-ply,SBD,M,
Boys,109.77,DQ,Aaron Willis,Junction,109.32,176.9,106.59,,,Single-ply,SBD,M,
Boys,124.74,1,Marcos Villalobos,Sonora,117.93,247.21,133.81,265.35,646.37,Single-ply,SBD,M,
Boys,124.74,2,Jacob Vasquez,Midland,123.83,249.48,163.29,226.8,639.57,Single-ply,SBD,M,
Boys,139.71+,1,John Martinez-Guedry,Midland,151.05,294.84,215.46,278.96,789.25,Single-ply,SBD,M,
