Name,CyrillicName,Sex,Equipment,Division,BodyweightKg,WeightClassKg,Best3SquatKg,Best3BenchKg,Best3DeadliftKg,TotalKg,Place,Event,BirthDate
Sarah Effinger,,F,Multi-ply,Pro,58.97,60,229.06,127.01,195.04,551.11,1,SBD,
Diane Fleming,,F,Multi-ply,Pro,81.92,82.5,285.76,147.42,219.99,653.17,1,SBD,
Jessica Bowersock,,F,Multi-ply,Pro,115.67,90+,322.05,195.04,213.19,730.28,1,SBD,
Mélanie Girard,,F,Wraps,Pro,54.52,56,188.24,113.4,185.97,487.61,1,SBD,
Natalia Uranga,,F,Wraps,Pro,59.15,60,185.97,90.72,201.85,478.54,1,SBD,
Stacy Burr,Стейси Берр,F,Wraps,Pro,66.95,67.5,256.28,145.15,249.48,650.91,1,SBD,
Kenna Smoak,,F,Wraps,Pro,73.48,75,165.56,102.06,185.97,453.59,1,SBD,
Emma Jarman,,F,Wraps,Pro,81.74,82.5,213.19,127.01,206.38,546.58,1,SBD,
Jordan Buchla,,F,Wraps,Pro,86.73,90,215.46,120.2,206.38,542.04,1,SBD,
Karolina Koszela,,F,Wraps,Pro,98.52,90+,190.51,106.59,215.46,512.56,1,SBD,
Lorielee Jacinto,,F,Wraps,Pro,116.94,90+,254.01,124.74,204.12,582.87,1,SBD,
Ellen Stein,,F,Wraps,Pro,59.69,60,170.1,92.99,197.31,460.4,2,SBD,
Krystal Cary,,F,Wraps,Pro,66.77,67.5,181.44,108.86,183.7,474,2,SBD,
Amy Berardinelli,,F,Wraps,Pro,74.3,75,136.08,92.99,185.97,415.04,2,SBD,
Kelley Spohrer,,F,Wraps,Pro,88.99,90,185.97,95.25,199.58,480.81,2,SBD,
Melissa Schroeder,,F,Wraps,Pro,66.59,67.5,176.9,97.52,190.51,464.93,3,SBD,
Sin Leung,,F,Wraps,Pro,65.23,67.5,170.1,97.52,176.9,444.52,4,SBD,
Wes McCormick,,M,Multi-ply,Pro,75.3,82.5,390.09,272.16,249.48,911.72,1,SBD,
Tyler E Roy,,M,Multi-ply,Pro,89.9,90,412.77,249.48,249.48,911.72,1,SBD,1996-09-29
James Kinzer,,M,Multi-ply,Pro,98.97,100,410.5,235.87,288.03,934.4,1,SBD,
Travis Haessly,,M,Multi-ply,Pro,121.02,125,433.18,356.07,340.19,1129.45,1,SBD,
Nicolas Stone,,M,Multi-ply,Pro,133.27,140,453.59,249.48,362.87,1065.94,1,SBD,
Tanner Hysell,,M,Multi-ply,Pro,151.68,140+,510.29,283.5,340.19,1133.98,1,SBD,
Stefan Green,,M,Multi-ply,Pro,88.45,90,294.84,249.48,249.48,793.79,2,SBD,
Nate McNeal,,M,Multi-ply,Pro,99.7,100,340.19,274.42,292.57,907.18,2,SBD,
Jo Jordan,,M,Multi-ply,Pro,121.29,125,437.72,288.03,306.17,1031.92,2,SBD,
Christian Kearney,,M,Wraps,Pro,64.05,67.5,222.26,127.01,290.3,639.57,1,SBD,
Nick Onega,,M,Wraps,Pro,74.48,75,294.84,172.37,285.76,752.96,1,SBD,
Anthony Hobaica,,M,Wraps,Pro,82.42,82.5,331.12,217.72,303.91,852.75,1,SBD,
Liam Courtney,,M,Wraps,Pro,88.36,90,340.19,195.04,299.37,834.61,1,SBD,1996-08-12
Bryan Doberdruk,,M,Wraps,Pro,97.61,100,308.44,192.78,308.44,809.66,1,SBD,
Aaron Palko,,M,Wraps,Pro,103.87,110,392.36,226.8,342.46,961.62,1,SBD,
Christopher Wichtl,,M,Wraps,Pro,116.12,125,353.8,260.82,347,961.62,1,SBD,
Jason Belcher,,M,Wraps,Pro,135.35,140,319.78,249.48,365.14,934.4,1,SBD,
Ryan Belcher,,M,Wraps,Pro,154.22,140+,430.91,226.8,365.14,1022.85,1,SBD,
Dustin Craigo,,M,Wraps,Pro,66.32,67.5,242.67,74.84,242.67,560.19,2,SBD,
Joao Lazarin,,M,Wraps,Pro,74.93,75,251.74,167.83,276.69,696.26,2,SBD,
Chance Brady,,M,Wraps,Pro,82.19,82.5,265.35,158.76,281.23,705.34,2,SBD,
Josh Enmark,,M,Wraps,Pro,89.27,90,319.78,219.99,294.84,834.61,2,SBD,
Travis McKinney,,M,Wraps,Pro,98.7,100,299.37,185.97,319.78,805.13,2,SBD,
Oran Smith,,M,Wraps,Pro,109.04,110,351.53,260.82,340.19,952.54,2,SBD,
Luke Uribe,,M,Wraps,Pro,120.66,125,396.89,240.4,301.64,938.94,2,SBD,
Donald Eguires,,M,Wraps,Pro,137.89,140,362.87,201.85,328.85,893.58,2,SBD,
JP Carroll,,M,Wraps,Pro,172.64,140+,430.91,256.28,328.85,1016.05,2,SBD,
Derik Bailey,,M,Wraps,Pro,89.09,90,353.8,165.56,297.1,816.47,3,SBD,
Kevin Cavinder,,M,Wraps,Pro,99.97,100,285.76,192.78,292.57,771.11,3,SBD,
Dimitrios Rallis,,M,Wraps,Pro,109.77,110,369.68,192.78,374.21,936.67,3,SBD,
David Jasiulewicz,,M,Wraps,Pro,123.65,125,324.32,213.19,392.36,929.86,3,SBD,
Kevin McHugh,,M,Wraps,Pro,166.29,140+,399.16,213.19,335.66,948.01,3,SBD,
Kelby Raymer,,M,Wraps,Pro,89.9,90,306.17,190.51,283.5,780.18,4,SBD,
Marc Anthony van der Molen,,M,Wraps,Pro,90.45,100,326.59,163.29,272.16,762.04,4,SBD,
James Gibson,,M,Wraps,Pro,102.15,110,335.66,210.92,337.93,884.51,4,SBD,
Laken Fluegel,,M,Wraps,Pro,124.01,125,353.8,229.06,335.66,918.52,4,SBD,
Patrick J Hall,,M,Wraps,Pro,171.19,140+,385.55,197.31,349.27,932.13,4,SBD,
Tyler Mingus,,M,Wraps,Pro,88.72,90,301.64,172.37,283.5,757.5,5,SBD,
Joseph Michael,,M,Wraps,Pro,108.59,110,349.27,208.65,324.32,882.24,5,SBD,
Gary Miller #1,,M,Wraps,Pro,124.65,125,356.07,213.19,317.51,886.77,5,SBD,
Cyprian Thompson Jr,,M,Wraps,Pro,148.6,140+,408.23,183.7,306.17,898.11,5,SBD,
Jordan Prindiville,,M,Wraps,Pro,88.54,90,281.23,165.56,301.64,748.43,6,SBD,
Mike Lauro,,M,Wraps,Pro,109.13,110,356.07,197.31,324.32,877.7,6,SBD,
Tyler Moreau,,M,Wraps,Pro,119.39,125,356.07,206.38,310.71,873.17,6,SBD,
Ian McKay #1,,M,Wraps,Pro,157.03,140+,365.14,229.06,290.3,884.51,6,SBD,
Chris Jones #6,,M,Wraps,Pro,88.27,90,278.96,181.44,285.76,746.16,7,SBD,
Andrew Schinske,,M,Wraps,Pro,105.78,110,340.19,219.99,310.71,870.9,7,SBD,
Drew Heckman,,M,Wraps,Pro,123.47,125,344.73,165.56,344.73,855.02,7,SBD,
William Moore #3,,M,Wraps,Pro,109.86,110,326.59,213.19,301.64,841.41,8,SBD,
