Division,WeightClassKg,Place,Name,Team,BodyweightKg,Best3SquatKg,Best3BenchKg,Best3DeadliftKg,TotalKg,Equipment,Event,Sex,BirthDate
Boys,51.71,1,Christian Lozano,Rio Hondo,51.53,124.74,65.77,136.08,326.59,Single-ply,SBD,M,
Boys,51.71,2,Julio Velasco,Brownsville Lopez,48.08,102.06,68.04,133.81,303.91,Single-ply,SBD,M,
Boys,59.87,1,Anthony Ayala,Brownsville Veterans Memorial,59.33,163.29,122.47,181.44,467.2,Single-ply,SBD,M,
Boys,59.87,2,Rivers Martinez,Edinburg,59.51,142.88,111.13,145.15,399.16,Single-ply,SBD,M,
Boys,59.87,3,Joseph Ramirez,Brownsville Veterans Memorial,56.97,138.35,81.65,172.37,392.36,Single-ply,SBD,M,
Boys,67.13,1,Gabriel Garza,Brownsville Lopez,62.14,161.03,113.4,204.12,478.54,Single-ply,SBD,M,
Boys,67.13,2,Elias Perez,Edinburg,64.86,149.69,99.79,185.97,435.45,Single-ply,SBD,M,
Boys,67.13,3,Elek Hernandez,Rio Hondo,64.95,149.69,90.72,165.56,405.97,Single-ply,SBD,M,
Boys,67.13,4,Gavin Perez,Rio Hondo,65.23,145.15,92.99,165.56,403.7,Single-ply,SBD,M,
Boys,67.13,5,Roland Saenz,Edinburg,60.06,117.93,77.11,124.74,319.78,Single-ply,SBD,M,
Boys,67.13,DQ,Tomas Arredondo,Rio Hondo,65.41,183.7,,,,Single-ply,SBD,M,
Boys,74.84,1,Robert Stone,Brownsville Veterans Memorial,73.48,195.04,127.01,192.78,514.83,Single-ply,SBD,M,
Boys,74.84,2,Jose Barrientos,Rio Hondo,68.67,183.7,113.4,199.58,496.68,Single-ply,SBD,M,
Boys,74.84,3,Diego Sixtos,Brownsville Lopez,73.75,185.97,102.06,181.44,469.47,Single-ply,SBD,M,
Boys,74.84,4,Joseph Anderson,Rio Hondo,70.13,154.22,111.13,158.76,424.11,Single-ply,SBD,M,
Boys,74.84,5,Nate Rios,Edinburg,70.03,147.42,92.99,151.95,392.36,Single-ply,SBD,M,
Boys,82.1,1,Justin Rosas,Brownsville Veterans Memorial,79.83,231.33,145.15,219.99,596.47,Single-ply,SBD,M,
Boys,82.1,2,Jordan Ayala,Edinburg,80.1,183.7,127.01,174.63,485.34,Single-ply,SBD,M,
Boys,82.1,3,Adrian Salinas,Edinburg,80.74,183.7,113.4,176.9,474,Single-ply,SBD,M,
Boys,82.1,4,Homero Cardenas,Edinburg,78.93,195.04,111.13,165.56,471.74,Single-ply,SBD,M,
Boys,82.1,5,Issac Moreno,Brownsville Veterans Memorial,76.48,170.1,95.25,183.7,449.06,Single-ply,SBD,M,
Boys,82.1,6,Triston Lopez,Brownsville Veterans Memorial,80.2,127.01,99.79,183.7,410.5,Single-ply,SBD,M,
Boys,89.81,1,Manuel Flores,Rio Hondo,88.09,195.04,145.15,179.17,519.36,Single-ply,SBD,M,
Boys,89.81,2,Noah Perez,Edinburg,88.27,183.7,117.93,183.7,485.34,Single-ply,SBD,M,
Boys,89.81,3,Edward Zuniga,Edinburg,84.46,151.95,104.33,174.63,430.91,Single-ply,SBD,M,
Boys,99.79,1,Omar Cervantes,Brownsville Lopez,95.07,224.53,138.35,188.24,551.11,Single-ply,SBD,M,
Boys,99.79,2,Miguel Cortez,Brownsville St. Joseph Academy,96.52,192.78,136.08,215.46,544.31,Single-ply,SBD,M,
Boys,99.79,3,Ariel Segura,Edinburg,97.89,192.78,136.08,181.44,510.29,Single-ply,SBD,M,
Boys,99.79,4,Ryan Garza,Edinburg,94.17,183.7,124.74,174.63,483.08,Single-ply,SBD,M,
Boys,109.77,1,Mario Ramirez,Brownsville Lopez,104.51,265.35,174.63,233.6,673.58,Single-ply,SBD,M,
Boys,124.74,1,Matthew Lopez,Rio Hondo,124.38,310.71,204.12,244.94,759.77,Single-ply,SBD,M,
Boys,124.74,2,Ruben Perez,Rio Hondo,117.66,219.99,147.42,197.31,564.72,Single-ply,SBD,M,
Boys,124.74,3,Oscar Nieves,Brownsville Lopez,123.83,213.19,147.42,204.12,564.72,Single-ply,SBD,M,
Boys,124.74,4,Brandon Longoria,Brownsville Lopez,118.39,208.65,113.4,197.31,519.36,Single-ply,SBD,M,
Boys,124.74,5,Manuel Ramirez,Rio Hondo,124.47,188.24,111.13,215.46,514.83,Single-ply,SBD,M,
Boys,124.74,DQ,Jesus Lerma,Edinburg,111.22,156.49,74.84,,,Single-ply,SBD,M,
Boys,139.71,1,Scott Atkinson,Rio Hondo,132.54,265.35,149.69,260.82,675.85,Single-ply,SBD,M,
Boys,139.71,DQ,Ray Holloman,Brownsville Veterans Memorial,129.64,142.88,142.88,,,Single-ply,SBD,M,
Boys,139.71+,1,Miguel Chavarria,Rio Hondo,153.31,229.06,138.35,215.46,582.87,Single-ply,SBD,M,
Boys,,NS,Ivan Rangel,Brownsville Veterans Memorial,,,,,,Single-ply,SBD,M,
Boys,,NS,Nicholas Gonzalez,Edinburg,,,,,,Single-ply,SBD,M,
