Name,Sex,BirthDate,BodyweightKg,WeightClassKg,Division,Squat1Kg,Squat2Kg,Squat3Kg,Squat4Kg,Best3SquatKg,Bench1Kg,Bench2Kg,Bench3Kg,Bench4Kg,Best3BenchKg,Deadlift1Kg,Deadlift2Kg,Deadlift3Kg,Deadlift4Kg,Best3DeadliftKg,TotalKg,Place,Country,Equipment,Event,Age
Mariana Silva,F,2004-07-16,52.1,56,F_TR_2_WPC,-65,65,72.5,,72.5,30,35,40,,40,85,-95,-95,,85,197.5,1,Portugal,Raw,SBD,
Isis Basanta,F,1993-10-11,53.8,56,F_OR_WPC,135,142.5,-147.5,,142.5,70,75,-77.5,,75,145,155,-162.5,,155,372.5,1,Spain,Raw,SBD,
Elisa Scilipoti,F,1995-09-15,54.8,56,F_OR_WPC,112.5,117.5,122.5,,122.5,65,67.5,-70,,67.5,130,140,145,,145,335,2,Italy,Raw,SBD,
Daniela Dias,F,1988-03-25,56,56,F_OR_WPC,100,105,-107.5,,105,52.5,57.5,-60,,57.5,140,150,152.5,,152.5,315,3,Portugal,Raw,SBD,
Alessandra Banamonte,F,1974-06-04,55,56,F_MR_2_WPC,85,90,-96,,90,50,52.5,-55,,52.5,110,-115,-115,,110,252.5,1,Italy,Raw,SBD,
Ana Marques,F,1994-10-06,58.2,60,F_OR_WPC,95,100,-105,,100,47.5,52.5,55,,55,115,-120,120,,120,275,1,Portugal,Raw,SBD,
Maria Scilipoti,F,1974-04-27,59.5,60,F_MR_2_WPC,60,70,-80,,70,45,47.5,-50,,47.5,95,100,102.5,,102.5,220,1,Italy,Raw,SBD,
Beatriz Vital,F,2008-11-13,62.7,67.5,F_TR_1_WPC,75,85,-92.5,,85,40,45,-52.5,,45,95,-105,105,,105,235,1,Portugal,Raw,SBD,
Paola Alessi,F,2002-07-01,65.4,67.5,F_TR_3_WPC,70,75,-80,,75,37.5,40,-42.5,,40,100,112.5,-117.5,,112.5,227.5,1,Italy,Raw,SBD,
Rosanna Anastasi,F,1992-06-01,63.5,67.5,F_OR_WPC,90,95,100,,100,50,55,60,,60,120,132.5,137.5,,137.5,297.5,1,Italy,Raw,SBD,
Liberata Gallo,F,1988-03-23,62.7,67.5,F_OR_WPC,85,90,-100,,90,45,50,-52.5,,50,105,115,120,,120,260,2,Italy,Raw,SBD,
Rita Zappala,F,1970-01-28,66.2,67.5,F_MR_3_WPC,-95,95,100,,100,57.5,60,65,,65,110,120,130,,130,295,1,Italy,Raw,SBD,
Elena Bananno,F,2007-06-18,69.4,75,F_OR_WPC,107.5,115,120,,120,57.5,60,63,-65,63,127.5,135,-142.5,,135,318,1,Italy,Raw,SBD,
Alesi Foti,F,1997-05-11,68.9,75,F_OR_WPC,95,102.5,110,,110,55,60,-67.5,,60,130,135,142.5,,142.5,312.5,2,Italy,Raw,SBD,
Stefania Pirri,F,1975-12-30,96.3,90+,F_MR_2_WPC,50,-60,60,,60,37.5,40,-42.5,,40,-95,95,102.5,,102.5,202.5,1,Italy,Raw,SBD,
Julie Green #1,F,1965-02-12,106.2,90+,F_MR_4_WPC,115,125,-135,,125,60,65,70,,70,125,135,-145,,135,330,1,UK,Raw,SBD,
Tiago Costa,M,1990-05-02,66.6,67.5,M_OR_WPC,180,195,205,,205,125,137.5,-140,,137.5,210,225,-232.5,,225,567.5,1,Portugal,Raw,SBD,
Lukas Solak,M,1994-11-06,66,67.5,M_OR_WPC,180,-190,-190,,180,115,-125,125,,125,215,225,230,,230,535,2,UK,Raw,SBD,
Pedro Sá,M,1986-02-19,62.9,67.5,M_OR_WPC,-130,130,-140,,130,112.5,-117.5,117.5,,117.5,200,210,-215,,210,457.5,3,Portugal,Raw,SBD,
Fabio Alexandre,M,1993-08-14,64.9,67.5,M_OR_WPC,130,150,160,,160,80,90,-95,,90,180,200,-210,,200,450,4,Portugal,Raw,SBD,
Miguel Gonçalves,M,2000-11-15,72,75,M_JR_WPC,140,150,,,150,80,87.5,95,,95,185,195,-200,,195,440,1,Portugal,Raw,SBD,
Alberto Alonso,M,1979-06-30,74,75,M_OR_WPC,230,-240,240,,240,160,170,177.5,,177.5,285,-292.5,292.5,,292.5,710,1,Spain,Raw,SBD,
Paul Coats,M,1967-01-05,74.9,75,M_OR_WPC,177.5,182.5,185,,185,117.5,120,122.5,,122.5,217.5,-220,,,217.5,525,2,USA,Raw,SBD,
Daniel Raimundo,M,1992-11-12,73.1,75,M_OR_WPC,165,175,-180,,175,130,-140,-140,,130,195,207.5,215,,215,520,3,Portugal,Raw,SBD,
Giuseppe Miano,M,1988-05-20,71.6,75,M_OR_WPC,135,145,-155,,145,90,-95,95,,95,180,190,205,,205,445,4,Italy,Raw,SBD,
Alberto Alonso,M,1979-06-30,74,75,M_MR_1_WPC,230,-240,240,,240,160,170,177.5,,177.5,285,-292.5,292.5,,292.5,710,1,Spain,Raw,SBD,
Paul Coats,M,1967-01-05,74.9,75,M_MR_3_WPC,177.5,182.5,185,,185,117.5,120,122.5,,122.5,217.5,-220,,,217.5,525,1,USA,Raw,SBD,
Vincenzo Cavanesi,M,1971-06-14,73.8,75,M_MR_3_WPC,120,-127.5,127.5,,127.5,95,97.5,100,,100,175,182.5,187.5,,187.5,415,2,Italy,Raw,SBD,
Francesco Zanti,M,1998-09-22,76,82.5,M_JR_WPC,-100,110,-125,,110,75,80,82.5,,82.5,170,175,-185,,175,367.5,1,Italy,Raw,SBD,
Ricardo Lima,M,1983-07-29,81.2,82.5,M_OR_WPC,-185,185,205,,205,130,145,-155,,145,225,247.5,-260,,247.5,597.5,1,Portugal,Raw,SBD,
David Campos,M,1994-08-29,82,82.5,M_OR_WPC,190,205,-212.5,,205,130,137.5,-142.5,,137.5,230,242.5,-257.5,,242.5,585,2,France,Raw,SBD,
Márcio Correia,M,1986-06-21,80.3,82.5,M_OR_WPC,175,-185,185,,185,110,120,-130,,120,190,210,230,,230,535,3,Portugal,Raw,SBD,
Fabio Medeiros,M,1990-07-26,77,82.5,M_OR_WPC,155,-160,-160,,155,127.5,135,-142.5,,135,190,210,-220,,210,500,4,Portugal,Raw,SBD,
Giosuè Del Bravo,M,1980-11-29,82.4,82.5,M_MR_1_WPC,195,205,-210,,205,130,137.5,,,137.5,250,260,-270,,260,602.5,1,Italy,Raw,SBD,
Thalison Silva,M,2006-03-23,82.7,90,M_TR_1_WPC,80,92.5,100,,100,50,57.5,-60,,57.5,-107.5,107.5,127.5,,127.5,285,1,Portugal,Raw,SBD,
Matteo Bozza,M,1993-01-28,89,90,M_OR_WPC,-250,250,-260,,250,170,180,-185,,180,305,315,-325,,315,745,1,Italy,Raw,SBD,
Antonino Scilipoti,M,1988-08-06,89.7,90,M_OR_WPC,205,220,-230,,220,125,130,135,,135,-262.5,265,-282.5,,265,620,3,Italy,Raw,SBD,
Alvaro Lopez,M,1995-10-26,86,90,M_OR_WPC,195,215,225,,225,135,150,-155,,150,240,260,-270,,260,635,2,Spain,Raw,SBD,
Darryl Triance,M,1976-06-28,89.3,90,M_OR_WPC,200,-215,-215,,200,110,120,125,,125,-245,245,,,245,570,4,UK,Raw,SBD,
Francisco Correia,M,1995-09-25,88.9,90,M_OR_WPC,190,202.5,210,,210,110,-115,,,110,230,-242.5,-242.5,,230,550,5,Portugal,Raw,SBD,
Marco Torre,M,1988-12-22,88,90,M_OR_WPC,170,180,190,,190,-150,-150,150,,150,205,-215,-215,,205,545,6,Italy,Raw,SBD,
Darryl Triance,M,1976-06-28,89.3,90,M_MR_2_WPC,200,-215,-215,,200,110,120,125,,125,-245,245,,,245,570,1,UK,Raw,SBD,
Rosario Marotta,M,1954-04-21,84.3,90,M_MR_6_WPC,165,175,185.5,,185.5,-100,115,120,,120,200,215,226,-230,226,531.5,1,Italy,Raw,SBD,
Carlos Asensio,M,2003-08-02,94.2,100,M_TR_3_WPC,180,190,200,,200,130,140,145,,145,-220,220,240,-275,240,585,1,Spain,Raw,SBD,
Miguel Pereira,M,1998-04-16,93.2,100,M_JR_WPC,175,200,210,,210,85,105,117.5,,117.5,200,225,-245,,225,552.5,1,Portugal,Raw,SBD,
Simon Ducotterd,M,1989-02-22,99.8,100,M_OR_WPC,280,305,-310,,305,162.5,175,180,,180,345,367.5,-373,,367.5,852.5,1,France,Raw,SBD,
José Castro Blanco,M,1987-08-10,99.2,100,M_OR_WPC,245,260,-270,,260,150,160,170,,170,270,300,,,300,730,2,Spain,Raw,SBD,
Paulo Gonçalves,M,1985-09-04,96.2,100,M_OR_WPC,240,-255,255,,255,145,-155,,,145,-270,-270,270,,270,670,3,Portugal,Raw,SBD,
Carlos Correa,M,1994-01-28,97.6,100,M_OR_WPC,195,210,230,,230,160,-175,-175,,160,-245,245,260,,260,650,4,Portugal,Raw,SBD,
Federico Sipione,M,1980-11-09,95.4,100,M_MR_1_WPC,245,255,265,,265,155,165,-175,,165,285,301,-305,,301,731,1,Italy,Raw,SBD,
David Spínola,M,1980-11-17,98,100,M_MR_1_WPC,200,215,-225,,215,120,127.5,132.5,,132.5,250,260,270,,270,617.5,2,Portugal,Raw,SBD,
Gareth James,M,1979-09-21,92.2,100,M_MR_1_WPC,187.5,190,200,,200,120,127.5,-132.5,,127.5,250,262.5,-272.5,,262.5,590,3,UK,Raw,SBD,
Claudio Ferreira,M,1977-10-21,95.3,100,M_MR_1_WPC,-170,170,180,,180,150,-157.5,-157.5,,150,200,215,-222.5,,215,545,4,Portugal,Raw,SBD,
Mahmoud El Shawarby,M,2000-03-14,108.7,110,M_JR_WPC,205,220,240,,240,145,150,157.5,,157.5,270,285,-290,,285,682.5,1,Egypt,Raw,SBD,
Pablo Vila Jimenez,M,1998-05-19,106.5,110,M_JR_WPC,-230,250,260,,260,125,132.5,137.5,,137.5,240,260,270,,270,667.5,2,Spain,Raw,SBD,
Santiago Fernandez,M,1981-08-30,103.2,110,M_OR_WPC,265,290,300,,300,205,212.5,,,212.5,300,-320,-320,,300,812.5,1,Spain,Raw,SBD,
Pedro Cardoso,M,1992-12-03,109.2,110,M_OR_WPC,255,270,280,,280,165,180,-190,,180,290,-310,-310,,290,750,2,Portugal,Raw,SBD,
Mahmoud El Shawarby,M,2000-03-14,108.7,110,M_OR_WPC,205,220,240,,240,145,150,157.5,,157.5,270,285,-290,,285,682.5,3,Egypt,Raw,SBD,
Pablo Vila Jimenez,M,1998-05-19,106.5,110,M_OR_WPC,230,250,260,,260,125,132,137.5,,137.5,240,260,270,,270,667.5,4,Spain,Raw,SBD,
Santiago Fernandez,M,1981-08-30,103.2,110,M_MR_1_WPC,265,290,300,,300,205,212.5,,,212.5,300,-320,-320,,300,812.5,1,Spain,Raw,SBD,
Hélio Silva,M,1980-02-04,103,110,M_MR_1_WPC,200,230,260,,260,127.5,140,150,,150,240,-275,-275,,240,650,2,Portugal,Raw,SBD,
Loïc Poirier,M,1961-06-16,100.6,110,M_MR_5_WPC,185,205,,,205,135,145,155.5,,155.5,220,-240,,,220,580.5,1,France,Raw,SBD,
António Azevedo,M,2003-12-03,123.1,125,M_TR_2_WPC,205,220.5,225,230,225,105,120,127.5,,127.5,210,222.5,227.5,,227.5,580,1,Portugal,Raw,SBD,
Stephen Fraher,M,1985-12-15,119.3,125,M_OR_WPC,270,280,287.5,,287.5,155,160,-165,,160,270,280,285,,285,732.5,1,UK,Raw,SBD,
Michael Schrott,M,1972-10-17,121.6,125,M_MR_2_WPC,260,280,300,,300,130,150,-165,,150,220,250,275,,275,725,1,Germany,Raw,SBD,
Patrick Vidale,M,1976-08-23,116.3,125,M_MR_2_WPC,-235,242.5,,,242.5,125,-137.5,-137.5,,125,235,245,-255,,245,612.5,2,Italy,Raw,SBD,
Salvatore Manna,M,1994-12-09,132.2,140,M_OR_WPC,180,190,205,,205,175,182.5,190,,190,190,205,220,,220,615,1,Italy,Raw,SBD,
Elaine Rollo,F,1982-10-23,87.3,90,F_OES_WPC,175,190,-205,,190,112.5,122.5,130,,130,160,-175,175,180,175,495,1,UK,Single-ply,SBD,
Tony Chilcott,M,1966-11-08,80,82.5,M_MES_4_WPC,-250,250,266,,266,155,166,-172.5,,166,220,231,-240,,231,663,1,UK,Single-ply,SBD,
Charbel Alhallak,M,,90,90,M_OES_WPC,250,-275,305,,305,130,-150,160,,160,220,255,-260,,255,720,1,Lebanon,Single-ply,SBD,
Callum Rollo,M,1982-09-10,98.6,100,M_OES_WPC,280,310,-322.5,,310,-200,200,212.5,,212.5,250,265,-270,,265,787.5,1,UK,Single-ply,SBD,
Youssef Al Naggdy,M,1999-09-21,108.6,110,M_JES_WPC,280,305,-312.5,,305,180,195,-207.5,,195,280,-295,-317.5,,280,780,1,Egypt,Single-ply,SBD,
Tony O'Rourke,M,1983-10-18,101.7,110,M_OES_WPC,-280,280,,,280,250.5,262,271,300,271,250,265,270,,270,821,1,Ireland,Single-ply,SBD,
Youssef Al Naggdy,M,1999-09-21,108.6,110,M_OES_WPC,280,305,-312.5,,305,180,195,-207.5,,195,280,-295,-317.5,,280,780,2,Egypt,Single-ply,SBD,
Andreas Møller,M,1981-02-15,128.8,140,M_OES_WPC,-340,-340,-340,,,,,,,,,,,,,,DQ,Norway,Single-ply,SBD,
Rabih Saka,M,,146.2,140+,M_OES_WPC,380,-420,-420,,380,260,276,,,276,260,-280,280,,280,936,1,Lebanon,Single-ply,SBD,
Rabih Saka,M,,146.2,140+,M_MES_1_WPC,380,-420,-420,,380,260,276,,,276,260,-280,280,,280,936,1,Lebanon,Single-ply,SBD,
Adrien Mailler,M,1987-01-18,60,60,M_OEM_WPC,180,-195,195,,195,80,-102.5,-102.5,,80,220,-238,-238,,220,495,1,Ireland,Multi-ply,SBD,
Shane Brodie,M,1973-10-18,87.5,90,M_OEM_WPC,340,-362.5,362.5,,362.5,155,165,170,,170,240,252.5,-260,,252.5,785,1,Ireland,Multi-ply,SBD,
Shane Brodie,M,1973-10-18,87.5,90,M_MEM_2_WPC,340,-362.5,362.5,,362.5,155,165,170,,170,240,252.5,-260,,252.5,785,1,Ireland,Multi-ply,SBD,
Sébastien Boizou,M,1974-06-05,86.6,90,M_MEM_2_WPC,210,220,230,,230,160,-170,180,,180,220,240,-250,,240,650,2,France,Multi-ply,SBD,
Eric Athias,M,1971-04-12,87.1,90,M_MEM_3_WPC,-260,-260,260,,260,200,215,-230.5,,215,265,-285,285,,285,760,1,France,Multi-ply,SBD,
Didier Theux,M,1958-05-01,89.2,90,M_MEM_5_WPC,230,250,255,,255,200,-210,210,,210,-240,240,-260,,240,705,1,France,Multi-ply,SBD,
Tobias Blankenhoin,M,1989-05-20,125,125,M_OEM_WPC,-300,-300,-300,,,,,,,,,,,,,,DQ,Germany,Multi-ply,SBD,
Pedro Martins,M,1979-08-19,115.1,125,M_MEM_1_WPC,-340,340,370,,370,220,230,-240,,230,200,-270,-280,,200,800,1,Portugal,Multi-ply,SBD,
Victoria Meimouni,F,1994-05-17,55.2,56,F_OR_WPC,,,,,,72.5,75,-80,,75,,,,,,75,1,France,Raw,B,
Rosa Medina,F,1982-01-02,58.8,60,F_OR_WPC,,,,,,55,62.5,-65,,62.5,,,,,,62.5,1,Spain,Raw,B,
Elisa Corda,F,1985-07-11,59,60,F_OR_WPC,,,,,,55,-62.5,-62.5,,55,,,,,,55,2,Italy,Raw,B,
Eunice Miranda,F,1976-08-06,73.3,75,F_OR_WPC,,,,,,135,145,-150,,145,,,,,,145,1,Portugal,Raw,B,
Eunice Miranda,F,1976-08-06,73.3,75,F_MR_2_WPC,,,,,,135,145,-150,,145,,,,,,145,1,Portugal,Raw,B,
Sal Lack,F,1976-12-20,96.3,90+,F_MR_1_WPC,,,,,,75,77.5,-80,,77.5,,,,,,77.5,1,UK,Raw,B,
Julie Green #1,F,1965-02-12,106.1,90+,F_MR_4_WPC,,,,,,62.5,67.5,70,,70,,,,,,70,1,UK,Raw,B,
Collen Meredith,F,1992-11-26,120,90+,F_OR_WPC,,,,,,125,132.5,-140,,132.5,,,,,,132.5,1,USA,Raw,B,
Tiago Costa,M,1990-05-02,67.3,67.5,M_OR_WPC,,,,,,127.5,135,-140,,135,,,,,,135,1,Portugal,Raw,B,
Pedro Sá,M,1986-02-19,64,67.5,M_OR_WPC,,,,,,100,110,-120,,110,,,,,,110,2,Portugal,Raw,B,
Josie Thomas #2,F,1980-09-03,67,67.5,F_MR_1_WPC,,,,,,72.5,-80,-80,,72.5,,,,,,72.5,1,UK,Raw,B,
Alexandre Deblandre,M,1974-08-18,67.2,67.5,M_MR_2_WPC,,,,,,90,97.5,-102.5,,97.5,,,,,,97.5,1,Portugal,Raw,B,
Mickael Borns,M,1946-10-19,66.8,67.5,M_MR_8_WPC,,,,,,65,70,72.5,,72.5,,,,,,72.5,1,France,Raw,B,
Marco Magalhães,M,1976-10-24,74.3,75,M_MR_2_WPC,,,,,,165,172.5,178,,178,,,,,,178,1,Portugal,Raw,B,
Tahvo Jauhojärvi,M,1961-12-08,74.4,75,M_MR_4_WPC,,,,,,135,145,,,145,,,,,,145,1,Finland,Raw,B,
Joannis Sulime,M,1951-08-19,73.5,75,M_MR_7_WPC,,,,,,100,105,110,,110,,,,,,110,1,France,Raw,B,
Vladimir Agasaryan,M,1991-10-09,82.5,82.5,M_OR_WPC,,,,,,182.5,187.5,-190,,187.5,,,,,,187.5,1,UK,Raw,B,
Stanislaw Samek,M,1983-04-30,82,82.5,M_OR_WPC,,,,,,172.5,177.5,-182.5,,177.5,,,,,,177.5,2,Poland,Raw,B,
Jeremy Rabin,M,1990-02-12,82.5,82.5,M_OR_WPC,,,,,,160,167.5,170,,170,,,,,,170,3,France,Raw,B,
Fabio Medeiros,M,1990-07-26,77,82.5,M_OR_WPC,,,,,,125,132.5,140,,140,,,,,,140,4,Portugal,Raw,B,
Pedro Claro,M,1965-11-17,77,82.5,M_OR_WPC,,,,,,125,130,-135,,130,,,,,,130,5,Portugal,Raw,B,
Pedro Claro,M,1965-11-17,77,82.5,M_MR_4_WPC,,,,,,125,130,-135,,130,,,,,,130,1,Portugal,Raw,B,
David Gibson #2,M,1966-11-02,79,82.5,M_MR_4_WPC,,,,,,115,120,-122.5,,120,,,,,,120,2,UK,Raw,B,
Florindo Figueiredo Pinheiro,M,1973-12-25,89.3,90,M_OR_WPC,,,,,,220,-225,225,,225,,,,,,225,1,Portugal,Raw,B,
Roberto Vazquez Riviera,M,1993-08-06,90,90,M_OR_WPC,,,,,,-190,-197.5,197.5,,197.5,,,,,,197.5,2,Spain,Raw,B,
Daniel Maroñas,M,1988-04-24,89.8,90,M_OR_WPC,,,,,,185,192.5,-200,,192.5,,,,,,192.5,3,Spain,Raw,B,
Danny O'Brien #1,M,1992-07-30,88.8,90,M_OR_WPC,,,,,,162.5,170,-175,,170,,,,,,170,4,UK,Raw,B,
Florindo Figueiredo Pinheiro,M,1973-12-25,89.3,90,M_MR_2_WPC,,,,,,220,-225,225,,225,,,,,,225,1,Portugal,Raw,B,
Jose Borba,M,1975-01-19,87.2,90,M_MR_2_WPC,,,,,,190,-195,,,190,,,,,,190,2,Portugal,Raw,B,
Jamie Bailey #1,M,1974-05-23,89.4,90,M_MR_2_WPC,,,,,,-140,140,145,,145,,,,,,145,3,UK,Raw,B,
Abdel Rahmon Mostafa,M,2000-07-13,99.6,100,M_JR_WPC,,,,,,150,157.5,165,,165,,,,,,165,1,Egypt,Raw,B,
Paulo Santos #1,M,1988-09-25,100,100,M_OR_WPC,,,,,,195,205,210,,210,,,,,,210,1,Portugal,Raw,B,
Abdel Rahmon Mostafa,M,2000-07-13,99.6,100,M_OR_WPC,,,,,,150,157.5,165,,165,,,,,,165,2,Egypt,Raw,B,
Villari Nicola,M,1976-02-26,97.2,100,M_MR_2_WPC,,,,,,107.5,115,120,,120,,,,,,120,2,Italy,Raw,B,
Cédric Hupin,M,1975-01-03,97,100,M_MR_2_WPC,,,,,,150,160,170,,170,,,,,,170,1,France,Raw,B,
Dominique Nussbaum,M,1971-08-14,99.7,100,M_MR_3_WPC,,,,,,190,200,-207.5,,200,,,,,,200,1,France,Raw,B,
Patrice Huner,M,1963-01-22,97.2,100,M_MR_4_WPC,,,,,,135,142.5,150,,150,,,,,,150,1,France,Raw,B,
Hany Ahme,M,1980-09-13,100.2,110,M_OR_WPC,,,,,,190,200,-210,,200,,,,,,200,1,Egypt,Raw,B,
Hany Ahme,M,1980-09-13,100.2,110,M_MR_1_WPC,,,,,,190,200,-210,,200,,,,,,200,1,Egypt,Raw,B,
Jivko Jendov,M,1970-07-17,109.1,110,M_MR_3_WPC,,,,,,165,172.5,,,172.5,,,,,,172.5,1,Bulgaria,Raw,B,
Bruno Ricardo Ruela Alves,M,1988-11-15,121.4,125,M_OR_WPC,,,,,,-250,-250,,,,,,,,,,DQ,Portugal,Raw,B,
Chris Knauer,M,1969-09-29,124,125,M_OR_WPC,,,,,,200,210,215,,215,,,,,,215,1,USA,Raw,B,
Bruno Martinez,M,1992-10-20,112.1,125,M_OR_WPC,,,,,,192.5,200,202.5,,202.5,,,,,,202.5,2,Spain,Raw,B,
Raimo Hiisiö,M,1968-12-18,118.8,125,M_OR_WPC,,,,,,185,195,202.5,,202.5,,,,,,202.5,3,Finland,Raw,B,
Flávio Martins,M,1992-10-13,116.2,125,M_OR_WPC,,,,,,190,200,-210,,200,,,,,,200,4,Portugal,Raw,B,
Raymond Foley,M,1979-11-24,120.7,125,M_MR_1_WPC,,,,,,175,185,,,185,,,,,,185,1,Ireland,Raw,B,
Jose Jaime Carballo Rey,M,1975-11-26,116.6,125,M_MR_2_WPC,,,,,,190,205,,,205,,,,,,205,1,Spain,Raw,B,
Chris Knauer,M,1969-09-29,124,125,M_MR_3_WPC,,,,,,200,210,215,,215,,,,,,215,1,USA,Raw,B,
Raimo Hiisiö,M,1968-12-18,118.8,125,M_MR_3_WPC,,,,,,185,195,202.5,,202.5,,,,,,202.5,2,Finland,Raw,B,
Tapia Laine,M,1952-04-12,113.6,125,M_MR_6_WPC,,,,,,145,155,-162.5,,155,,,,,,155,1,Finland,Raw,B,
Valter Tápia,M,1982-11-29,125.7,140,M_OR_WPC,,,,,,177.5,192.5,,,192.5,,,,,,192.5,1,Portugal,Raw,B,
Goksel Battcher,M,1977-02-22,133.8,140,M_MR_1_WPC,,,,,,150,160,-170,,160,,,,,,160,1,Germany,Raw,B,
Stewart Killick,M,1970-09-23,130.5,140,M_MR_3_WPC,,,,,,170,182.5,-195,,182.5,,,,,,182.5,1,UK,Raw,B,
David Hernandez,M,1981-07-07,145.9,140+,M_MR_1_WPC,,,,,,200,-210,-210,,200,,,,,,200,1,France,Raw,B,
Alexandre Deblandre,M,1974-08-18,67.2,67.5,M_MES_2_WPC,,,,,,105,112.5,-120,,112.5,,,,,,112.5,1,Portugal,Single-ply,B,
Tahvo Jauhojärvi,M,1961-12-08,74.4,75,M_MES_4_WPC,,,,,,171,181,,,181,,,,,,181,1,Finland,Single-ply,B,
Joannis Sulime,M,1951-08-19,73.5,75,M_MES_7_WPC,,,,,,115,120,125,,125,,,,,,125,1,France,Single-ply,B,
Fabrice Lapiccirella,M,1975-02-10,79.8,82.5,M_MES_2_WPC,,,,,,140,150,-170,,150,,,,,,150,1,France,Single-ply,B,
David Gibson #2,M,1966-11-02,79,82.5,M_MES_4_WPC,,,,,,130,137.5,-140,,137.5,,,,,,137.5,1,UK,Single-ply,B,
Rob Preston,M,1969-03-04,97,100,M_MES_3_WPC,,,,,,230,247.5,-250,,247.5,,,,,,247.5,1,UK,Single-ply,B,
Mahmoud El Shawarby,M,2000-03-14,108.7,110,M_JES_WPC,,,,,,195,215.5,-222.5,,215.5,,,,,,215.5,1,Egypt,Single-ply,B,
Mahmoud El Shawarby,M,2000-03-14,108.7,110,M_OES_WPC,,,,,,195,215,-222.5,,215,,,,,,215,1,Egypt,Single-ply,B,
Greg Roux Reymond,M,1977-11-29,109.3,110,M_MES_1_WPC,,,,,,-240,-250,,,,,,,,,,DQ,France,Single-ply,B,
Tahvo Jauhojärvi,M,1961-12-08,74.4,75,M_MEM_4_WPC,,,,,,-191,191,,,191,,,,,,191,1,Finland,Multi-ply,B,
Jani Vaskelainen,M,1975-01-07,81.9,82.5,M_MEM_2_WPC,,,,,,150,175,-180,,175,,,,,,175,1,Finland,Multi-ply,B,
Didier Theux,M,1958-05-01,88.8,90,M_OEM_WPC,,,,,,-190,190,200,,200,,,,,,200,1,France,Multi-ply,B,
Didier Theux,M,1958-05-01,88.8,90,M_MEM_5_WPC,,,,,,-190,190,200,,200,,,,,,200,1,France,Multi-ply,B,
Steeve Barros Gameiro,M,1978-08-21,107.5,110,M_OEM_WPC,,,,,,-350,-350,-350,,,,,,,,,DQ,France,Multi-ply,B,
Kevin Maher,M,1961-06-03,103.6,110,M_MEM_5_WPC,,,,,,205,-212.5,-212.5,,205,,,,,,205,1,UK,Multi-ply,B,
Eric Platel,M,1971-09-23,112.3,125,M_MEM_3_WPC,,,,,,250,-300,-300,,250,,,,,,250,1,France,Multi-ply,B,
Garry Gameiro,M,1983-08-28,115.9,125,M_OEM_WPC,,,,,,-290,290,300,,300,,,,,,300,1,France,Multi-ply,B,
Kalle Ylitalo-James,M,1983-06-13,132,140,M_OEM_WPC,,,,,,350,-365,-365,,350,,,,,,350,1,Finland,Multi-ply,B,
Elisa Corda,F,1985-07-11,58.6,60,F_OES_WPC,,,,,,,,,,,150,-162.5,-162.5,,150,150,1,Italy,Single-ply,D,
Rik Davison,M,1961-02-20,98.7,100,M_MES_5_WPC,,,,,,,,,,,260,280.5,283,,283,283,1,UK,Single-ply,D,
Youssef Al Naggdy,M,1999-09-21,106.3,110,M_JES_WPC,,,,,,,,,,,290,-303,-303,,290,290,1,Egypt,Single-ply,D,
Youssef Al Naggdy,M,1999-09-21,106.3,110,M_OES_WPC,,,,,,,,,,,290,-303,-303,,290,290,1,Egypt,Single-ply,D,
Mahmoud El Shawarby,M,2000-03-14,110.8,125,M_JES_WPC,,,,,,,,,,,275,280,,,280,280,1,Egypt,Single-ply,D,
Marouane Baoufi,M,1987-05-09,110.5,125,M_OES_WPC,,,,,,,,,,,270,280,,,280,280,1,France,Single-ply,D,
Mahmoud El Shawarby,M,2000-03-14,110.8,125,M_OES_WPC,,,,,,,,,,,275,280,,,280,280,2,Egypt,Single-ply,D,
Paulo Leandro,M,1966-01-23,111.9,125,M_MES_4_WPC,,,,,,,,,,,225,-245,-252.5,,225,225,1,Portugal,Single-ply,D,
Didier Theux,M,1958-05-01,90.2,100,M_MEM_5_WPC,,,,,,,,,,,230,-260,-260,,230,230,1,France,Multi-ply,D,
Victoria Meimouni,F,1994-05-17,55.5,56,F_OR_WPC,,,,,,,,,,,127.5,132.5,-135,,132.5,132.5,1,France,Raw,D,
Jenifer Rodriguez,F,2001-09-14,57.8,60,F_JR_WPC,,,,,,,,,,,-115,-115,115,,115,115,1,Spain,Raw,D,
Rosa Medina,F,1982-01-02,59.6,60,F_OR_WPC,,,,,,,,,,,125,132.5,140,,140,140,1,Spain,Raw,D,
Taty Vialante,F,1994-03-09,59.8,60,F_OR_WPC,,,,,,,,,,,130,140,-145,,140,140,2,Italy,Raw,D,
Sandrine Chabert,F,1974-07-22,74.8,75,F_OR_WPC,,,,,,,,,,,190,205,212.5,,212.5,212.5,1,France,Raw,D,
Amira Remidan,F,1991-10-07,73.5,75,F_OR_WPC,,,,,,,,,,,140,-152.5,-152.5,,140,140,2,France,Raw,D,
Sandrine Chabert,F,1974-07-22,74.8,75,F_MR_2_WPC,,,,,,,,,,,190,205,212.5,,212.5,212.5,1,France,Raw,D,
Cecilia Quintero,F,1988-12-28,77.3,82.5,F_OR_WPC,,,,,,,,,,,155,172.5,-182.5,,172.5,172.5,1,Brazil,Raw,D,
Silvia Ortiz,F,1979-06-11,80.1,82.5,F_MR_1_WPC,,,,,,,,,,,130,137.5,140,,140,140,1,Spain,Raw,D,
Collen Meredith,F,1992-11-26,121,90+,F_OR_WPC,,,,,,,,,,,215,225,-232.5,,225,225,1,USA,Raw,D,
Julie Green #1,F,1968-02-12,104.7,90+,F_MR_3_WPC,,,,,,,,,,,120,130,140,,140,140,1,UK,Raw,D,
Sal Lack,F,1976-12-20,96.3,90+,F_MR_1_WPC,,,,,,,,,,,110,115,120,,120,120,1,UK,Raw,D,
Pedro Sá,M,1986-02-19,64.6,67.5,M_OR_WPC,,,,,,,,,,,200,212.5,-215,,212.5,212.5,1,Portugal,Raw,D,
Salvatore Picarella,M,1997-10-26,65.4,67.5,M_OR_WPC,,,,,,,,,,,-190,-190,190,,190,190,2,Italy,Raw,D,
David Parrino,M,1978-04-14,65.8,67.5,M_MR_1_WPC,,,,,,,,,,,180,190,200,205,200,200,1,Italy,Raw,D,
Giuseppe Parisi,M,2004-07-09,72.1,75,M_TR_2_WPC,,,,,,,,,,,150,-160,160,,160,160,1,Italy,Raw,D,
Melvyn Bataille,M,2001-07-30,74,75,M_JR_WPC,,,,,,,,,,,260,276,-280,,276,276,1,France,Raw,D,
Gonzalo Garcia,M,1977-09-22,73.3,75,M_OR_WPC,,,,,,,,,,,-275,276.5,282.5,295,282.5,282.5,1,Spain,Raw,D,
Gary Reichert,M,1960-05-05,74.3,75,M_OR_WPC,,,,,,,,,,,-230,230,-252.5,,230,230,2,USA,Raw,D,
Gary Reichert,M,1960-05-05,74.3,75,M_MR_5_WPC,,,,,,,,,,,-230,230,-252.5,,230,230,1,USA,Raw,D,
Fabio Medeiros,M,1990-07-24,77.3,82.5,M_OR_WPC,,,,,,,,,,,125,190,210,,210,210,1,Portugal,Raw,D,
Bruno Dedieu,M,1957-07-09,80,82.5,M_MR_5_WPC,,,,,,,,,,,180,-192.5,192.5,,192.5,192.5,1,France,Raw,D,
Roberto Vazquez Riviera,M,1993-08-06,89.9,90,M_OR_WPC,,,,,,,,,,,230,250,260,,260,260,1,Spain,Raw,D,
Pietro Bernardi,M,1979-11-13,87.6,90,M_MR_1_WPC,,,,,,,,,,,280,290,-300,,290,290,1,Italy,Raw,D,
José Castro Blanco,M,,99.8,100,M_OR_WPC,,,,,,,,,,,270,285,-302.5,,285,285,1,Spain,Raw,D,
Danny O'Brien #1,M,1992-07-30,93.3,100,M_OR_WPC,,,,,,,,,,,252.5,262.5,-270,,262.5,262.5,2,UK,Raw,D,
Darren Walker,M,1968-06-16,96.7,100,M_MR_3_WPC,,,,,,,,,,,265,285,-287.5,,285,285,1,UK,Raw,D,
Rik Davison,M,1961-02-20,98.7,100,M_MR_5_WPC,,,,,,,,,,,240,250,-272.5,,250,250,1,UK,Raw,D,
Mark Towers,M,1998-01-11,103.6,110,M_JR_WPC,,,,,,,,,,,220,240,260,,260,260,1,UK,Raw,D,
Samir Mechat,M,1985-03-26,105.8,110,M_OR_WPC,,,,,,,,,,,310,330,-350.5,,330,330,1,France,Raw,D,
Ricardo Monteiro,M,1987-04-04,110,110,M_OR_WPC,,,,,,,,,,,290,312.5,-320,,312.5,312.5,2,Portugal,Raw,D,
Naël Cetout,M,1990-12-03,108,110,M_OR_WPC,,,,,,,,,,,-300,,-320,,,,DQ,France,Raw,D,
Dominique Nussbaum,M,1971-08-14,106.5,110,M_MR_3_WPC,,,,,,,,,,,220,230,,,230,230,1,France,Raw,D,
Pablo Vila Jimenez,M,1998-05-19,110.6,125,M_JR_WPC,,,,,,,,,,,240,260,-272.5,,260,260,1,Spain,Raw,D,
Flávio Martins,M,1992-10-13,115.8,125,M_OR_WPC,,,,,,,,,,,280,292.5,300,,300,300,1,Portugal,Raw,D,
Darryl Burns,M,1979-08-24,112.6,125,M_MR_1_WPC,,,,,,,,,,,280,302.5,-320,,302.5,302.5,1,Canada,Raw,D,
Jose Jaime Carballo Rey,M,1975-11-27,116.8,125,M_MR_2_WPC,,,,,,,,,,,300,325,,,325,325,1,Spain,Raw,D,
Esther Rimmer,F,1987-06-22,50.7,52,F_OCR_WPC,130,-137.5,137.5,,137.5,62.5,67.5,-70,,67.5,130,-135,-135,,130,335,1,UK,Wraps,SBD,
Catarina Guerra,F,1987-08-24,51.1,52,F_OCR_WPC,75,-85,-85,,75,40,-45,-45,,40,102.5,107.5,-115,,107.5,222.5,2,Portugal,Wraps,SBD,
Sivia Lerias,F,1998-05-13,59.3,60,F_JCR_WPC,115,125,-135,,125,70,75,-80,,75,110,120,-130,,120,320,1,Portugal,Wraps,SBD,
Carla Caldeira,F,1997-03-21,59.3,60,F_OCR_WPC,150,170,180,190.5,180,90,-97.5,97.5,,97.5,140,150,160,,160,437.5,1,Portugal,Wraps,SBD,
Petra Hiisiö,F,1975-11-16,57.2,60,F_OCR_WPC,170,185,-192.5,,185,70,75,-80,,75,-170,-175,175,-190,175,435,2,Finland,Wraps,SBD,
Petra Hiisiö,F,1975-11-16,57.2,60,F_MCR_2_WPC,170,185,-192.5,,185,70,75,-80,,75,-170,-175,175,-190,175,435,1,Finland,Wraps,SBD,
Monica Burgos,F,1988-05-26,65.9,67.5,F_OCR_WPC,160,180,-190,,180,80,90,97.5,,97.5,160,170,-180,,170,447.5,1,Spain,Wraps,SBD,
Lucia Rodriguez,F,1992-03-28,63.9,67.5,F_OCR_WPC,-145,150,162.5,,162.5,70,75,-80,,75,130,140,-150,,140,377.5,2,Spain,Wraps,SBD,
Daniella Scozzi,F,,65.1,67.5,F_MCR_3_WPC,125,135,140,,140,72.5,77.5,80,,80,145,155,-160,,155,375,1,UK,Wraps,SBD,53
Aya Abbas,F,2001-10-15,68.8,75,F_JCR_WPC,180,-187.5,187.5,,187.5,80,92.5,-95,,92.5,145,160,165,,165,445,1,Egypt,Wraps,SBD,
Natalie O'Shea,F,1986-10-09,73.9,75,F_OCR_WPC,185,200,-205,,200,105,112.5,115,,115,190,200,-202.5,,200,515,1,UK,Wraps,SBD,
Sandrine Chabert,F,1974-07-22,74.6,75,F_OCR_WPC,165,175,180,,180,80,85,90,,90,200,208,210,,210,480,2,France,Wraps,SBD,
Aya Abbas,F,2001-10-15,68.8,75,F_OCR_WPC,180,-187.5,187.5,,187.5,80,92.5,-95,,92.5,145,160,165,,165,445,3,Egypt,Wraps,SBD,
Sarah Maganara,F,1986-12-07,74.7,75,F_OCR_WPC,95,100,-105,,100,-65,65,-67.5,,65,120,125,-130,,125,290,4,Italy,Wraps,SBD,
Kelly Morgan #2,F,1981-06-07,73.6,75,F_MCR_1_WPC,125,135,145,,145,67.5,70,72.5,,72.5,135,145,150,,150,367.5,1,UK,Wraps,SBD,
Sandrine Chabert,F,1974-07-22,74.6,75,F_MCR_2_WPC,165,175,180,,180,80,85,90,,90,200,208,210,,210,480,1,France,Wraps,SBD,
Ana Ferreira,F,1985-08-18,81.7,82.5,F_OCR_WPC,175,185,-200,,185,-95,95,105,,105,200,215,225,233,225,515,1,Portugal,Wraps,SBD,
Cecilia Quintero,F,1988-12-28,77.5,82.5,F_OCR_WPC,130,140,-155,,140,62.5,67.5,-72.5,,67.5,155,172.5,-182.5,,172.5,380,2,Brazil,Wraps,SBD,
Cloé Soudy,F,1994-09-10,95.9,90+,F_OCR_WPC,130,-140,-140,,130,55,60,-65,,60,160,175,-185,,175,365,1,Sweden,Wraps,SBD,
Sarah Wells #3,F,1983-07-03,105.8,90+,F_OCR_WPC,115,127.5,135,,135,65,-77.5,-77.5,,65,155,165,-175,,165,365,2,UK,Wraps,SBD,
Mo Proctor,F,1966-08-12,90.9,90+,F_MCR_4_WPC,115,120,-127.5,,120,72.5,-75,-75,,72.5,130,135,140,,140,332.5,1,UK,Wraps,SBD,
Nathan Bage,M,1991-12-30,67.4,67.5,M_OCR_WPC,220,-240,-240,,220,145,155,-165,,155,225,240,-245,,240,615,1,UK,Wraps,SBD,
Florian Mabibe,M,1996-07-15,66.1,67.5,M_OCR_WPC,172.5,180,-185,,180,132.5,137.5,140,,140,225,235,240,,240,560,2,France,Wraps,SBD,
Sami Vaskelainen,M,1984-05-12,75,75,M_OCR_WPC,230,240,247.5,,247.5,117.5,122.5,-125,,122.5,240,247.5,250,,250,620,1,Finland,Wraps,SBD,
Vladen Astapsev,M,1965-02-01,74.9,75,M_MCR_4_WPC,162.5,172.5,175,,175,112.5,-117.5,-117.5,,112.5,192.5,201,208,-210,208,495.5,1,Finland,Wraps,SBD,
Keenan Freer,M,1998-12-30,81.5,82.5,M_JCR_WPC,-270,270,290,,290,140,-150,150,,150,275,-295,-295,,275,715,1,UK,Wraps,SBD,
Tiago Pancas,M,2000-06-02,79.9,82.5,M_JCR_WPC,230,-245,-245,,230,142.5,-150,-150,,142.5,230,-245,-245,,230,602.5,2,Portugal,Wraps,SBD,
Mahmoud Adawi,M,1980-02-01,82.4,82.5,M_OCR_WPC,275,285,292.5,,292.5,175,-185,192.5,,192.5,250,262.5,270,,270,755,2,Egypt,Wraps,SBD,
Keenan Freer,M,1998-12-30,81.5,82.5,M_OCR_WPC,-270,270,290,,290,140,-150,150,,150,275,-295,-295,,275,715,3,UK,Wraps,SBD,
Gonzalo Llopis,M,1996-12-16,80.7,82.5,M_OCR_WPC,280,300,305,,305,150,160,-165,,160,320,-330,337.5,,337.5,802.5,1,Spain,Wraps,SBD,
Will Bennetts,M,1995-10-27,81.4,82.5,M_OCR_WPC,205,215,230,,230,130,140,-145,,140,230,250,260,,260,630,4,UK,Wraps,SBD,
James Mackie,M,2000-12-15,81.1,82.5,M_OCR_WPC,-205,-205,205,,205,-175,-175,-175,,,,,,,,,DQ,UK,Wraps,SBD,
Simão Pimenta,M,2000-10-26,89.9,90,M_JCR_WPC,235,250,255,,255,137.5,145,-147.5,,145,250,265,270,,270,670,1,Portugal,Wraps,SBD,
Chris Pugh #1,M,1993-04-16,89.5,90,M_OCR_WPC,325,351,365,,365,200,210,-215,,210,260,280,-290,,280,855,1,UK,Wraps,SBD,
Ahmed Mohamed,M,,88.4,90,M_OCR_WPC,-340,340,352.5,,352.5,180,-190,190,,190,250,280,300,,300,842.5,2,Egypt,Wraps,SBD,
Alexis Carvalho,M,1996-01-31,89.2,90,M_OCR_WPC,250,270,275,,275,175,190,-192.5,,190,280,300,310,,310,775,1,Portugal,Raw,SBD,
Daniel Mesquita,M,1990-11-05,88.1,90,M_OCR_WPC,235,-250,250,,250,155,162.5,-167.5,,162.5,310,-325,325,,325,737.5,3,Portugal,Wraps,SBD,
Ricky Moore,M,1980-02-13,89.2,90,M_MCR_1_WPC,245,-255,,,245,185,,,,185,270,,,,270,700,1,UK,Wraps,SBD,
Nuno Nobre,M,1977-09-12,89.7,90,M_MCR_1_WPC,220,240,-260,,240,160,170,-175,,170,220,240,245,,245,655,2,Portugal,Wraps,SBD,
Elliot Wuorinen,M,1975-03-13,88.6,90,M_MCR_2_WPC,242.5,-255,255,,255,137.5,147.5,-157.5,,147.5,257.5,-275,-275,,257.5,660,1,Canada,Wraps,SBD,
Valeri Astaptsev,M,1973-02-02,87.9,90,M_MCR_2_WPC,-160,-160,160,,160,95,100,105,,105,-180,190,200,,200,465,2,Finland,Wraps,SBD,
James Kirwan,M,1971-05-18,82,82.5,M_MCR_3_WPC,223,-230,-230,,223,130,137.5,-142.5,,137.5,245,250,255,-260,255,615.5,1,Ireland,Wraps,SBD,
Humberto Rocha,M,1971-09-29,89,90,M_MCR_3_WPC,200,-230,-230,,200,120,130,-140,,130,160,190,205,,205,535,1,Portugal,Wraps,SBD,
Jose Montoya,M,1965-05-01,85.9,90,M_MCR_4_WPC,230,245,-252.5,,245,122.5,127.5,132.5,,132.5,-230,230,240,,240,617.5,1,Spain,Wraps,SBD,
Beau Rogers,M,2000-07-28,96.2,100,M_JCR_WPC,225,250,260,,260,127.5,135,-140,,135,260,282.5,300,,300,695,1,UK,Wraps,SBD,
Mostafa Ábdelrahman,M,2000-07-13,99,100,M_JCR_WPC,240,260,267.5,,267.5,150,-162.5,-162.5,,150,200,220,230,,230,647.5,2,Egypt,Wraps,SBD,
Marc Grau Estruch,M,1996-10-16,93.4,100,M_OCR_WPC,-325,-350,350,,350,180,190,-200,,190,245,260,-265,,260,800,1,Spain,Wraps,SBD,
Sammy Mohamed,M,,98.3,100,M_OCR_WPC,300,315,-320,,315,160,167.5,170,,170,305,312.5,-317.5,,312.5,797.5,2,Egypt,Wraps,SBD,
Jon May,M,1991-06-08,97.9,100,M_OCR_WPC,250,275,290,,290,160,170,180,,180,270,285,300,,300,770,3,UK,Wraps,SBD,
Herman Fibranz,M,1984-04-29,98.6,100,M_OCR_WPC,237.5,-250,257.5,,257.5,175,187.5,-190,,187.5,270,-280,-280,,270,715,4,France,Wraps,SBD,
Renato Simões,M,1990-03-20,96.3,100,M_OCR_WPC,240,-250,250,,250,150,160,167.5,,167.5,235,250,-255,,250,667.5,5,Portugal,Wraps,SBD,
Mostafa Ábdelrahman,M,2000-07-13,99,100,M_OCR_WPC,240,260,267.5,,267.5,150,-162.5,-162.5,,150,200,220,230,,230,647.5,6,Egypt,Wraps,SBD,
Marc Michalau,M,1978-09-05,98.6,100,M_MCR_1_WPC,275,-295,-295,,275,150,-165,-165,,150,250,260,275,,275,700,1,France,Wraps,SBD,
Darren Walker,M,1968-06-16,96.9,100,M_MCR_3_WPC,222.5,242.5,250,,250,145,150,162.5,,162.5,230,280.5,290,,290,702.5,1,UK,Wraps,SBD,
Paul Johnson #1,M,1969-10-12,96.4,100,M_MCR_3_WPC,200,220,-232.5,,220,100,110,-115,,110,200,220,225,,225,555,2,UK,Wraps,SBD,
Peter Gunn,M,1965-10-22,97.8,100,M_MCR_4_WPC,130,142.5,147.5,,147.5,85,92.5,-95,,92.5,165,180,185,,185,425,1,UK,Wraps,SBD,
Abdel Maamo,M,2002-11-27,108.6,110,M_TCR_3_WPC,240,-252.5,252.5,,252.5,130,137.5,142.5,,142.5,225,240,250,,250,645,1,UK,Wraps,SBD,
Mahmoud El Shawarby,M,2000-03-14,109.9,110,M_JCR_WPC,270,285,295,,295,150,155,-157.5,,155,270,280,-285,,280,730,1,Egypt,Wraps,SBD,
Daniel Martinez #5,M,1975-04-04,107.2,110,M_OCR_WPC,-350,350,-380,,350,160,170,175,,175,300,310,320,,320,845,1,Spain,Wraps,SBD,
Ricardo Monteiro,M,1987-04-04,108.3,110,M_OCR_WPC,280,300,310,,310,170,180,190,,190,290,307.5,315,,315,815,2,Portugal,Wraps,SBD,
Naël Cetout,M,1990-12-03,109.1,110,M_OCR_WPC,-280,292.5,310,,310,180,-200,-200,,180,300,310,-330,,310,800,3,France,Wraps,SBD,
Samir Mechat,M,1985-03-26,104.1,110,M_OCR_WPC,-230,230,265,,265,170,185,200,,200,300,330,-350,,330,795,4,France,Wraps,SBD,
Mahmoud El Shawarby,M,2000-03-14,109.9,110,M_OCR_WPC,270,285,295,,295,150,155,-157.5,,155,270,280,-285,,280,730,6,Egypt,Wraps,SBD,
Marouane Baoufi,M,1987-05-09,109.8,110,M_OCR_WPC,250,275,-287.5,,275,170,182.5,,,182.5,270,280,-290,,280,737.5,5,France,Wraps,SBD,
Darryl Burns,M,1979-08-24,108.3,110,M_MCR_1_WPC,265,275,285,,285,132.5,137.5,-142.5,,137.5,270,285,,,285,707.5,1,Canada,Wraps,SBD,
Daniel Martinez #5,M,1975-04-04,107.2,110,M_MCR_2_WPC,-350,350,-380,,350,160,170,175,,175,300,310,320,,320,845,1,Spain,Wraps,SBD,
Ryan Silverson,M,1974-11-09,106.2,110,M_MCR_2_WPC,230,250,265,,265,180,190,-195,,190,227.5,240,-245,,240,695,2,Canada,Wraps,SBD,
Dean Dyble,M,1971-01-22,102.4,110,M_MCR_3_WPC,185,195,,,195,,,,,,,,,,,,DQ,UK,Wraps,SBD,
Tzvetam Ignatov,M,2002-02-19,117.7,125,M_TCR_3_WPC,260,280,-300,,280,150,162.5,170,,170,280,300,310,-321,310,760,1,UK,Wraps,SBD,
Youssef Al Naggdy,M,1999-09-21,111.4,125,M_JCR_WPC,260,280,-290,,280,-165,165,-167.5,,165,275,280,-300,,280,725,1,Egypt,Wraps,SBD,
Rob Warburton,M,1983-03-14,121.9,125,M_OCR_WPC,300,330,350,,350,150,160,-170,,160,290,310,322.5,,322.5,832.5,1,UK,Wraps,SBD,
Gavin Ryder,M,1992-09-16,119.1,125,M_OCR_WPC,290,315,325,,325,-180,185,195,,195,290,300,310,,310,830,2,Ireland,Wraps,SBD,
Alexandre Azevedo,M,1993-04-15,121.8,125,M_OCR_WPC,300,325,-335,,325,160,172.5,-180,,172.5,290,-305,,,290,787.5,3,Portugal,Wraps,SBD,
Youssef Al Naggdy,M,1999-09-21,111.4,125,M_OCR_WPC,260,280,-290,,280,-165,165,-167.5,,165,275,-290,-300,,275,720,4,Egypt,Wraps,SBD,
Raymond Doyle,M,1979-11-24,120.7,125,M_MCR_1_WPC,-270,-270,270,,270,175,185,190,,190,290,300,-310,,300,760,1,Ireland,Wraps,SBD,
Neil Hawkins,M,1979-10-21,122.2,125,M_MCR_1_WPC,225,245,255,,255,140,150,160,,160,260,270,280,,280,695,2,UK,Wraps,SBD,
Valter Tápia,M,1982-11-29,125.9,140,M_OCR_WPC,285,-302.5,-302.5,,285,177.5,-192.5,-192.5,,177.5,280,295,302.5,,302.5,765,1,Portugal,Wraps,SBD,
Samuel Pitchford,M,1991-05-08,127,140,M_OCR_WPC,260,275,280,,280,190,-200,200,,200,260,275,-290,,275,755,2,UK,Wraps,SBD,
Artur Torres,M,1987-02-10,131,140,M_OCR_WPC,-260,260,-275,,260,130,145,-162.5,,145,265,275,,,275,680,3,Portugal,Wraps,SBD,
David Chevron,M,1977-10-12,136.2,140,M_MCR_1_WPC,270,-290,-290,,270,160,170,-180,,170,330,350,-360,,350,790,1,France,Wraps,SBD,
Gorsel Bottcher,M,1977-02-22,134.7,140,M_MCR_1_WPC,160,-180,180,,180,-150,150,-160,,150,160,180,,,180,510,2,Germany,Wraps,SBD,
Allen Davis #1,M,1997-12-13,148.7,140+,M_JCR_WPC,-300,300,,,300,200,210,-217.5,,210,120,,,,120,630,1,UK,Wraps,SBD,
Chris Goodman,M,1983-05-07,143.5,140+,M_OCR_WPC,-300,307.5,-317.5,,307.5,205,215,-227.5,,215,300,317.5,327.5,,327.5,850,1,Canada,Wraps,SBD,
George Doneathy,M,1967-02-07,176.5,140+,M_MCR_3_WPC,-265,265,-270,,265,210,220,-227.5,,220,120,,,,120,605,1,UK,Wraps,SBD,
