Division,WeightClassKg,Place,Name,Team,BodyweightKg,Best3SquatKg,Best3BenchKg,Best3DeadliftKg,TotalKg,Equipment,Event,Sex,BirthDate
Boys,51.71,1,Jacob Guerrero,Yorktown,50.98,163.29,106.59,163.29,433.18,Single-ply,SBD,M,
Boys,51.71,2,Noah Estrada,Agua Dulce,51.71,154.22,99.79,176.9,430.91,Single-ply,SBD,M,
Boys,51.71,3,Deion Vega,Agua Dulce,50.53,131.54,92.99,161.03,385.55,Single-ply,SBD,M,
Boys,51.71,4,Ernie Cano,Kenedy,51.17,120.2,79.38,140.61,340.19,Single-ply,SBD,M,
Boys,51.71,5,Jose Chapa,Ben Bolt-Palito Blanco,49.99,120.2,61.23,136.08,317.51,Single-ply,SBD,M,
Boys,51.71,6,Sean Lamas,Premont,48.44,104.33,56.7,133.81,294.84,Single-ply,SBD,M,
Boys,51.71,7,Colbin Gutierrez,Runge,51.17,102.06,63.5,115.67,281.23,Single-ply,SBD,M,
Boys,51.71,8,Demarcus Gonzalez,Premont,45.99,102.06,47.63,120.2,269.89,Single-ply,SBD,M,
Boys,55.79,1,David Perez,Ben Bolt-Palito Blanco,55.79,170.1,108.86,174.63,453.59,Single-ply,SBD,M,
Boys,55.79,2,Lane Smith,Ozona,55.52,165.56,97.52,167.83,430.91,Single-ply,SBD,M,
Boys,55.79,3,Braden Watson,Center Point,53.8,158.76,95.25,163.29,417.3,Single-ply,SBD,M,
Boys,55.79,4,Jayden Moya,Refugio,55.61,136.08,83.91,156.49,376.48,Single-ply,SBD,M,
Boys,55.79,5,Pedro Elizondo,Ozona,55.79,145.15,61.23,140.61,347,Single-ply,SBD,M,
Boys,55.79,6,Jasi Galindo,Eldorado,55.79,127.01,86.18,131.54,344.73,Single-ply,SBD,M,
Boys,55.79,7,Juan Ramirez,Agua Dulce,54.7,113.4,61.23,142.88,317.51,Single-ply,SBD,M,
Boys,55.79,8,Hunter Sertain,Ozona,53.25,104.33,49.9,113.4,267.62,Single-ply,SBD,M,
Boys,55.79,9,Ismael Martin,Junction,55.07,102.06,45.36,108.86,256.28,Single-ply,SBD,M,
Boys,55.79,DQ,Damon Rosales,Kenedy,55.34,,,,,Single-ply,SBD,M,
Boys,55.79,DQ,Joshua Wilkerson,Junction,52.25,,,,,Single-ply,SBD,M,
Boys,55.79,DQ,Jaden Estrada,Runge,53.89,,,,,Single-ply,SBD,M,
Boys,59.87,1,Jacob Espericueta,La Villa,59.87,165.56,102.06,185.97,453.59,Single-ply,SBD,M,
Boys,59.87,2,Javier Ontiveros,Refugio,59.24,165.56,97.52,185.97,449.06,Single-ply,SBD,M,
Boys,59.87,3,Morris Brown,Kenedy,59.33,161.03,106.59,165.56,433.18,Single-ply,SBD,M,
Boys,59.87,4,Cleo Leal,Kenedy,59.78,172.37,92.99,154.22,419.57,Single-ply,SBD,M,
Boys,59.87,5,Jared Jaso,Refugio,59.87,158.76,86.18,165.56,410.5,Single-ply,SBD,M,
Boys,59.87,6,Rene Ramirez,Agua Dulce,59.6,154.22,79.38,170.1,403.7,Single-ply,SBD,M,
Boys,59.87,7,Victor Chansen,Premont,59.87,142.88,68.04,165.56,376.48,Single-ply,SBD,M,
Boys,59.87,8,Alejandro Gonzalez,Freer,58.24,131.54,88.45,151.95,371.95,Single-ply,SBD,M,
Boys,59.87,9,Ivan Moreno,Ben Bolt-Palito Blanco,59.87,142.88,102.06,124.74,369.68,Single-ply,SBD,M,
Boys,59.87,10,Tyler Williams,Center Point,59.24,147.42,83.91,136.08,367.41,Single-ply,SBD,M,
Boys,59.87,DQ,Jonathan Guerrero,Yorktown,56.7,,,,,Single-ply,SBD,M,
Boys,59.87,DQ,Tayden Grimes,Woodsboro,57.24,,,,,Single-ply,SBD,M,
Boys,67.13,1,Joe Fraga,Runge,65.95,206.38,106.59,229.06,542.04,Single-ply,SBD,M,
Boys,67.13,2,Anthony Gallegos,La Pryor,64.95,183.7,124.74,195.04,503.49,Single-ply,SBD,M,
Boys,67.13,3,Jayden Silguero,La Villa,66.86,206.38,113.4,183.7,503.49,Single-ply,SBD,M,
Boys,67.13,4,Mauricio Gallegos,Center Point,64.68,183.7,90.72,201.85,476.27,Single-ply,SBD,M,
Boys,67.13,5,Glenn Giddens,Woodsboro,66.22,185.97,88.45,181.44,455.86,Single-ply,SBD,M,
Boys,67.13,6,Daniel Pena,Kenedy,65.41,170.1,106.59,176.9,453.59,Single-ply,SBD,M,
Boys,67.13,7,Trent Jones,Runge,66.95,174.63,95.25,174.63,444.52,Single-ply,SBD,M,
Boys,67.13,8,Tyler Adams,Pettus,66.32,154.22,104.33,170.1,428.64,Single-ply,SBD,M,
Boys,67.13,9,Austin Harris,Rocksprings,66.41,145.15,108.86,147.42,401.43,Single-ply,SBD,M,
Boys,67.13,10,Jose Contreras,Eldorado,62.87,124.74,90.72,170.1,385.55,Single-ply,SBD,M,
Boys,67.13,DQ,Andrew Alaniz,Bruni,66.86,,,,,Single-ply,SBD,M,
Boys,67.13,DQ,Gavin Gutierrez,Runge,65.95,,,,,Single-ply,SBD,M,
Boys,67.13,DQ,Aj Contreras,La Villa,66.86,215.46,120.2,,,Single-ply,SBD,M,
Boys,67.13,DQ,Nico Uballe,La Pryor,65.86,,,,,Single-ply,SBD,M,
Boys,74.84,1,Valentin Garza,La Pryor,74.57,240.4,142.88,263.08,646.37,Single-ply,SBD,M,
Boys,74.84,2,Adam Dominguez,Woodsboro,70.03,210.92,102.06,208.65,521.63,Single-ply,SBD,M,
Boys,74.84,3,Ramiro Ramos,Bruni,74.84,199.58,127.01,195.04,521.63,Single-ply,SBD,M,
Boys,74.84,4,Leo Pena,Bruni,72.3,185.97,99.79,197.31,483.08,Single-ply,SBD,M,
Boys,74.84,5,Matthew DeLaGarza,Ozona,73.84,188.24,113.4,181.44,483.08,Single-ply,SBD,M,
Boys,74.84,6,Luis Uballe,La Pryor,68.22,179.17,106.59,185.97,471.74,Single-ply,SBD,M,
Boys,74.84,7,Korbin Covarrubiaz,Eldorado,73.62,165.56,102.06,204.12,471.74,Single-ply,SBD,M,
Boys,74.84,8,Aizik Soto,Eldorado,74.48,149.69,90.72,204.12,444.52,Single-ply,SBD,M,
Boys,74.84,9,Eddie Rios,Ozona,72.3,176.9,99.79,163.29,439.98,Single-ply,SBD,M,
Boys,74.84,10,Casey Vincent,Center Point,72.21,185.97,90.72,156.49,433.18,Single-ply,SBD,M,
Boys,74.84,DQ,Caleb Barrientez,Kenedy,72.48,188.24,,,,Single-ply,SBD,M,
Boys,74.84,DQ,Larry Telles,Junction,73.66,183.7,,,,Single-ply,SBD,M,
Boys,82.1,1,Arnold Navarro,Ben Bolt-Palito Blanco,81.37,229.06,133.81,226.8,589.67,Single-ply,SBD,M,
Boys,82.1,2,Nemo Jacobo,Agua Dulce,80.29,226.8,117.93,213.19,557.92,Single-ply,SBD,M,
Boys,82.1,3,Donald Mann,Agua Dulce,80.47,215.46,142.88,192.78,551.11,Single-ply,SBD,M,
Boys,82.1,4,Arturo Gonzalez,La Pryor,81.1,199.58,124.74,206.38,530.7,Single-ply,SBD,M,
Boys,82.1,5,Tap Shanklin,Rocksprings,76.02,213.19,111.13,204.12,528.44,Single-ply,SBD,M,
Boys,82.1,6,Roger Gonzalez,Woodsboro,79.74,188.24,99.79,208.65,496.68,Single-ply,SBD,M,
Boys,82.1,7,Eddie Flemma,Center Point,79.02,183.7,104.33,172.37,460.4,Single-ply,SBD,M,
Boys,82.1,8,Damien Herrera,Yorktown,82.1,176.9,81.65,172.37,430.91,Single-ply,SBD,M,
Boys,82.1,NS,Carlos Vinton,Agua Dulce,,,,,,Single-ply,SBD,M,
Boys,82.1,NS,Calvin Lopez,Kenedy,,,,,,Single-ply,SBD,M,
Boys,82.1,DQ,Carlos Cantu,Ozona,77.66,,,,,Single-ply,SBD,M,
Boys,82.1,DQ,Garrett Porter,Eldorado,80.74,,,,,Single-ply,SBD,M,
Boys,89.81,1,Jerry Reyes,La Villa,88.99,263.08,172.37,199.58,635.03,Single-ply,SBD,M,
Boys,89.81,2,Dylan Farias,Kenedy,87,244.94,140.61,231.33,616.89,Single-ply,SBD,M,
Boys,89.81,3,Isaac Cervantes,Center Point,87.45,244.94,115.67,229.06,589.67,Single-ply,SBD,M,
Boys,89.81,4,Ever Reyes,La Villa,88.81,217.72,142.88,215.46,576.06,Single-ply,SBD,M,
Boys,89.81,5,Kaleb Garza,Freer,88.9,215.46,122.47,208.65,546.58,Single-ply,SBD,M,
Boys,89.81,6,Colton Wiginton,Woodsboro,84.46,208.65,102.06,219.99,530.7,Single-ply,SBD,M,
Boys,89.81,7,Saul Ramos,La Pryor,86.18,188.24,122.47,179.17,489.88,Single-ply,SBD,M,
Boys,89.81,8,Jaysen Santellano,Eldorado,84.64,156.49,113.4,188.24,458.13,Single-ply,SBD,M,
Boys,89.81,9,Eric Dehoyos,Ozona,87.54,176.9,102.06,149.69,428.64,Single-ply,SBD,M,
Boys,89.81,NS,Beau Hernandez,Rocksprings,,,,,,Single-ply,SBD,M,
Boys,89.81,NS,Ethan Hyde,Rocksprings,,,,,,Single-ply,SBD,M,
Boys,89.81,DQ,Sabastian Reyna,Runge,83.01,165.56,,,,Single-ply,SBD,M,
Boys,99.79,1,Fernando Vargas,Kenedy,95.62,258.55,142.88,238.14,639.57,Single-ply,SBD,M,
Boys,99.79,2,Cameron Davis,Bloomington,97.34,217.72,147.42,231.33,596.47,Single-ply,SBD,M,
Boys,99.79,3,Kyle Sanders,Rocksprings,92.71,240.4,142.88,201.85,585.13,Single-ply,SBD,M,
Boys,99.79,4,Owen Espinoza,Kenedy,96.71,213.19,154.22,215.46,582.87,Single-ply,SBD,M,
Boys,99.79,5,Michael Rocha,Refugio,99.7,219.99,124.74,226.8,571.53,Single-ply,SBD,M,
Boys,99.79,6,Gabe Ceniceros,Center Point,97.25,210.92,106.59,161.03,478.54,Single-ply,SBD,M,
Boys,99.79,7,Brennon Freeman,Yorktown,91.17,170.1,104.33,170.1,444.52,Single-ply,SBD,M,
Boys,99.79,8,Marco Ponce,Junction,90.63,158.76,92.99,181.44,433.18,Single-ply,SBD,M,
Boys,99.79,NS,Zach Luna,Eldorado,,,,,,Single-ply,SBD,M,
Boys,99.79,DQ,Jared Hale,La Pryor,92.17,,,,,Single-ply,SBD,M,
Boys,99.79,DQ,Michael Havranek,Bloomington,97.34,,,,,Single-ply,SBD,M,
Boys,99.79,DQ,Roberto Rivas,Rocksprings,97.61,251.74,102.06,,,Single-ply,SBD,M,
Boys,109.77,1,Ivan Rangel,Agua Dulce,108.23,260.82,158.76,238.14,657.71,Single-ply,SBD,M,
Boys,109.77,2,Jonaven Villarreal,Bruni,107.86,244.94,183.7,215.46,644.1,Single-ply,SBD,M,
Boys,109.77,3,Ryland Reyna,Kenedy,108.77,226.8,174.63,242.67,644.1,Single-ply,SBD,M,
Boys,109.77,4,Vinny Pina,Eldorado,105.14,226.8,138.35,242.67,607.81,Single-ply,SBD,M,
Boys,109.77,5,Ethan Pompa,Yorktown,103.15,204.12,117.93,204.12,526.17,Single-ply,SBD,M,
Boys,109.77,6,Braxton Elias,Eldorado,102.69,201.85,113.4,199.58,514.83,Single-ply,SBD,M,
Boys,109.77,7,Robert Barrera,Ozona,100.24,174.63,122.47,188.24,485.34,Single-ply,SBD,M,
Boys,109.77,8,Seth Parker,Eldorado,100.52,176.9,97.52,188.24,462.66,Single-ply,SBD,M,
Boys,109.77,NS,Donnie Mireles,Freer,,,,,,Single-ply,SBD,M,
Boys,109.77,DQ,Cesar Avila,Junction,109.5,,,,,Single-ply,SBD,M,
Boys,109.77,DQ,Leo Escamilla,Kenedy,107.14,,,,,Single-ply,SBD,M,
Boys,109.77,DQ,Jake Laque,Center Point,102.87,247.21,,,,Single-ply,SBD,M,
Boys,124.74,1,Kirkland John Michael,Rocksprings,111.04,267.62,181.44,263.08,712.14,Single-ply,SBD,M,
Boys,124.74,2,Joseph Luna,Kenedy,115.12,242.67,181.44,265.35,689.46,Single-ply,SBD,M,
Boys,124.74,3,Victor Espinoza,Agua Dulce,121.47,249.48,158.76,235.87,644.1,Single-ply,SBD,M,
Boys,124.74,4,Adolfo Flores,La Pryor,120.84,249.48,151.95,226.8,628.23,Single-ply,SBD,M,
Boys,124.74,5,Austin Kotsch,Eldorado,121.47,170.1,145.15,208.65,523.9,Single-ply,SBD,M,
Boys,124.74,6,Alejandro Delgado,Agua Dulce,112.67,206.38,124.74,185.97,517.1,Single-ply,SBD,M,
Boys,124.74,7,Jacob Ramos,Ben Bolt-Palito Blanco,118.48,192.78,113.4,206.38,512.56,Single-ply,SBD,M,
Boys,124.74,8,Miguel Lopez,Bruni,119.57,208.65,104.33,192.78,505.76,Single-ply,SBD,M,
Boys,124.74,9,Christopher Goodman,Ben Bolt-Palito Blanco,113.13,179.17,129.27,172.37,480.81,Single-ply,SBD,M,
Boys,124.74,10,Aaron Willis,Junction,111.22,183.7,104.33,136.08,424.11,Single-ply,SBD,M,
Boys,124.74,11,Connor Ruppert,Yorktown,110.22,163.29,95.25,156.49,415.04,Single-ply,SBD,M,
Boys,124.74,DQ,Coleman Anderson,Three Rivers,123.38,,,,,Single-ply,SBD,M,
Boys,139.71,1,Jaime Elissetche,La Villa,125.01,308.44,167.83,240.4,716.68,Single-ply,SBD,M,
Boys,139.71,2,Ernesto Nava,Eldorado,129.18,278.96,167.83,222.26,669.05,Single-ply,SBD,M,
Boys,139.71,3,Robert De Leon,Kenedy,125.1,231.33,199.58,219.99,650.91,Single-ply,SBD,M,
Boys,139.71,4,Hunter Hall,Yorktown,138.71,229.06,136.08,197.31,562.45,Single-ply,SBD,M,
Boys,139.71,5,Javier Perez,Freer,126.1,238.14,108.86,185.97,532.97,Single-ply,SBD,M,
Boys,139.71,6,Jacob Ramos,Agua Dulce,127.73,226.8,124.74,176.9,528.44,Single-ply,SBD,M,
Boys,139.71,DQ,Ezra Aranda,La Pryor,132.9,,,,,Single-ply,SBD,M,
Boys,139.71,DQ,Frank Wilson,Kenedy,125.37,,,,,Single-ply,SBD,M,
Boys,139.71,DQ,Jadon Dobbins,Rocksprings,129.18,188.24,,,,Single-ply,SBD,M,
Boys,139.71+,1,Keano Perez,Ozona,150.23,303.91,158.76,256.28,718.94,Single-ply,SBD,M,
Boys,139.71+,2,Rafael Benavides,Junction,147.78,249.48,158.76,215.46,623.69,Single-ply,SBD,M,
Boys,139.71+,3,Esteban Chapa,Bruni,142.52,249.48,140.61,201.85,591.94,Single-ply,SBD,M,
Boys,139.71+,4,Riley Herrera,Kenedy,140.16,213.19,142.88,199.58,555.65,Single-ply,SBD,M,
Boys,139.71+,5,Izak Gonzalez,Woodsboro,143.88,165.56,115.67,192.78,474,Single-ply,SBD,M,
Boys,139.71+,6,Dalton Romo,Three Rivers,179.62,111.13,86.18,158.76,356.07,Single-ply,SBD,M,
Boys,139.71+,DQ,Ralph Sinfuentes,Rocksprings,175.9,,,,,Single-ply,SBD,M,
