Division,WeightClassKg,Place,Name,Team,BodyweightKg,Best3SquatKg,Best3BenchKg,Best3DeadliftKg,TotalKg,Equipment,Event,Sex,BirthDate
Boys,51.71,1,Jacob Guerrero,Yorktown,51.71,142.88,88.45,147.42,378.75,Single-ply,SBD,M,
Boys,59.87,1,Justin Edison,Goliad,59.87,149.69,92.99,147.42,390.09,Single-ply,SBD,M,
Boys,59.87,2,Hector Garcia #2,Floresville,59.6,131.54,88.45,129.27,349.27,Single-ply,SBD,M,
Boys,59.87,3,Harley Anderson,Floresville,58.88,104.33,79.38,136.08,319.78,Single-ply,SBD,M,
Boys,59.87,4,Connor Felux,Floresville,58.88,113.4,83.91,120.2,317.51,Single-ply,SBD,M,
Boys,59.87,5,Jonathan Guerrero,Yorktown,58.79,111.13,77.11,113.4,301.64,Single-ply,SBD,M,
Boys,67.13,1,Adrian Valdez,Goliad,65.77,192.78,117.93,201.85,512.56,Single-ply,SBD,M,
Boys,67.13,2,Luis Stark,Floresville,63.68,142.88,92.99,142.88,378.75,Single-ply,SBD,M,
Boys,67.13,3,Alex Benavides,Vanderbilt Industrial,62.6,138.35,70.31,151.95,360.61,Single-ply,SBD,M,
Boys,67.13,4,Jo Jo Martinez,Goliad,64.86,140.61,63.5,136.08,340.19,Single-ply,SBD,M,
Boys,74.84,1,Trevian McGilbra,Goliad,72.57,154.22,102.06,170.1,426.38,Single-ply,SBD,M,
Boys,74.84,2,Alexis Barrera,Goliad,73.94,161.03,79.38,163.29,403.7,Single-ply,SBD,M,
Boys,74.84,3,Karson Van Pelt,Vanderbilt Industrial,70.03,138.35,79.38,138.35,356.07,Single-ply,SBD,M,
Boys,74.84,4,Logen Balcar,Floresville,72.57,127.01,92.99,124.74,344.73,Single-ply,SBD,M,
Boys,82.1,1,Trevor Bennett,Goliad,79.83,210.92,106.59,183.7,501.22,Single-ply,SBD,M,
Boys,82.1,2,Alberto Vasquez,Floresville,82.1,188.24,117.93,181.44,487.61,Single-ply,SBD,M,
Boys,82.1,3,Lee Wade,Floresville,79.83,149.69,95.25,163.29,408.23,Single-ply,SBD,M,
Boys,82.1,4,Brian Freeman,Yorktown,82.1,142.88,83.91,156.49,383.29,Single-ply,SBD,M,
Boys,82.1,5,Damien Herrera,Yorktown,80.83,136.08,74.84,156.49,367.41,Single-ply,SBD,M,
Boys,82.1,DQ,Joshua Turner,Vanderbilt Industrial,76.66,,,,,Single-ply,SBD,M,
Boys,89.81,1,Jesse Cornish,Vanderbilt Industrial,85.46,215.46,113.4,176.9,505.76,Single-ply,SBD,M,
Boys,89.81,2,Rian Herrera,Goliad,88.9,213.19,99.79,176.9,489.88,Single-ply,SBD,M,
Boys,89.81,3,Justin Guerrero,Yorktown,89.54,122.47,70.31,115.67,308.44,Single-ply,SBD,M,
Boys,99.79,1,Kyle Schroeder,Vanderbilt Industrial,99.79,154.22,97.52,140.61,392.36,Single-ply,SBD,M,
Boys,99.79,2,Brennon Freeman,Yorktown,93.71,145.15,95.25,142.88,383.29,Single-ply,SBD,M,
Boys,109.77,1,Jace Kitchens,Vanderbilt Industrial,109.77,213.19,113.4,172.37,498.95,Single-ply,SBD,M,
Boys,109.77,2,Ezequiel Huitzil,Vanderbilt Industrial,102.6,176.9,86.18,156.49,419.57,Single-ply,SBD,M,
Boys,109.77,3,Timothy Barrientes,Floresville,108.86,122.47,68.04,136.08,326.59,Single-ply,SBD,M,
Boys,124.74,1,Ethan Pompa,Yorktown,110.68,192.78,113.4,192.78,498.95,Single-ply,SBD,M,
Boys,124.74,2,Kohl Powell,Vanderbilt Industrial,110.04,161.03,102.06,190.51,453.59,Single-ply,SBD,M,
Boys,124.74,3,Connor Ruppert,Yorktown,110.04,136.08,95.25,149.69,381.02,Single-ply,SBD,M,
Boys,139.71,1,Hunter Hall,Yorktown,138.89,204.12,111.13,190.51,505.76,Single-ply,SBD,M,
Boys,139.71+,1,Exodus Acevedo,Floresville,140.16,158.76,124.74,176.9,460.4,Single-ply,SBD,M,
