Division,WeightClassKg,Place,Name,Team,BodyweightKg,Best3SquatKg,Best3BenchKg,Best3DeadliftKg,TotalKg,Equipment,Event,Sex,BirthDate
Boys,55.79,1,Jace Easley,College Station,55.25,136.08,65.77,120.2,322.05,Single-ply,SBD,M,
Boys,59.87,1,Gage Gonzales,Robinson,59.65,129.27,92.99,142.88,365.14,Single-ply,SBD,M,
Boys,59.87,2,Gavin Martinez,College Station A&M Cons,59.65,136.08,81.65,127.01,344.73,Single-ply,SBD,M,
Boys,59.87,3,Daniel Ramirez,College Station,59.51,124.74,54.43,120.2,299.37,Single-ply,SBD,M,
Boys,59.87,4,Isaac Robledo,Robinson,58.01,83.91,61.23,115.67,260.82,Single-ply,SBD,M,
Boys,67.13,1,Simon Larson,College Station,65.09,172.37,88.45,147.42,408.23,Single-ply,SBD,M,
Boys,67.13,2,Sir Law Rodriguez,Robinson,62.96,158.76,72.57,170.1,401.43,Single-ply,SBD,M,
Boys,67.13,3,Caden Grady,Robinson,62.14,133.81,88.45,149.69,371.95,Single-ply,SBD,M,
Boys,67.13,4,Chris Guerrero,Robinson,65.59,136.08,90.72,142.88,369.68,Single-ply,SBD,M,
Boys,67.13,5,Anthony Coleman,Robinson,63.91,106.59,83.91,120.2,310.71,Single-ply,SBD,M,
Boys,74.84,1,Tony Hamilton,College Station,74.3,163.29,90.72,181.44,435.45,Single-ply,SBD,M,
Boys,74.84,2,Cody Martinez,Robinson,71.26,147.42,117.93,156.49,421.84,Single-ply,SBD,M,
Boys,74.84,3,Brodee Harkins,College Station A&M Cons,71.67,117.93,77.11,136.08,331.12,Single-ply,SBD,M,
Boys,74.84,4,Caleb Pittman,College Station A&M Cons,72.62,117.93,77.11,136.08,331.12,Single-ply,SBD,M,
Boys,74.84,5,Reith Brucker,Robinson,72.62,120.2,74.84,129.27,324.32,Single-ply,SBD,M,
Boys,74.84,6,Luis Enriquez,Robinson,73.57,106.59,65.77,122.47,294.84,Single-ply,SBD,M,
Boys,82.1,1,Matthew Martin,College Station A&M Cons,79.92,219.99,145.15,204.12,569.26,Single-ply,SBD,M,
Boys,82.1,2,Bryson Harmon,Robinson,82.01,197.31,133.81,185.97,517.1,Single-ply,SBD,M,
Boys,82.1,3,Emmanuel Carter,College Station A&M Cons,80.51,145.15,102.06,183.7,430.91,Single-ply,SBD,M,
Boys,82.1,4,Drew Olivares,Robinson,81.96,158.76,97.52,151.95,408.23,Single-ply,SBD,M,
Boys,82.1,5,Thaddaios Hennessey,College Station A&M Cons,80.83,145.15,86.18,136.08,367.41,Single-ply,SBD,M,
Boys,82.1,DQ,Nazir Adams,College Station A&M Cons,77.56,,,,,Single-ply,SBD,M,
Boys,89.81,1,David May,College Station A&M Cons,88.54,283.5,145.15,254.01,682.66,Single-ply,SBD,M,
Boys,89.81,2,Dylan Olivares,Robinson,89.81,204.12,136.08,188.24,528.44,Single-ply,SBD,M,
Boys,89.81,3,Matthew Bolden,College Station A&M Cons,89.04,210.92,124.74,181.44,517.1,Single-ply,SBD,M,
Boys,89.81,4,Malik Cotton,College Station,88.63,197.31,124.74,183.7,505.76,Single-ply,SBD,M,
Boys,89.81,5,Nathan Sanchez,College Station A&M Cons,85.46,190.51,104.33,192.78,487.61,Single-ply,SBD,M,
Boys,89.81,6,Ashton Jasperson,College Station A&M Cons,83.01,183.7,102.06,195.04,480.81,Single-ply,SBD,M,
Boys,89.81,7,Darius Turner,College Station A&M Cons,85.77,185.97,111.13,172.37,469.47,Single-ply,SBD,M,
Boys,89.81,8,Quinton Carson,College Station A&M Cons,84.01,190.51,90.72,170.1,451.32,Single-ply,SBD,M,
Boys,89.81,9,Bechkam McGuire,College Station A&M Cons,88,158.76,90.72,172.37,421.84,Single-ply,SBD,M,
Boys,89.81,10,Waylan Trejo,College Station A&M Cons,83.73,161.03,95.25,154.22,410.5,Single-ply,SBD,M,
Boys,89.81,11,Carlos Gaytan,College Station A&M Cons,83.51,140.61,81.65,127.01,349.27,Single-ply,SBD,M,
Boys,89.81,DQ,Cinco Deegear,College Station,89.63,,,,,Single-ply,SBD,M,
Boys,99.79,1,Klayton Sheffield,College Station A&M Cons,99.34,238.14,158.76,219.99,616.89,Single-ply,SBD,M,
Boys,99.79,2,Jeremy Lerma,College Station,93.26,204.12,113.4,181.44,498.95,Single-ply,SBD,M,
Boys,99.79,3,Michael Macias,College Station A&M Cons,98.93,190.51,106.59,190.51,487.61,Single-ply,SBD,M,
Boys,99.79,4,Hudson Schlinke,College Station A&M Cons,99.65,170.1,102.06,163.29,435.45,Single-ply,SBD,M,
Boys,99.79,5,Jesse Landrum,Robinson,96.39,161.03,102.06,158.76,421.84,Single-ply,SBD,M,
Boys,99.79,6,Miguel Garcia,College Station,94.62,158.76,99.79,142.88,401.43,Single-ply,SBD,M,
Boys,99.79,7,Chase Barnett,College Station,95.35,151.95,95.25,136.08,383.29,Single-ply,SBD,M,
Boys,99.79,8,Ignacio Zaragoza,College Station A&M Cons,92.12,154.22,77.11,142.88,374.21,Single-ply,SBD,M,
Boys,99.79,DQ,Nathaniel Naumann,College Station A&M Cons,95.8,,,,,Single-ply,SBD,M,
Boys,109.77,1,James Morgan,College Station A&M Cons,103.01,199.58,122.47,172.37,494.42,Single-ply,SBD,M,
Boys,109.77,2,Roman Cobb,Robinson,107.05,151.95,92.99,147.42,392.36,Single-ply,SBD,M,
Boys,124.74,1,Jordan Lynch,College Station A&M Cons,111.18,172.37,104.33,151.95,428.64,Single-ply,SBD,M,
Boys,124.74,2,Justin Ramirez,College Station A&M Cons,122.11,122.47,81.65,136.08,340.19,Single-ply,SBD,M,
Boys,139.71,1,Joseph Lightfoot,College Station A&M Cons,128.82,258.55,158.76,226.8,644.1,Single-ply,SBD,M,
Boys,139.71,2,Miguel Ramirez,Robinson,134.67,90.72,90.72,185.97,367.41,Single-ply,SBD,M,
Boys,139.71+,1,Cody Pierson,College Station A&M Cons,140.7,188.24,111.13,199.58,498.95,Single-ply,SBD,M,
