Division,WeightClassKg,Place,Name,Team,BodyweightKg,Best3SquatKg,Best3BenchKg,Best3DeadliftKg,TotalKg,Equipment,Event,Sex,BirthDate
Boys,51.71,1,Carlos Bolivar,Cameron Yoe,46.54,133.81,74.84,142.88,351.53,Single-ply,SBD,M,
Boys,51.71,2,David Hernandez,Smithville,50.35,113.4,43.09,99.79,256.28,Single-ply,SBD,M,
Boys,51.71,3,Anthony Castro,Gonzales,49.8,83.91,47.63,97.52,229.06,Single-ply,SBD,M,
Boys,51.71,4,Austin Barnum,Elgin,46.54,81.65,38.56,102.06,222.26,Single-ply,SBD,M,
Boys,55.79,1,Ty Darnell,Giddings,55.79,95.25,52.16,102.06,249.48,Single-ply,SBD,M,
Boys,55.79,2,Andrew Cortez,Taylor,54.61,72.57,49.9,115.67,238.14,Single-ply,SBD,M,
Boys,55.79,3,Hardy Hay,Weimar,53.07,83.91,47.63,102.06,233.6,Single-ply,SBD,M,
Boys,55.79,4,Matthew Pachicano,Taylor,54.25,74.84,49.9,88.45,213.19,Single-ply,SBD,M,
Boys,59.87,1,Dylan Deutsch,Bastrop Cedar Creek,56.52,122.47,88.45,136.08,347,Single-ply,SBD,M,
Boys,59.87,2,Chris Wehr,Smithville,58.97,127.01,83.91,113.4,324.32,Single-ply,SBD,M,
Boys,59.87,3,Christian Osario,Smithville,59.78,124.74,61.23,129.27,315.25,Single-ply,SBD,M,
Boys,67.13,1,Jessiah Barr,Gonzales,67.13,165.56,104.33,170.1,439.98,Single-ply,SBD,M,
Boys,67.13,2,Dylan Aiken,Cameron Yoe,65.14,170.1,92.99,158.76,421.84,Single-ply,SBD,M,
Boys,67.13,3,Ivan Granados,Caldwell,62.78,147.42,79.38,156.49,383.29,Single-ply,SBD,M,
Boys,67.13,4,Jeremiah Harvey,Elgin,64.5,138.35,86.18,156.49,381.02,Single-ply,SBD,M,
Boys,67.13,5,DeVontae Jackson,Cameron Yoe,65.05,145.15,74.84,142.88,362.87,Single-ply,SBD,M,
Boys,67.13,6,Dakota Ford,Weimar,62.23,124.74,79.38,151.95,356.07,Single-ply,SBD,M,
Boys,67.13,7,Devon Johnson,La Grange,64.68,142.88,102.06,106.59,351.53,Single-ply,SBD,M,
Boys,67.13,8,Omar Palacios,Elgin,65.05,120.2,86.18,142.88,349.27,Single-ply,SBD,M,
Boys,67.13,9,Kaleb Corona,Smithville,62.32,129.27,79.38,120.2,328.85,Single-ply,SBD,M,
Boys,67.13,10,Ethan Stech,Weimar,65.41,102.06,83.91,136.08,322.05,Single-ply,SBD,M,
Boys,67.13,11,Hayden Hull,Gonzales,65.23,102.06,68.04,102.06,272.16,Single-ply,SBD,M,
Boys,67.13,DQ,Josh Gil,Elgin,65.59,127.01,,,,Single-ply,SBD,M,
Boys,67.13,DQ,Duncan Hamblen,Bastrop Cedar Creek,60.42,,70.31,,,Single-ply,SBD,M,
Boys,67.13,DQ,Ky Sanford,Taylor,65.95,111.13,,113.4,,Single-ply,SBD,M,
Boys,67.13,DQ,Jackson Jaegar,Giddings,67.13,,,,,Single-ply,SBD,M,
Boys,74.84,1,Fabian Salomon,Cameron Yoe,73.39,226.8,113.4,204.12,544.31,Single-ply,SBD,M,
Boys,74.84,2,Cesar Matamoros,Gonzales,74.03,199.58,113.4,199.58,512.56,Single-ply,SBD,M,
Boys,74.84,3,Diego Salinas,Bastrop Cedar Creek,72.85,181.44,102.06,181.44,464.93,Single-ply,SBD,M,
Boys,74.84,4,Waylon Schimcek,Weimar,73.66,142.88,102.06,165.56,410.5,Single-ply,SBD,M,
Boys,74.84,5,Kaden Deleon,Gonzales,72.12,138.35,111.13,156.49,405.97,Single-ply,SBD,M,
Boys,74.84,6,Jacob Marshall,Giddings,74.84,156.49,97.52,147.42,401.43,Single-ply,SBD,M,
Boys,74.84,7,Chance Postell,Elgin,73.84,115.67,99.79,170.1,385.55,Single-ply,SBD,M,
Boys,74.84,8,Miguel Ramos,Giddings,72.12,145.15,90.72,142.88,378.75,Single-ply,SBD,M,
Boys,74.84,9,Riley Hashaw,Smithville,70.13,117.93,70.31,113.4,301.64,Single-ply,SBD,M,
Boys,74.84,10,Samuel Isaac,Smithville,70.13,90.72,90.72,113.4,294.84,Single-ply,SBD,M,
Boys,74.84,DQ,Adrian Sepulveda,Smithville,73.94,,106.59,136.08,,Single-ply,SBD,M,
Boys,74.84,DQ,Cohn Odell,Taylor,68.49,,,90.72,,Single-ply,SBD,M,
Boys,82.1,1,Hector Granados,Giddings,82.1,235.87,136.08,213.19,585.13,Single-ply,SBD,M,
Boys,82.1,2,Melanio Perez,Elgin,76.38,167.83,102.06,183.7,453.59,Single-ply,SBD,M,
Boys,82.1,3,Damian Labron,Giddings,79.56,170.1,104.33,161.03,435.45,Single-ply,SBD,M,
Boys,82.1,4,Wyatt Wiedmann,Giddings,81.83,142.88,104.33,158.76,405.97,Single-ply,SBD,M,
Boys,82.1,5,Anthony Sierra,Weimar,78.65,142.88,70.31,190.51,403.7,Single-ply,SBD,M,
Boys,82.1,6,Cameron Hardy,Elgin,79.83,124.74,92.99,149.69,367.41,Single-ply,SBD,M,
Boys,82.1,7,Stephen Valerga,Taylor,79.02,113.4,65.77,127.01,306.17,Single-ply,SBD,M,
Boys,82.1,8,Nathen Basche,Taylor,75.57,102.06,70.31,129.27,301.64,Single-ply,SBD,M,
Boys,82.1,DQ,Emanuel Zamora,Bastrop Cedar Creek,80.83,,111.13,174.63,,Single-ply,SBD,M,
Boys,82.1,DQ,Dustin Armstrong,Smithville,82.1,,,,,Single-ply,SBD,M,
Boys,82.1,DQ,Austin Stech,Weimar,78.74,154.22,102.06,,,Single-ply,SBD,M,
Boys,89.81,1,Jaydon Sawyer,Elgin,89.09,151.95,99.79,197.31,449.06,Single-ply,SBD,M,
Boys,89.81,2,Blake Wright,Gonzales,85,170.1,102.06,158.76,430.91,Single-ply,SBD,M,
Boys,89.81,3,Justin Balcar,Caldwell,84.91,156.49,108.86,158.76,424.11,Single-ply,SBD,M,
Boys,89.81,4,Rafael Rodriguez,Gonzales,89.54,165.56,90.72,165.56,421.84,Single-ply,SBD,M,
Boys,89.81,5,Landon Little,La Grange,82.92,151.95,104.33,158.76,415.04,Single-ply,SBD,M,
Boys,89.81,DQ,Buck Bujnoch,Weimar,88.9,154.22,,,,Single-ply,SBD,M,
Boys,89.81,DQ,Conor Burleson,Smithville,88.9,,61.23,124.74,,Single-ply,SBD,M,
Boys,89.81,DQ,Richard Valdez,Smithville,89.81,,,,,Single-ply,SBD,M,
Boys,89.81,DQ,Cullen Dees,Giddings,85.91,,,,,Single-ply,SBD,M,
Boys,99.79,1,Abdias Castillo,Elgin,95.07,249.48,167.83,251.74,669.05,Single-ply,SBD,M,
Boys,99.79,2,Layne Thiele,Gonzales,99.52,199.58,124.74,219.99,544.31,Single-ply,SBD,M,
Boys,99.79,3,Caden Stockdale,Smithville,93.26,183.7,120.2,208.65,512.56,Single-ply,SBD,M,
Boys,99.79,4,Garrett Harni,La Grange,99.34,161.03,97.52,165.56,424.11,Single-ply,SBD,M,
Boys,99.79,5,Hayden Lopez,Gonzales,98.07,183.7,92.99,142.88,419.57,Single-ply,SBD,M,
Boys,99.79,6,Jim Jackson,Caldwell,95.89,156.49,102.06,147.42,405.97,Single-ply,SBD,M,
Boys,99.79,DQ,Andre Solis,Taylor,99.79,,,,,Single-ply,SBD,M,
Boys,109.77,1,Esau Ortiz,Taylor,101.51,242.67,170.1,192.78,605.55,Single-ply,SBD,M,
Boys,109.77,2,Hayden Meng,La Grange,104.78,215.46,113.4,226.8,555.65,Single-ply,SBD,M,
Boys,109.77,3,Garfield England,Cameron Yoe,106.5,210.92,133.81,183.7,528.44,Single-ply,SBD,M,
Boys,109.77,4,Kevin Love,Elgin,103.69,183.7,138.35,183.7,505.76,Single-ply,SBD,M,
Boys,109.77,5,Jose Galan,Giddings,101.51,165.56,111.13,188.24,464.93,Single-ply,SBD,M,
Boys,109.77,6,Anthony Weitzel,La Grange,106.96,174.63,102.06,172.37,449.06,Single-ply,SBD,M,
Boys,109.77,7,Jaycob Raz,Giddings,108.95,179.17,97.52,170.1,446.79,Single-ply,SBD,M,
Boys,109.77,8,Eric Cammacho,Taylor,106.59,145.15,81.65,161.03,387.82,Single-ply,SBD,M,
Boys,109.77,9,Isaiah Sanchez,Taylor,100.79,131.54,79.38,136.08,347,Single-ply,SBD,M,
Boys,109.77,10,Hunter Hux,Cameron Yoe,109.77,210.92,133.81,,344.73,Single-ply,SB,M,
Boys,109.77,DQ,Josh Mitschke,Giddings,102.69,219.99,,183.7,,Single-ply,SBD,M,
Boys,109.77,DQ,Hector Arredondo-Obeso,Bastrop Cedar Creek,109.32,204.12,,197.31,,Single-ply,SBD,M,
Boys,109.77,DQ,Michael Cernuch,Smithville,109.04,,61.23,102.06,,Single-ply,SBD,M,
Boys,109.77,DQ,Adrian Marquez,Giddings,109.77,,,,,Single-ply,SBD,M,
Boys,109.77,DQ,Emanuel Gayton,Weimar,109.77,,,,,Single-ply,SBD,M,
Boys,124.74,1,Jaden Taylor,Taylor,115.03,215.46,172.37,235.87,623.69,Single-ply,SBD,M,
Boys,124.74,2,Hayden Splawn,La Grange,112.67,170.1,133.81,188.24,492.15,Single-ply,SBD,M,
Boys,124.74,3,Michael Lara,Giddings,115.03,188.24,124.74,176.9,489.88,Single-ply,SBD,M,
Boys,124.74,4,Cooper Imhoff,La Grange,112.49,174.63,108.86,149.69,433.18,Single-ply,SBD,M,
Boys,124.74,5,Hunter Gibson,Elgin,121.47,161.03,102.06,156.49,419.57,Single-ply,SBD,M,
Boys,124.74,6,Blaine Mueller,Elgin,112.94,142.88,83.91,165.56,392.36,Single-ply,SBD,M,
Boys,124.74,7,Landon Barnes,Caldwell,111.13,147.42,97.52,124.74,369.68,Single-ply,SBD,M,
Boys,124.74,8,Colby Arney,Cameron Yoe,124.74,142.88,,,142.88,Single-ply,S,M,
Boys,124.74,DQ,Alexander Handy,Bastrop Cedar Creek,124.1,263.08,,235.87,,Single-ply,SBD,M,
Boys,124.74,DQ,Landon Holub,Gonzales,111.86,170.1,122.47,,,Single-ply,SBD,M,
Boys,139.71,1,Jusiah Sampleton,Giddings,139.25,319.78,206.38,249.48,775.64,Single-ply,SBD,M,
Boys,139.71,2,Omar Borjon,Gonzales,129.36,165.56,111.13,131.54,408.23,Single-ply,SBD,M,
Boys,,NS,Victor Arredondo-Obeso,Bastrop Cedar Creek,,,,,,Single-ply,SBD,M,
Boys,,NS,Wyatt Pardy,Bastrop Cedar Creek,,,,,,Single-ply,SBD,M,
Boys,,NS,De'Marqus Ockelberry,Bastrop Cedar Creek,,,,,,Single-ply,SBD,M,
Boys,,NS,Julian Celedon,Bastrop Cedar Creek,,,,,,Single-ply,SBD,M,
Boys,,NS,Zachary Gomez,Bastrop Cedar Creek,,,,,,Single-ply,SBD,M,
Boys,,NS,Aiden Estes,Caldwell,,,,,,Single-ply,SBD,M,
Boys,,NS,Carson Parker,Caldwell,,,,,,Single-ply,SBD,M,
Boys,,NS,Michael Cannedy,Caldwell,,,,,,Single-ply,SBD,M,
