Division,WeightClassKg,Place,Name,Team,BodyweightKg,Best3SquatKg,Best3BenchKg,Best3DeadliftKg,TotalKg,Equipment,Event,Sex,BirthDate
Boys,51.71,1,Michael Klemiuk,Farmersville,49.58,122.47,54.43,124.74,301.64,Single-ply,SBD,M,
Boys,51.71,2,Kevin Chavez,Royse City,51.35,102.06,68.04,113.4,283.5,Single-ply,SBD,M,
Boys,51.71,3,Mario Guajardo,Wills Point,50.17,90.72,56.7,90.72,238.14,Single-ply,SBD,M,
Boys,51.71,4,Ajay Parikh,Frisco Wakeland,50.58,74.84,56.7,102.06,233.6,Single-ply,SBD,M,
Boys,51.71,5,Cooper O'Neal,Sunnyvale,49.4,90.72,38.56,90.72,219.99,Single-ply,SBD,M,
Boys,51.71,6,Noah Sallaway,Prosper Rock Hill,48.76,79.38,54.43,83.91,217.72,Single-ply,SBD,M,
Boys,51.71,7,Brian Usrey,Bells,45.36,61.23,47.63,79.38,188.24,Single-ply,SBD,M,
Boys,51.71,DQ,Jeremiah Jackson,Royse City,41.87,,31.75,61.23,,Single-ply,SBD,M,
Boys,55.79,1,Ryne Moncier,Princeton,55.2,124.74,86.18,145.15,356.07,Single-ply,SBD,M,
Boys,55.79,2,Jose Martinez #1,Commerce,53.25,120.2,61.23,142.88,324.32,Single-ply,SBD,M,
Boys,55.79,3,Riggen Thaggard,Electra,54.98,113.4,70.31,136.08,319.78,Single-ply,SBD,M,
Boys,55.79,4,Lyric Patino,Prosper Rock Hill,55.16,115.67,52.16,113.4,281.23,Single-ply,SBD,M,
Boys,55.79,5,Nathaniel Donaghey,Electra,52.34,102.06,63.5,111.13,276.69,Single-ply,SBD,M,
Boys,55.79,6,Rafe McComack,Farmersville,52.93,99.79,72.57,99.79,272.16,Single-ply,SBD,M,
Boys,59.87,1,Payton Cole,Bells,59.19,170.1,111.13,156.49,437.72,Single-ply,SBD,M,
Boys,59.87,2,Grant Gilbert,Prosper Rock Hill,59.15,142.88,88.45,142.88,374.21,Single-ply,SBD,M,
Boys,59.87,3,Eddie Wieczorek,Prosper Rock Hill,59.47,142.88,74.84,136.08,353.8,Single-ply,SBD,M,
Boys,59.87,4,Kyle Saldana,Frisco Wakeland,57.97,120.2,90.72,133.81,344.73,Single-ply,SBD,M,
Boys,59.87,5,Jaden Lopez,Sunnyvale,57.24,115.67,77.11,133.81,326.59,Single-ply,SBD,M,
Boys,59.87,6,Nathan Kolstad,Nevada Community,59.87,124.74,56.7,124.74,306.17,Single-ply,SBD,M,
Boys,59.87,7,Sheldon Taylor,Wills Point,58.2,102.06,58.97,140.61,301.64,Single-ply,SBD,M,
Boys,59.87,8,Tristan Caraway,Princeton,58.51,104.33,61.23,127.01,292.57,Single-ply,SBD,M,
Boys,59.87,9,Grahm Knight,Commerce,58.29,77.11,45.36,113.4,235.87,Single-ply,SBD,M,
Boys,59.87,DQ,Nathaniel Manzano,Princeton,59.42,92.99,,102.06,,Single-ply,SBD,M,
Boys,59.87,DQ,Davis Njoroge,Wills Point,59.74,158.76,,140.61,,Single-ply,SBD,M,
Boys,67.13,1,Nic Doros,Frisco Wakeland,65.36,210.92,117.93,192.78,521.63,Single-ply,SBD,M,
Boys,67.13,2,Arius Burton,Royse City,67,195.04,99.79,222.26,517.1,Single-ply,SBD,M,
Boys,67.13,3,Jeffrey Boyd,Bells,66.32,201.85,120.2,192.78,514.83,Single-ply,SBD,M,
Boys,67.13,4,Ruger Cates,Wills Point,65.36,170.1,90.72,149.69,410.5,Single-ply,SBD,M,
Boys,67.13,5,Shay Madhani,Frisco Wakeland,66.04,147.42,95.25,163.29,405.97,Single-ply,SBD,M,
Boys,67.13,6,Henok Martinez,Prosper Rock Hill,61.51,133.81,92.99,156.49,383.29,Single-ply,SBD,M,
Boys,67.13,7,AJ Gonzales,Princeton,66.27,154.22,61.23,156.49,371.95,Single-ply,SBD,M,
Boys,67.13,8,Aidan Gray,Grapevine,64.55,142.88,90.72,136.08,369.68,Single-ply,SBD,M,
Boys,67.13,9,Aiden Johnson,Prosper Rock Hill,63.59,142.88,74.84,142.88,360.61,Single-ply,SBD,M,
Boys,67.13,10,Connor Young #2,Frisco Wakeland,61.64,129.27,81.65,138.35,349.27,Single-ply,SBD,M,
Boys,67.13,11,Landon Henry,Prosper Rock Hill,63.96,124.74,79.38,138.35,342.46,Single-ply,SBD,M,
Boys,67.13,12,Gabe Dorman,Nevada Community,63.28,129.27,68.04,129.27,326.59,Single-ply,SBD,M,
Boys,67.13,13,Kaden Cote,Electra,64,120.2,63.5,129.27,312.98,Single-ply,SBD,M,
Boys,67.13,14,William Murphy,Farmersville,64,95.25,70.31,120.2,285.76,Single-ply,SBD,M,
Boys,74.84,1,Jacob Tull,Farmersville,73.75,226.8,129.27,215.46,571.53,Single-ply,SBD,M,
Boys,74.84,2,Carson Coldwell,Sunnyvale,74.21,226.8,113.4,192.78,532.97,Single-ply,SBD,M,
Boys,74.84,3,Lane Kendrick,Bells,72.89,188.24,120.2,204.12,512.56,Single-ply,SBD,M,
Boys,74.84,4,Hayden Bohme,Royse City,73.21,195.04,108.86,204.12,508.02,Single-ply,SBD,M,
Boys,74.84,5,Josh Wilson,Frisco Wakeland,71.85,172.37,111.13,165.56,449.06,Single-ply,SBD,M,
Boys,74.84,6,Kaden O'Neal,Sunnyvale,74.07,158.76,111.13,170.1,439.98,Single-ply,SBD,M,
Boys,74.84,7,Will Nguyen,Princeton,68.81,163.29,113.4,156.49,433.18,Single-ply,SBD,M,
Boys,74.84,8,Gregory Davidson,Princeton,71.03,158.76,95.25,176.9,430.91,Single-ply,SBD,M,
Boys,74.84,9,Tiwa Sirtairat,Bells,71.85,124.74,79.38,156.49,360.61,Single-ply,SBD,M,
Boys,74.84,10,Parker Wilcox,Commerce,73.12,124.74,70.31,149.69,344.73,Single-ply,SBD,M,
Boys,74.84,11,Kyle Foster,Commerce,68.08,108.86,74.84,129.27,312.98,Single-ply,SBD,M,
Boys,74.84,12,Brock Fitzhugh,Prosper Rock Hill,70.31,102.06,74.84,136.08,312.98,Single-ply,SBD,M,
Boys,74.84,13,Danyel Usrey,Bells,70.13,79.38,68.04,92.99,240.4,Single-ply,SBD,M,
Boys,82.1,1,Sam Mitchum,Royse City,78.65,210.92,136.08,242.67,589.67,Single-ply,SBD,M,
Boys,82.1,2,Christian Perry,Royse City,81.19,217.72,122.47,217.72,557.92,Single-ply,SBD,M,
Boys,82.1,3,Trevor Patterson,Electra,76.29,174.63,108.86,179.17,462.66,Single-ply,SBD,M,
Boys,82.1,4,Junior Money,Nevada Community,78.11,165.56,102.06,190.51,458.13,Single-ply,SBD,M,
Boys,82.1,5,Ty Gleason,Frisco Wakeland,76.16,174.63,113.4,158.76,446.79,Single-ply,SBD,M,
Boys,82.1,6,Dan Nguyen-Phan,Prosper Rock Hill,79.51,161.03,111.13,163.29,435.45,Single-ply,SBD,M,
Boys,82.1,7,Corey Thompson,Princeton,81.01,154.22,111.13,170.1,435.45,Single-ply,SBD,M,
Boys,82.1,8,Enrique Mora,Nevada Community,81.1,149.69,95.25,170.1,415.04,Single-ply,SBD,M,
Boys,82.1,9,Gabe Rodgers,Bells,78.15,142.88,97.52,151.95,392.36,Single-ply,SBD,M,
Boys,82.1,10,Anthony Evanyk,Frisco Wakeland,81.06,142.88,90.72,151.95,385.55,Single-ply,SBD,M,
Boys,82.1,11,Bradley Branch,Bells,81.83,142.88,74.84,165.56,383.29,Single-ply,SBD,M,
Boys,82.1,12,Drew Purser,Princeton,80.2,127.01,83.91,145.15,356.07,Single-ply,SBD,M,
Boys,82.1,13,Jackson Sorrells,Nevada Community,77.7,120.2,83.91,142.88,347,Single-ply,SBD,M,
Boys,82.1,14,Damian Gonzales,Farmersville,77.25,106.59,88.45,149.69,344.73,Single-ply,SBD,M,
Boys,82.1,15,Jordan McMurray,Commerce,76.97,136.08,70.31,136.08,342.46,Single-ply,SBD,M,
Boys,82.1,DQ,Avery Rodruigus,Commerce,80.6,124.74,81.65,,,Single-ply,SBD,M,
Boys,82.1,DQ,Jacob Starnes,Frisco Wakeland,79.51,142.88,,,,Single-ply,SBD,M,
Boys,89.81,1,Justin Scott,Royse City,89.31,208.65,120.2,226.8,555.65,Single-ply,SBD,M,
Boys,89.81,2,Christian Mena,Bells,88.59,215.46,122.47,210.92,548.85,Single-ply,SBD,M,
Boys,89.81,3,Donovan Shannon,Prosper Rock Hill,87.59,192.78,136.08,201.85,530.7,Single-ply,SBD,M,
Boys,89.81,4,Diego Capetillo,Farmersville,88.45,195.04,115.67,201.85,512.56,Single-ply,SBD,M,
Boys,89.81,5,Ty Grace,Sunnyvale,84.01,204.12,108.86,188.24,501.22,Single-ply,SBD,M,
Boys,89.81,6,Eric Starks,Nevada Community,86.64,170.1,127.01,204.12,501.22,Single-ply,SBD,M,
Boys,89.81,7,Barrett Kennedy,Frisco Wakeland,88.68,174.63,106.59,192.78,474,Single-ply,SBD,M,
Boys,89.81,8,Braylon Bradley,Princeton,85.73,172.37,104.33,163.29,439.98,Single-ply,SBD,M,
Boys,89.81,9,Jack Nichols,Commerce,86.32,167.83,97.52,167.83,433.18,Single-ply,SBD,M,
Boys,89.81,10,Lane Gilbreath,Nevada Community,88.04,170.1,95.25,154.22,419.57,Single-ply,SBD,M,
Boys,89.81,11,Brock Rodgers,Bells,88.9,142.88,95.25,163.29,401.43,Single-ply,SBD,M,
Boys,89.81,12,Geovanni Salas,Electra,88.09,136.08,79.38,165.56,381.02,Single-ply,SBD,M,
Boys,99.79,1,Casy Adjei,Prosper Rock Hill,99.38,251.74,136.08,242.67,630.49,Single-ply,SBD,M,
Boys,99.79,2,Diyan Pun,Sunnyvale,96.43,226.8,161.03,226.8,614.62,Single-ply,SBD,M,
Boys,99.79,3,Caleb Robb,Royse City,90.85,229.06,161.03,213.19,603.28,Single-ply,SBD,M,
Boys,99.79,4,Derick Whitaker,Cedar Hill,90.13,188.24,120.2,217.72,526.17,Single-ply,SBD,M,
Boys,99.79,5,Zhailyn Scott,Cedar Hill,94.03,190.51,138.35,192.78,521.63,Single-ply,SBD,M,
Boys,99.79,6,Jesus Guerreo,Princeton,99.79,190.51,111.13,208.65,510.29,Single-ply,SBD,M,
Boys,99.79,7,Nate Burleson,Sunnyvale,97.57,183.7,102.06,190.51,476.27,Single-ply,SBD,M,
Boys,99.79,8,Jason Boyd,Bells,99.06,179.17,95.25,172.37,446.79,Single-ply,SBD,M,
Boys,99.79,9,Thomas Macri,Frisco Wakeland,93.44,170.1,104.33,170.1,444.52,Single-ply,SBD,M,
Boys,99.79,10,Shelton Burden,Bells,93.94,156.49,83.91,197.31,437.72,Single-ply,SBD,M,
Boys,99.79,11,Elmer Cadena,Nevada Community,95.89,174.63,102.06,161.03,437.72,Single-ply,SBD,M,
Boys,99.79,12,Demonte Carter,Cedar Hill,91.35,181.44,92.99,149.69,424.11,Single-ply,SBD,M,
Boys,99.79,13,Tucker Ackerman,Princeton,96.93,115.67,81.65,115.67,312.98,Single-ply,SBD,M,
Boys,99.79,DQ,Austel Mayfield,Princeton,94.76,195.04,102.06,,,Single-ply,SBD,M,
Boys,99.79,DQ,Graham Akoh,Princeton,91.63,,,,,Single-ply,SBD,M,
Boys,99.79,DQ,Carson Maddox,Wills Point,99.43,,,172.37,,Single-ply,SBD,M,
Boys,99.79,DQ,Juan Cruz-Garcia,Wills Point,90.99,136.08,,120.2,,Single-ply,SBD,M,
Boys,99.79,DQ,Henry Serrano,Commerce,91.67,210.92,129.27,,,Single-ply,SBD,M,
Boys,109.77,1,Nathan Ramey,Sunnyvale,103.92,201.85,131.54,210.92,544.31,Single-ply,SBD,M,
Boys,109.77,2,Jj Goode,Wills Point,107.82,215.46,136.08,183.7,535.24,Single-ply,SBD,M,
Boys,109.77,3,Jack Durkin,Nevada Community,106.41,226.8,106.59,192.78,526.17,Single-ply,SBD,M,
Boys,109.77,4,Luke Taylor,Sunnyvale,106.14,188.24,122.47,195.04,505.76,Single-ply,SBD,M,
Boys,109.77,5,Dakota Ryder,Wills Point,105.37,183.7,102.06,140.61,426.38,Single-ply,SBD,M,
Boys,109.77,6,Austin Jordan,Prosper Rock Hill,101.88,151.95,106.59,165.56,424.11,Single-ply,SBD,M,
Boys,109.77,7,Josh Riddle,Commerce,101.11,129.27,63.5,127.01,319.78,Single-ply,SBD,M,
Boys,124.74,1,Jacob Speer,Princeton,120.7,254.01,158.76,215.46,628.23,Single-ply,SBD,M,
Boys,124.74,2,Isaiah Knox,Cedar Hill,122.61,254.01,145.15,226.8,625.96,Single-ply,SBD,M,
Boys,124.74,3,Phoenix Crump,Cedar Hill,113.99,238.14,124.74,219.99,582.87,Single-ply,SBD,M,
Boys,124.74,4,Tyler Dean,Royse City,113.31,229.06,149.69,192.78,571.53,Single-ply,SBD,M,
Boys,124.74,5,Josiah Jefferson,Cedar Hill,120.43,226.8,145.15,199.58,571.53,Single-ply,SBD,M,
Boys,124.74,6,Alyric Brown,Sunnyvale,115.3,226.8,129.27,210.92,566.99,Single-ply,SBD,M,
Boys,124.74,7,Jayden Coker,Cedar Hill,118.3,226.8,102.06,176.9,505.76,Single-ply,SBD,M,
Boys,124.74,8,Mekhi Harris,Cedar Hill,111.49,183.7,108.86,199.58,492.15,Single-ply,SBD,M,
Boys,124.74,9,Elyjah Gilliard,Cedar Hill,115.89,188.24,106.59,181.44,476.27,Single-ply,SBD,M,
Boys,124.74,10,Seth Riddle,Commerce,113.58,183.7,92.99,190.51,467.2,Single-ply,SBD,M,
Boys,124.74,11,Parker Morgan,Princeton,120.25,185.97,95.25,158.76,439.98,Single-ply,SBD,M,
Boys,124.74,12,Jack Scott,Nevada Community,110.04,161.03,102.06,158.76,421.84,Single-ply,SBD,M,
Boys,124.74,13,Mark Vasquez,Farmersville,118.84,142.88,81.65,156.49,381.02,Single-ply,SBD,M,
Boys,124.74,DQ,Carlos Candia,Frisco Wakeland,111.31,197.31,,,,Single-ply,SBD,M,
Boys,124.74,DQ,Brody Tittle,Royse City,120.61,181.44,113.4,,,Single-ply,SBD,M,
Boys,139.71,1,Amore Carr-Lanle,Cedar Hill,128.05,247.21,138.35,183.7,569.26,Single-ply,SBD,M,
Boys,139.71,2,Collin Howe,Royse City,129.59,217.72,131.54,204.12,553.38,Single-ply,SBD,M,
Boys,139.71,DQ,Braden Tittle,Royse City,130.14,,149.69,204.12,,Single-ply,SBD,M,
Boys,139.71+,1,David Johnson,Princeton,150.55,254.01,174.63,242.67,671.32,Single-ply,SBD,M,
Boys,139.71+,2,Noah Howell,Commerce,146.6,260.82,154.22,254.01,669.05,Single-ply,SBD,M,
Boys,139.71+,3,Kris Mayes,Wills Point,178.85,226.8,142.88,183.7,553.38,Single-ply,SBD,M,
Boys,139.71+,4,Logan Ireland,Nevada Community,146.19,206.38,120.2,195.04,521.63,Single-ply,SBD,M,
Boys,139.71+,5,Angel Saldivar,Sunnyvale,157.08,192.78,129.27,192.78,514.83,Single-ply,SBD,M,
