Division,WeightClassKg,Place,Name,Team,BodyweightKg,Best3SquatKg,Best3BenchKg,Best3DeadliftKg,TotalKg,Equipment,Event,Sex,BirthDate
Boys,51.71,1,MD Jawwadullah,Frisco Liberty,51.3,142.88,61.23,142.88,347,Single-ply,SBD,M,
Boys,55.79,1,Zachary Rexin,Frisco Lebanon Trail,55.07,181.44,97.52,188.24,467.2,Single-ply,SBD,M,
Boys,59.87,1,Ayush Mitra,Frisco Lebanon Trail,59.33,142.88,88.45,142.88,374.21,Single-ply,SBD,M,
Boys,59.87,2,Parker Brosam,Frisco Centennial,57.61,138.35,61.23,129.27,328.85,Single-ply,SBD,M,
Boys,67.13,1,Ameer Alnseirat,Frisco Liberty,67.04,151.95,70.31,142.88,365.14,Single-ply,SBD,M,
Boys,67.13,2,Nate Leal,Frisco Emerson,65.95,127.01,68.04,136.08,331.12,Single-ply,SBD,M,
Boys,67.13,3,Grishm Melwani,Frisco Centennial,65.41,117.93,70.31,136.08,324.32,Single-ply,SBD,M,
Boys,67.13,4,Ehab Alnseirat,Frisco Liberty,65.14,120.2,68.04,106.59,294.84,Single-ply,SBD,M,
Boys,74.84,1,Zackary Garringer,Frisco Lebanon Trail,73.75,215.46,129.27,222.26,566.99,Single-ply,SBD,M,
Boys,74.84,2,Bailey Ohrn,Frisco Emerson,70.49,170.1,111.13,204.12,485.34,Single-ply,SBD,M,
Boys,74.84,3,Trevor Sutherland,Frisco Lebanon Trail,71.03,151.95,90.72,151.95,394.63,Single-ply,SBD,M,
Boys,74.84,4,Leo Bustos,Frisco Lebanon Trail,73.21,138.35,90.72,156.49,385.55,Single-ply,SBD,M,
Boys,74.84,5,Brehnyn Cerna,Frisco Lebanon Trail,74.84,133.81,97.52,140.61,371.95,Single-ply,SBD,M,
Boys,74.84,6,Jay Poe,Frisco Liberty,69.31,133.81,83.91,131.54,349.27,Single-ply,SBD,M,
Boys,82.1,1,Jonathan Williston,Frisco Centennial,80.38,147.42,74.84,142.88,365.14,Single-ply,SBD,M,
Boys,82.1,2,Tim Seo,Frisco Emerson,79.29,136.08,81.65,142.88,360.61,Single-ply,SBD,M,
Boys,82.1,3,Nathan Le,Frisco Lebanon Trail,79.74,115.67,104.33,120.2,340.19,Single-ply,SBD,M,
Boys,82.1,DQ,Caleb Forte,Frisco Liberty,80.65,244.94,147.42,,,Single-ply,SBD,M,
Boys,89.81,1,Dillon Davis,Frisco Liberty,86.36,188.24,104.33,190.51,483.08,Single-ply,SBD,M,
Boys,89.81,2,Matt Rolon,Frisco Centennial,85.46,170.1,106.59,190.51,467.2,Single-ply,SBD,M,
Boys,89.81,3,Jaedyn Kirvin,Frisco Emerson,89.72,181.44,102.06,181.44,464.93,Single-ply,SBD,M,
Boys,89.81,4,Arman Naderfard,Frisco Lebanon Trail,84.55,174.63,111.13,163.29,449.06,Single-ply,SBD,M,
Boys,89.81,5,AJ Johnson,Frisco Emerson,88.18,156.49,104.33,183.7,444.52,Single-ply,SBD,M,
Boys,89.81,6,David Adegbenro,Frisco Centennial,85.37,174.63,90.72,142.88,408.23,Single-ply,SBD,M,
Boys,89.81,7,Hector Piz Varela,Frisco Lebanon Trail,84.73,136.08,102.06,158.76,396.89,Single-ply,SBD,M,
Boys,89.81,8,Justin Ripberger,Frisco Liberty,86.82,145.15,79.38,149.69,374.21,Single-ply,SBD,M,
Boys,99.79,1,Robert Teta,Frisco Liberty,97.43,215.46,111.13,219.99,546.58,Single-ply,SBD,M,
Boys,99.79,2,Quincy Torrez,Frisco Emerson,95.89,199.58,111.13,185.97,496.68,Single-ply,SBD,M,
Boys,99.79,3,Thatcher Walton,Frisco Lebanon Trail,91.81,142.88,102.06,176.9,421.84,Single-ply,SBD,M,
Boys,99.79,4,Nitin Vejju,Frisco Liberty,99.25,127.01,61.23,138.35,326.59,Single-ply,SBD,M,
Boys,109.77,1,Jacob Settle,Frisco Emerson,108.5,156.49,90.72,167.83,415.04,Single-ply,SBD,M,
Boys,124.74,1,Austin Kawecki,Frisco Lebanon Trail,119.02,231.33,145.15,235.87,612.35,Single-ply,SBD,M,
Boys,124.74,2,Jadon Simmons,Frisco Liberty,118.21,154.22,127.01,167.83,449.06,Single-ply,SBD,M,
Boys,124.74,3,Maddox Smith,Frisco Emerson,114.03,142.88,86.18,131.54,360.61,Single-ply,SBD,M,
Boys,139.71,1,Josh Ryder,Frisco Centennial,130.09,226.8,111.13,174.63,512.56,Single-ply,SBD,M,
Boys,139.71,2,Tim Richardson,Frisco Emerson,130.18,181.44,102.06,183.7,467.2,Single-ply,SBD,M,
Boys,139.71,3,Bryan Vianna,Frisco Emerson,127.28,138.35,72.57,131.54,342.46,Single-ply,SBD,M,
