Division,WeightClassKg,Place,Name,Team,BodyweightKg,Best3SquatKg,Best3BenchKg,Best3DeadliftKg,TotalKg,Equipment,Event,Sex
Boys,51.71,1,Justin Hernandez,Weslaco East,49.76,142.88,70.31,151.95,365.14,Single-ply,SBD,M
Boys,51.71,2,Bradley Salinas,Brownsville Porter,51.71,124.74,77.11,149.69,351.53,Single-ply,SBD,M
Boys,51.71,3,Ben Garcia,Los Fresnos,51.44,115.67,72.57,127.01,315.25,Single-ply,SBD,M
Boys,51.71,4,Jon Ortega,Mercedes,43.54,81.65,68.04,99.79,249.48,Single-ply,SBD,M
Boys,51.71,5,Tristan Villarreal,Donna North,46.9,88.45,47.63,102.06,238.14,Single-ply,SBD,M
Boys,51.71,DQ,Allen Guillen,Brownsville Lopez,51.62,,,,,Single-ply,SBD,M
Boys,51.71,DQ,Osvaldo Lopez,Brownsville Hanna,51.17,,,,,Single-ply,SBD,M
Boys,55.79,1,Leo Alaniz,Brownsville Lopez,55.38,192.78,106.59,183.7,483.08,Single-ply,SBD,M
Boys,55.79,2,Joel Sanchez #2,Brownsville Veterans Memorial,55.57,188.24,102.06,188.24,478.54,Single-ply,SBD,M
Boys,55.79,3,Joshua Morin,PSJA North,55.79,179.17,113.4,174.63,467.2,Single-ply,SBD,M
Boys,55.79,4,Ray Martinez,Santa Rosa,54.57,124.74,83.91,154.22,362.87,Single-ply,SBD,M
Boys,55.79,5,Anthony Borrego,McAllen,52.66,120.2,83.91,147.42,351.53,Single-ply,SBD,M
Boys,55.79,6,Eric Capistran,Brownsville Veterans Memorial,53.89,124.74,79.38,136.08,340.19,Single-ply,SBD,M
Boys,55.79,7,Jeremy Solis,Edinburg Vela,55.16,106.59,79.38,138.35,324.32,Single-ply,SBD,M
Boys,55.79,8,Diego Gonzalez,Mercedes,53.39,106.59,79.38,122.47,308.44,Single-ply,SBD,M
Boys,55.79,9,Aaron Gonzales,Lyford,53.25,90.72,56.7,97.52,244.94,Single-ply,SBD,M
Boys,59.87,1,Jose Alvarado #2,Brownsville Lopez,59.51,256.28,127.01,217.72,601.01,Single-ply,SBD,M
Boys,59.87,2,Felix Rizo,Brownsville Pace,59.83,192.78,115.67,181.44,489.88,Single-ply,SBD,M
Boys,59.87,3,Marcos Chavez,Lyford,58.83,142.88,92.99,190.51,426.38,Single-ply,SBD,M
Boys,59.87,4,Jorge Banda,Brownsville Porter,59.87,129.27,99.79,161.03,390.09,Single-ply,SBD,M
Boys,59.87,5,Jose Serna,Weslaco East,58.33,158.76,86.18,142.88,387.82,Single-ply,SBD,M
Boys,59.87,6,Jacob Reyes,Edinburg Vela,59.06,142.88,95.25,149.69,387.82,Single-ply,SBD,M
Boys,59.87,7,Zeke Rocha,Rio Hondo,58.97,124.74,92.99,151.95,369.68,Single-ply,SBD,M
Boys,59.87,8,Marc Ortega,Mercedes,56.97,127.01,88.45,142.88,358.34,Single-ply,SBD,M
Boys,59.87,9,Julian Villanueva,Donna North,58.42,136.08,70.31,136.08,342.46,Single-ply,SBD,M
Boys,59.87,10,Ruben Saenz,McAllen Rowe,58.6,106.59,65.77,115.67,288.03,Single-ply,SBD,M
Boys,59.87,11,Thomas Ochoa #2,Brownsville Pace,58.33,92.99,58.97,133.81,285.76,Single-ply,SBD,M
Boys,59.87,12,Angel Mata,Donna North,58.6,102.06,61.23,122.47,285.76,Single-ply,SBD,M
Boys,59.87,DQ,Jerry Chavez,Donna North,57.47,149.69,,,,Single-ply,SBD,M
Boys,59.87,DQ,Marvin Cerda,Brownsville Hanna,59.87,156.49,,,,Single-ply,SBD,M
Boys,59.87,DQ,Benito Olivarez,Edcouch-Elsa,56.61,129.27,,,,Single-ply,SBD,M
Boys,67.13,1,Hugo Salas,Brownsville Lopez,66.9,265.35,129.27,229.06,623.69,Single-ply,SBD,M
Boys,67.13,2,Jose Porras,Brownsville Hanna,66.72,210.92,102.06,215.46,528.44,Single-ply,SBD,M
Boys,67.13,3,Michael Chavez,Brownsville Hanna,66.18,201.85,111.13,206.38,519.36,Single-ply,SBD,M
Boys,67.13,4,Jonathan Rocha,Brownsville Porter,63.78,192.78,122.47,199.58,514.83,Single-ply,SBD,M
Boys,67.13,5,Ryan Rodriguez,Weslaco East,65.91,201.85,108.86,199.58,510.29,Single-ply,SBD,M
Boys,67.13,6,Robert Alaniz,Weslaco East,66.54,183.7,117.93,204.12,505.76,Single-ply,SBD,M
Boys,67.13,7,Mike Gonzales,Weslaco East,67.13,199.58,108.86,190.51,498.95,Single-ply,SBD,M
Boys,67.13,8,Alex Franco #1,Edinburg Vela,67.13,183.7,131.54,174.63,489.88,Single-ply,SBD,M
Boys,67.13,9,Ricky Ortiz #1,Edcouch-Elsa,61.73,165.56,99.79,188.24,453.59,Single-ply,SBD,M
Boys,67.13,10,Guillermo Estrada #1,Brownsville Porter,65.45,158.76,102.06,179.17,439.98,Single-ply,SBD,M
Boys,67.13,11,Denilson Guevara,PSJA North,60.87,151.95,92.99,174.63,419.57,Single-ply,SBD,M
Boys,67.13,12,Ruben Garza,Donna North,66.86,145.15,104.33,170.1,419.57,Single-ply,SBD,M
Boys,67.13,13,Isaac Rodriguez,Rio Hondo,63.32,151.95,83.91,179.17,415.04,Single-ply,SBD,M
Boys,67.13,14,Joe Ramirez,Edinburg Vela,64.91,151.95,102.06,147.42,401.43,Single-ply,SBD,M
Boys,67.13,15,Christian Garcia,San Benito,60.19,151.95,92.99,151.95,396.89,Single-ply,SBD,M
Boys,67.13,16,Eli Ramirez,Port Isabel,61.1,154.22,83.91,154.22,392.36,Single-ply,SBD,M
Boys,67.13,17,Joe Colunga,Mercedes,63.91,133.81,97.52,136.08,367.41,Single-ply,SBD,M
Boys,67.13,18,Jonathan Mendoza,Port Isabel,61.69,151.95,65.77,138.35,356.07,Single-ply,SBD,M
Boys,67.13,19,Alex Hernandez #9,Port Isabel,61.37,111.13,77.11,142.88,331.12,Single-ply,SBD,M
Boys,67.13,20,Andrew Elizarres,McAllen,62.78,124.74,70.31,129.27,324.32,Single-ply,SBD,M
Boys,67.13,21,Abel Gonzales,Lyford,61.42,102.06,72.57,127.01,301.64,Single-ply,SBD,M
Boys,67.13,DQ,Andrew Rodriguez,McAllen,60.55,,,,,Single-ply,SBD,M
Boys,74.84,1,Ramses Ramos,Brownsville Lopez,73.57,235.87,102.06,238.14,576.06,Single-ply,SBD,M
Boys,74.84,2,Leo Diaz,Brownsville Lopez,74.03,226.8,127.01,210.92,564.72,Single-ply,SBD,M
Boys,74.84,3,Ricardo Miranda,Los Fresnos,74.8,197.31,122.47,244.94,564.72,Single-ply,SBD,M
Boys,74.84,4,Dominic Ramos,Rio Hondo,71.99,204.12,145.15,204.12,553.38,Single-ply,SBD,M
Boys,74.84,5,Marco Fonseca,Los Fresnos,73.75,210.92,117.93,224.53,553.38,Single-ply,SBD,M
Boys,74.84,6,Jose Ortiz,Los Fresnos,71.85,206.38,108.86,224.53,539.77,Single-ply,SBD,M
Boys,74.84,7,Mike Adameit,Lyford,74.43,210.92,117.93,206.38,535.24,Single-ply,SBD,M
Boys,74.84,8,Richard Reza,San Benito,74.25,183.7,122.47,226.8,532.97,Single-ply,SBD,M
Boys,74.84,9,Fransisco Gutierrez,McAllen,73.89,197.31,124.74,204.12,526.17,Single-ply,SBD,M
Boys,74.84,10,Adam Walle,Edcouch-Elsa,72.8,190.51,106.59,204.12,501.22,Single-ply,SBD,M
Boys,74.84,11,Roman Garay,Brownsville Hanna,70.67,195.04,95.25,208.65,498.95,Single-ply,SBD,M
Boys,74.84,12,John Acuna,Brownsville Porter,74.66,201.85,99.79,197.31,498.95,Single-ply,SBD,M
Boys,74.84,13,Danny Salinas,Weslaco East,70.76,201.85,108.86,183.7,494.42,Single-ply,SBD,M
Boys,74.84,14,Roman Villarreal,McAllen Rowe,73.57,183.7,133.81,174.63,492.15,Single-ply,SBD,M
Boys,74.84,15,Jacob Sanchez,Lyford,73.26,179.17,97.52,190.51,467.2,Single-ply,SBD,M
Boys,74.84,16,Brian Chavez,Port Isabel,74.84,172.37,108.86,181.44,462.66,Single-ply,SBD,M
Boys,74.84,17,Michael Aguilar,McAllen,72.26,161.03,115.67,183.7,460.4,Single-ply,SBD,M
Boys,74.84,18,Jason Navaro,San Benito,73.66,183.7,83.91,192.78,460.4,Single-ply,SBD,M
Boys,74.84,19,Seb De Leon,Mercedes,69.08,142.88,120.2,181.44,444.52,Single-ply,SBD,M
Boys,74.84,20,Santiago Zuniga,PSJA North,74.66,142.88,127.01,170.1,439.98,Single-ply,SBD,M
Boys,74.84,21,Raul Trevino,Edcouch-Elsa,71.89,154.22,102.06,167.83,424.11,Single-ply,SBD,M
Boys,74.84,22,Jaziel Espinosa,McAllen,68.36,154.22,102.06,165.56,421.84,Single-ply,SBD,M
Boys,74.84,23,Oj Westi,Donna North,67.9,151.95,92.99,170.1,415.04,Single-ply,SBD,M
Boys,74.84,24,Jose Garza,Brownsville Porter,71.21,136.08,79.38,190.51,405.97,Single-ply,SBD,M
Boys,74.84,25,Mathew Trevino,Edinburg Vela,69.13,151.95,102.06,147.42,401.43,Single-ply,SBD,M
Boys,74.84,26,Robert Maldonado,Port Isabel,69.22,136.08,77.11,136.08,349.27,Single-ply,SBD,M
Boys,74.84,DQ,Juan Gallegos,Brownsville Pace,72.3,,,,,Single-ply,SBD,M
Boys,74.84,DQ,Daniel Mireles,PSJA Memorial,69.81,151.95,,,,Single-ply,SBD,M
Boys,74.84,DQ,Frank Moreno,Lyford,74.71,,,,,Single-ply,SBD,M
Boys,82.1,1,Roy Pedraza,Weslaco East,82.1,233.6,149.69,272.16,655.44,Single-ply,SBD,M
Boys,82.1,2,Pablo Garza,Brownsville Pace,82.1,235.87,151.95,254.01,641.83,Single-ply,SBD,M
Boys,82.1,3,Gio Martinez,Brownsville Porter,80.29,229.06,136.08,256.28,621.42,Single-ply,SBD,M
Boys,82.1,4,Gaston Castellanos,Rio Hondo,81.33,208.65,133.81,222.26,564.72,Single-ply,SBD,M
Boys,82.1,5,Mars Morales,San Benito,81.65,192.78,124.74,204.12,521.63,Single-ply,SBD,M
Boys,82.1,6,Jesus Guatzozon,Port Isabel,79.56,161.03,120.2,208.65,489.88,Single-ply,SBD,M
Boys,82.1,7,Dagan Wise-Herring,Port Isabel,78.15,183.7,106.59,192.78,483.08,Single-ply,SBD,M
Boys,82.1,8,Eric Hinojosa,Mercedes,80.15,172.37,124.74,176.9,474,Single-ply,SBD,M
Boys,82.1,9,Jesse Garza,Edcouch-Elsa,78.47,190.51,108.86,170.1,469.47,Single-ply,SBD,M
Boys,82.1,10,Mat Aguirre,San Benito,79.83,179.17,97.52,188.24,464.93,Single-ply,SBD,M
Boys,82.1,11,Dominic Trolani,Brownsville Veterans Memorial,82.05,167.83,102.06,190.51,460.4,Single-ply,SBD,M
Boys,82.1,12,Miguel Morones,Edcouch-Elsa,78.97,174.63,104.33,170.1,449.06,Single-ply,SBD,M
Boys,82.1,13,Christian Cortina,Donna North,80.2,165.56,97.52,183.7,446.79,Single-ply,SBD,M
Boys,82.1,14,Andrew Sous,Edinburg Vela,77.84,151.95,111.13,165.56,428.64,Single-ply,SBD,M
Boys,82.1,15,Jaime Montoya,Lyford,80.38,151.95,95.25,154.22,401.43,Single-ply,SBD,M
Boys,82.1,16,Edison Flores,Mercedes,78.65,127.01,102.06,161.03,390.09,Single-ply,SBD,M
Boys,82.1,17,Jonas Ortiz,McAllen Rowe,75.07,136.08,83.91,136.08,356.07,Single-ply,SBD,M
Boys,82.1,18,Robert Serna,Donna North,77.79,79.38,52.16,113.4,244.94,Single-ply,SBD,M
Boys,82.1,DQ,Fernando Garza,Weslaco East,82.1,,,,,Single-ply,SBD,M
Boys,82.1,DQ,Leroy Luna,La Villa,81.96,147.42,81.65,,,Single-ply,SBD,M
Boys,89.81,1,Jesse Luna,Brownsville Lopez,89.04,233.6,142.88,251.74,628.23,Single-ply,SBD,M
Boys,89.81,2,Omar Salazar,Brownsville Lopez,89.63,256.28,142.88,224.53,623.69,Single-ply,SBD,M
Boys,89.81,3,Servando Marroquin,PSJA North,85,219.99,133.81,206.38,560.19,Single-ply,SBD,M
Boys,89.81,4,Jonas Garza,Brownsville Pace,86.41,204.12,129.27,222.26,555.65,Single-ply,SBD,M
Boys,89.81,5,Justin Flores,Rio Hondo,89.45,206.38,145.15,204.12,555.65,Single-ply,SBD,M
Boys,89.81,6,Daniel Valdez,Brownsville Porter,87.32,201.85,117.93,233.6,553.38,Single-ply,SBD,M
Boys,89.81,7,Rene Cantu,Edinburg Vela,87.54,201.85,136.08,195.04,532.97,Single-ply,SBD,M
Boys,89.81,8,Nathan Hernandez,McAllen Rowe,89.04,174.63,133.81,219.99,528.44,Single-ply,SBD,M
Boys,89.81,9,Jonathan Flores,PSJA North,84.64,190.51,108.86,192.78,492.15,Single-ply,SBD,M
Boys,89.81,10,Freddy Lozano,La Feria,87.59,183.7,115.67,181.44,480.81,Single-ply,SBD,M
Boys,89.81,11,Edgar Castillo,McAllen Rowe,85.05,170.1,102.06,174.63,446.79,Single-ply,SBD,M
Boys,89.81,12,Nathan Morales,La Feria,86.36,147.42,106.59,158.76,412.77,Single-ply,SBD,M
Boys,89.81,13,Michael Morales,McAllen Rowe,83.69,142.88,111.13,151.95,405.97,Single-ply,SBD,M
Boys,89.81,14,Emmanuel Cepeda,Lyford,87.18,156.49,92.99,147.42,396.89,Single-ply,SBD,M
Boys,89.81,15,George Garcia,La Feria,88.77,156.49,90.72,142.88,390.09,Single-ply,SBD,M
Boys,89.81,16,Anthony Martinez #11,Rio Hondo,89.72,151.95,92.99,142.88,387.82,Single-ply,SBD,M
Boys,89.81,17,Henry Rocha,Lyford,89.49,102.06,61.23,104.33,267.62,Single-ply,SBD,M
Boys,89.81,DQ,José Saldaña,La Feria,83.42,215.46,,,,Single-ply,SBD,M
Boys,89.81,DQ,Nathan Silva,Brownsville Hanna,89.63,256.28,,,,Single-ply,SBD,M
Boys,89.81,DQ,Eddie Galvan,Brownsville Hanna,86.05,,,,,Single-ply,SBD,M
Boys,99.79,1,Ricky Arreola,Brownsville Hanna,96.66,294.84,163.29,242.67,700.8,Single-ply,SBD,M
Boys,99.79,2,Leo Gonzalez,Brownsville Hanna,99.65,278.96,147.42,272.16,698.53,Single-ply,SBD,M
Boys,99.79,3,Christian Godinez,Brownsville Lopez,98.97,281.23,165.56,229.06,675.85,Single-ply,SBD,M
Boys,99.79,4,Eddie Hinojosa,Edinburg Vela,93.76,210.92,129.27,219.99,560.19,Single-ply,SBD,M
Boys,99.79,5,Julio Cardona,Edcouch-Elsa,96.89,219.99,142.88,195.04,557.92,Single-ply,SBD,M
Boys,99.79,6,Luis Molina,Brownsville Veterans Memorial,96.98,195.04,122.47,235.87,553.38,Single-ply,SBD,M
Boys,99.79,7,Arturo Alvarado,La Feria,95.35,210.92,133.81,188.24,532.97,Single-ply,SBD,M
Boys,99.79,8,Eric Curiel,San Benito,97.52,192.78,113.4,204.12,510.29,Single-ply,SBD,M
Boys,99.79,9,Emmanuel Mendez,PSJA North,94.21,183.7,120.2,197.31,501.22,Single-ply,SBD,M
Boys,99.79,10,Ryan Reyna,PSJA North,95.57,192.78,117.93,190.51,501.22,Single-ply,SBD,M
Boys,99.79,11,Mark Zamorano,Los Fresnos,92.99,183.7,127.01,170.1,480.81,Single-ply,SBD,M
Boys,99.79,12,Lorenzo Ortiz,Santa Rosa,96.57,195.04,111.13,174.63,480.81,Single-ply,SBD,M
Boys,99.79,13,Pablo Iracheta,Brownsville Pace,92.08,183.7,108.86,185.97,478.54,Single-ply,SBD,M
Boys,99.79,14,Jose Rangel,La Villa,92.31,188.24,92.99,195.04,476.27,Single-ply,SBD,M
Boys,99.79,15,Gus Escalante,Donna North,91.31,181.44,102.06,172.37,455.86,Single-ply,SBD,M
Boys,99.79,16,Jose Quintero,McAllen Rowe,91.49,142.88,97.52,161.03,401.43,Single-ply,SBD,M
Boys,99.79,17,Alfonso Cerda,Donna North,91.31,106.59,83.91,165.56,356.07,Single-ply,SBD,M
Boys,99.79,DQ,Alan Morales,McAllen,99.11,,129.27,,,Single-ply,SBD,M
Boys,99.79,DQ,David Cardenas,Brownsville Pace,92.71,,,,,Single-ply,SBD,M
Boys,99.79,DQ,Ruben Balboa,Brownsville Pace,97.84,219.99,133.81,,,Single-ply,SBD,M
Boys,99.79,DQ,Omar Lopez,PSJA North,95.48,,,,,Single-ply,SBD,M
Boys,99.79,DQ,Daniel Ramos,Brownsville Lopez,96.25,278.96,167.83,,,Single-ply,SBD,M
Boys,109.77,1,Ralph Montemayor,Edinburg Vela,105.01,272.16,165.56,229.06,666.78,Single-ply,SBD,M
Boys,109.77,2,Jacob Banda,Weslaco East,106.91,260.82,142.88,238.14,641.83,Single-ply,SBD,M
Boys,109.77,3,Aaron Vasquez,Edcouch-Elsa,101.65,215.46,136.08,215.46,566.99,Single-ply,SBD,M
Boys,109.77,4,Aj Hernandez,Port Isabel,108.86,215.46,156.49,195.04,566.99,Single-ply,SBD,M
Boys,109.77,5,Caleb Zerato,PSJA Memorial,102.15,226.8,108.86,215.46,551.11,Single-ply,SBD,M
Boys,109.77,6,Justin Ayala,Brownsville Veterans Memorial,100.7,190.51,97.52,215.46,503.49,Single-ply,SBD,M
Boys,109.77,7,Alex Trevino,PSJA Memorial,104.1,165.56,111.13,215.46,492.15,Single-ply,SBD,M
Boys,109.77,8,Nestor Ramirez,Brownsville Porter,100.24,204.12,115.67,167.83,487.61,Single-ply,SBD,M
Boys,109.77,9,Misael Garcia,Brownsville Veterans Memorial,106.91,179.17,117.93,183.7,480.81,Single-ply,SBD,M
Boys,109.77,10,Jose Zapata,Brownsville Veterans Memorial,101.7,183.7,92.99,195.04,471.74,Single-ply,SBD,M
Boys,109.77,11,Joel Lopez,San Benito,102.19,176.9,102.06,158.76,437.72,Single-ply,SBD,M
Boys,109.77,12,Jose Jimenez #4,Donna North,103.37,142.88,65.77,158.76,367.41,Single-ply,SBD,M
Boys,109.77,DQ,Sam Torres,Santa Rosa,105.69,181.44,,,,Single-ply,SBD,M
Boys,109.77,DQ,Christopher Atkinson,Rio Hondo,103.69,174.63,,,,Single-ply,SBD,M
Boys,109.77,DQ,Luis Juarez,Port Isabel,101.56,,,,,Single-ply,SBD,M
Boys,109.77,DQ,Adrian Arredondo,Brownsville Hanna,109.68,274.42,,,,Single-ply,SBD,M
Boys,109.77,DQ,Adrien Martinez,Brownsville Hanna,108,292.57,,,,Single-ply,SBD,M
Boys,124.74,1,Pablo Trevino,Edinburg Vela,123.38,290.3,183.7,244.94,718.94,Single-ply,SBD,M
Boys,124.74,2,Gonzalo Alegria,La Feria,123.15,303.91,147.42,251.74,703.07,Single-ply,SBD,M
Boys,124.74,3,Jonathan Ojeda,Brownsville Pace,119.57,283.5,158.76,244.94,687.19,Single-ply,SBD,M
Boys,124.74,4,Austin Sulewski,Brownsville Pace,124.74,283.5,176.9,219.99,680.39,Single-ply,SBD,M
Boys,124.74,5,Cody Alvarado,Edcouch-Elsa,113.04,272.16,158.76,229.06,659.98,Single-ply,SBD,M
Boys,124.74,6,Julio Hernandez,Brownsville Pace,121.79,274.42,124.74,249.48,648.64,Single-ply,SBD,M
Boys,124.74,7,Andres Zuniga,PSJA North,120.38,258.55,151.95,229.06,639.57,Single-ply,SBD,M
Boys,124.74,8,Jorge Soto,Edcouch-Elsa,118.61,265.35,149.69,210.92,625.96,Single-ply,SBD,M
Boys,124.74,9,Rogelio Perez,Rio Hondo,114.58,249.48,142.88,219.99,612.35,Single-ply,SBD,M
Boys,124.74,10,Danny Melendez,Mercedes,116.44,260.82,147.42,199.58,607.81,Single-ply,SBD,M
Boys,124.74,11,Troy Macias,Rio Hondo,119.25,219.99,156.49,219.99,596.47,Single-ply,SBD,M
Boys,124.74,12,Chris Vargas,San Benito,120.88,229.06,124.74,195.04,548.85,Single-ply,SBD,M
Boys,124.74,13,Geraldo Lopez,McAllen,121.11,192.78,147.42,172.37,512.56,Single-ply,SBD,M
Boys,124.74,14,Abiel Lopez,Brownsville Porter,120.7,197.31,120.2,185.97,503.49,Single-ply,SBD,M
Boys,124.74,15,Miguel Rodriguez,Edcouch-Elsa,113.04,195.04,120.2,170.1,485.34,Single-ply,SBD,M
Boys,124.74,16,Leroy Carrizalez,PSJA Memorial,113.13,190.51,102.06,172.37,464.93,Single-ply,SBD,M
Boys,124.74+,1,Josh Trevino,Brownsville Lopez,139.71,317.51,192.78,283.5,793.79,Single-ply,SBD,M
Boys,124.74+,2,Christian Castro,Brownsville Pace,140.25,317.51,158.76,249.48,725.75,Single-ply,SBD,M
Boys,124.74+,3,Michael Vega,McAllen Rowe,138.8,272.16,201.85,213.19,687.19,Single-ply,SBD,M
Boys,124.74+,4,Daniel Roque,Weslaco East,156.58,283.5,127.01,233.6,644.1,Single-ply,SBD,M
Boys,124.74+,5,Justin Garcia,Lyford,131.41,249.48,154.22,233.6,637.3,Single-ply,SBD,M
Boys,124.74+,6,Hector Garcia #5,San Benito,149.23,238.14,133.81,226.8,598.74,Single-ply,SBD,M
Boys,124.74+,7,Arturo Ochoa,McAllen,127.82,226.8,156.49,204.12,587.4,Single-ply,SBD,M
Boys,124.74+,8,Joseph Guerra,McAllen,142.75,224.53,142.88,197.31,564.72,Single-ply,SBD,M
Boys,124.74+,9,Benjamin Flores,Rio Hondo,128.09,233.6,124.74,197.31,555.65,Single-ply,SBD,M
Boys,124.74+,10,Hector De Jesus,San Benito,127.23,199.58,111.13,215.46,526.17,Single-ply,SBD,M
Boys,124.74+,11,Zach Hettler,McAllen,147.83,165.56,161.03,181.44,508.02,Single-ply,SBD,M
Boys,124.74+,12,Aaron Aguilar,Edinburg Vela,129.55,192.78,120.2,192.78,505.76,Single-ply,SBD,M
Boys,124.74+,13,Ivan Tejada,La Feria,127.6,210.92,106.59,158.76,476.27,Single-ply,SBD,M
Boys,124.74+,14,Valentine Lopez,PSJA Memorial,149.28,167.83,104.33,172.37,444.52,Single-ply,SBD,M
