Division,WeightClassKg,Place,Name,Team,BodyweightKg,Best3SquatKg,Best3BenchKg,Best3DeadliftKg,TotalKg,Equipment,Event,Sex,BirthDate
Boys,51.71,1,Ryan Fischer,Christoval,50.98,108.86,72.57,129.27,310.71,Single-ply,SBD,M,
Boys,55.79,1,Alejandro Flores,Snyder,54.07,172.37,83.91,174.63,430.91,Single-ply,SBD,M,
Boys,55.79,2,Adrian Avalos,Snyder,54.98,163.29,92.99,170.1,426.38,Single-ply,SBD,M,
Boys,55.79,3,Jasi Galindo,Eldorado,55.79,129.27,72.57,120.2,322.05,Single-ply,SBD,M,
Boys,59.87,1,Chandler Tran,Snyder,59.51,156.49,92.99,170.1,419.57,Single-ply,SBD,M,
Boys,59.87,DQ,Gahel Griner,Christoval,58.51,129.27,,,,Single-ply,SBD,M,
Boys,67.13,1,Jeremiah Orosco,Snyder,65.41,197.31,88.45,172.37,458.13,Single-ply,SBD,M,
Boys,67.13,2,Dylan McPherson,Christoval,64.86,167.83,99.79,163.29,430.91,Single-ply,SBD,M,
Boys,67.13,3,Angel Salazar,San Angelo Lake View,65.68,142.88,97.52,170.1,410.5,Single-ply,SBD,M,
Boys,67.13,4,Noah Fuentes,Snyder,65,156.49,95.25,156.49,408.23,Single-ply,SBD,M,
Boys,67.13,5,Austin Wood,San Angelo Lake View,60.24,149.69,86.18,151.95,387.82,Single-ply,SBD,M,
Boys,67.13,6,Gadiel Rubio,Monahans,66.5,133.81,86.18,154.22,374.21,Single-ply,SBD,M,
Boys,67.13,7,Tristan Elkins,Christoval,62.96,136.08,79.38,142.88,358.34,Single-ply,SBD,M,
Boys,67.13,8,Rancie Pruitt,Christoval,64.86,138.35,83.91,131.54,353.8,Single-ply,SBD,M,
Boys,67.13,9,Ayden Robinson,San Angelo Lake View,64.68,133.81,83.91,131.54,349.27,Single-ply,SBD,M,
Boys,67.13,10,Jaxon Yeager,Eldorado,63.05,104.33,72.57,145.15,322.05,Single-ply,SBD,M,
Boys,67.13,11,Logan McNeely,Monahans,61.96,113.4,65.77,138.35,317.51,Single-ply,SBD,M,
Boys,67.13,DQ,Jose Contreras,Eldorado,63.05,,,,,Single-ply,SBD,M,
Boys,67.13,DQ,Luis Cabrera,Snyder,66.95,,,,,Single-ply,SBD,M,
Boys,74.84,1,Jay Castillo,Snyder,74.39,174.63,104.33,183.7,462.66,Single-ply,SBD,M,
Boys,74.84,2,Tanner Jones,Monahans,74.12,165.56,106.59,170.1,442.25,Single-ply,SBD,M,
Boys,74.84,3,Aizik Soto,Eldorado,74.75,149.69,88.45,199.58,437.72,Single-ply,SBD,M,
Boys,74.84,4,Diego Aguilera,San Angelo Lake View,70.4,156.49,99.79,172.37,428.64,Single-ply,SBD,M,
Boys,74.84,5,Victor Aguirre,San Angelo Lake View,71.03,163.29,97.52,142.88,403.7,Single-ply,SBD,M,
Boys,74.84,6,Rene Orona,Monahans,72.3,140.61,90.72,163.29,394.63,Single-ply,SBD,M,
Boys,74.84,7,Noah Powell,Monahans,68.86,138.35,79.38,142.88,360.61,Single-ply,SBD,M,
Boys,74.84,8,Mark Weston,San Angelo Lake View,71.03,136.08,81.65,142.88,360.61,Single-ply,SBD,M,
Boys,74.84,9,John Aguirre,San Angelo Lake View,74.39,117.93,63.5,111.13,292.57,Single-ply,SBD,M,
Boys,82.1,1,Bryan Bejarano,Monahans,76.57,142.88,97.52,197.31,437.72,Single-ply,SBD,M,
Boys,89.81,1,Xander Richardson,Snyder,88,215.46,129.27,215.46,560.19,Single-ply,SBD,M,
Boys,89.81,2,Jaysen Santellano,Eldorado,86.45,158.76,117.93,190.51,467.2,Single-ply,SBD,M,
Boys,89.81,3,Auston Jahn,Snyder,89.63,183.7,88.45,163.29,435.45,Single-ply,SBD,M,
Boys,89.81,4,Zaid Hernandez,Eldorado,85.09,142.88,102.06,172.37,417.3,Single-ply,SBD,M,
Boys,99.79,1,Cesar Olvera,Snyder,99.25,204.12,151.95,192.78,548.85,Single-ply,SBD,M,
Boys,99.79,2,Lucas Ordonez,Monahans,94.08,197.31,138.35,199.58,535.24,Single-ply,SBD,M,
Boys,99.79,3,Joseph Vowles,Monahans,99.25,188.24,122.47,201.85,512.56,Single-ply,SBD,M,
Boys,99.79,4,Zach Kelly,Christoval,94.8,151.95,102.06,181.44,435.45,Single-ply,SBD,M,
Boys,99.79,5,Xavier Rangel,San Angelo Lake View,97.7,156.49,113.4,161.03,430.91,Single-ply,SBD,M,
Boys,109.77,1,Jaylon James,Snyder,108.86,269.89,149.69,219.99,639.57,Single-ply,SBD,M,
Boys,109.77,2,Vinny Pina,Eldorado,106.23,231.33,133.81,249.48,614.62,Single-ply,SBD,M,
Boys,109.77,3,Alex Alcantar,San Angelo Lake View,106.32,242.67,142.88,219.99,605.55,Single-ply,SBD,M,
Boys,109.77,4,Jacob Payne,Monahans,107.05,231.33,136.08,215.46,582.87,Single-ply,SBD,M,
Boys,109.77,5,Isaac Cordova,San Angelo Lake View,102.15,213.19,120.2,204.12,537.51,Single-ply,SBD,M,
Boys,109.77,6,Kaleb Dye,Christoval,109.23,210.92,122.47,195.04,528.44,Single-ply,SBD,M,
Boys,109.77,7,Seth Parker,Eldorado,100.43,172.37,92.99,183.7,449.06,Single-ply,SBD,M,
Boys,124.74,1,Juan Ortiz,San Angelo Lake View,123.83,288.03,179.17,269.89,737.09,Single-ply,SBD,M,
Boys,124.74,2,Drew Coker,Monahans,118.39,251.74,142.88,222.26,616.89,Single-ply,SBD,M,
Boys,124.74,3,Moises Rodriguez,Monahans,113.31,206.38,142.88,233.6,582.87,Single-ply,SBD,M,
Boys,124.74,4,Vance Martinez,Snyder,117.75,231.33,127.01,219.99,578.33,Single-ply,SBD,M,
Boys,124.74,5,Willie Rodriguez,San Angelo Lake View,120.84,226.8,154.22,188.24,569.26,Single-ply,SBD,M,
Boys,124.74,6,Austin Kotsch,Eldorado,121.02,167.83,142.88,199.58,510.29,Single-ply,SBD,M,
Boys,124.74,7,Jon Cardenas,San Angelo Lake View,119.02,154.22,97.52,154.22,405.97,Single-ply,SBD,M,
Boys,124.74,8,Malilk Persley,San Angelo Lake View,116.48,117.93,72.57,127.01,317.51,Single-ply,SBD,M,
Boys,139.71,1,Ernesto Nava,Eldorado,129.82,276.69,167.83,229.06,673.58,Single-ply,SBD,M,
Boys,139.71,2,John Cepeda,San Angelo Lake View,125.1,204.12,138.35,181.44,523.9,Single-ply,SBD,M,
