Division,WeightClassKg,Place,Name,Team,BodyweightKg,Best3SquatKg,Best3BenchKg,Best3DeadliftKg,TotalKg,Equipment,Event,Sex,BirthDate
Boys,51.71,1,Keaton Whitehead,Normangee,46.27,99.79,47.63,92.99,240.4,Single-ply,SBD,M,
Boys,55.79,1,Hayden Sechelski,Anderson-Shiro,53.98,113.4,74.84,138.35,326.59,Single-ply,SBD,M,
Boys,55.79,2,Javier Zarate,Normangee,55.7,111.13,56.7,122.47,290.3,Single-ply,SBD,M,
Boys,59.87,1,Liam Gale,Normangee,59.78,131.54,83.91,136.08,351.53,Single-ply,SBD,M,
Boys,59.87,2,Richard Ross,Normangee,59.78,122.47,65.77,138.35,326.59,Single-ply,SBD,M,
Boys,67.13,1,Kyler Sanders,Franklin,66.68,129.27,97.52,151.95,378.75,Single-ply,SBD,M,
Boys,67.13,2,Zane O'Neil,Normangee,66.77,142.88,72.57,151.95,367.41,Single-ply,SBD,M,
Boys,67.13,3,Zach Baker,Anderson-Shiro,60.42,142.88,68.04,151.95,362.87,Single-ply,SBD,M,
Boys,67.13,4,Ethan Theriot,Anderson-Shiro,60.42,133.81,63.5,147.42,344.73,Single-ply,SBD,M,
Boys,74.84,1,Kaleb Walter,Navasota,72.21,170.1,104.33,183.7,458.13,Single-ply,SBD,M,
Boys,74.84,2,M'Kheilan Woods,Navasota,74.75,174.63,79.38,174.63,428.64,Single-ply,SBD,M,
Boys,74.84,3,Hayden Theriot,Anderson-Shiro,73.48,165.56,72.57,176.9,415.04,Single-ply,SBD,M,
Boys,74.84,4,Kaden Adams #2,Franklin,70.85,149.69,83.91,151.95,385.55,Single-ply,SBD,M,
Boys,74.84,5,Thomas Watson,Franklin,69.94,149.69,92.99,140.61,383.29,Single-ply,SBD,M,
Boys,74.84,6,Hunter Theis,Normangee,72.85,149.69,74.84,145.15,369.68,Single-ply,SBD,M,
Boys,82.1,1,Travis Anderson,Anderson-Shiro,81.01,199.58,108.86,213.19,521.63,Single-ply,SBD,M,
Boys,82.1,2,Andre Nguyen,Anderson-Shiro,78.2,204.12,104.33,197.31,505.76,Single-ply,SBD,M,
Boys,82.1,3,Noah Daniel,Anderson-Shiro,80.74,185.97,104.33,195.04,485.34,Single-ply,SBD,M,
Boys,89.81,1,Duncan Benton,Anderson-Shiro,89.09,249.48,136.08,215.46,601.01,Single-ply,SBD,M,
Boys,89.81,2,Brayden Youree,Franklin,86,229.06,142.88,204.12,576.06,Single-ply,SBD,M,
Boys,89.81,3,William Bagley,Anderson-Shiro,86.45,161.03,92.99,147.42,401.43,Single-ply,SBD,M,
Boys,89.81,4,Conner Seigle,Anderson-Shiro,84.55,165.56,74.84,158.76,399.16,Single-ply,SBD,M,
Boys,89.81,5,Case Wells,Normangee,86.27,163.29,81.65,154.22,399.16,Single-ply,SBD,M,
Boys,89.81,6,Lucas Linceum,Franklin,83.19,149.69,88.45,156.49,394.63,Single-ply,SBD,M,
Boys,99.79,1,Cemion Smith,Franklin,91.08,204.12,104.33,204.12,512.56,Single-ply,SBD,M,
Boys,99.79,2,Caden Hooter,Anderson-Shiro,94.08,204.12,102.06,206.38,512.56,Single-ply,SBD,M,
Boys,99.79,3,Noah Silcox,Navasota,91.81,192.78,92.99,215.46,501.22,Single-ply,SBD,M,
Boys,99.79,4,Chance Risner,Navasota,95.71,183.7,124.74,183.7,492.15,Single-ply,SBD,M,
Boys,99.79,5,Tyler Sierra,Navasota,90.72,183.7,97.52,188.24,469.47,Single-ply,SBD,M,
Boys,109.77,1,Jose Molina,Normangee,109.68,276.69,165.56,233.6,675.85,Single-ply,SBD,M,
Boys,109.77,2,Braylon Cornish,Normangee,106.32,254.01,138.35,222.26,614.62,Single-ply,SBD,M,
Boys,109.77,3,Eduardo Perez,Navasota,101.15,201.85,115.67,188.24,505.76,Single-ply,SBD,M,
Boys,109.77,4,Andres Tobias,Navasota,100.7,183.7,111.13,183.7,478.54,Single-ply,SBD,M,
Boys,109.77,5,Nathan Villegas,Anderson-Shiro,102.33,195.04,92.99,181.44,469.47,Single-ply,SBD,M,
Boys,109.77,6,Drew Chavez,Navasota,104.51,161.03,99.79,192.78,453.59,Single-ply,SBD,M,
Boys,109.77,7,Nate Frank,Franklin,103.87,181.44,106.59,163.29,451.32,Single-ply,SBD,M,
Boys,109.77,8,David Romero,Navasota,100.33,165.56,88.45,188.24,442.25,Single-ply,SBD,M,
Boys,109.77,9,Ethan Curtsinger,Franklin,103.24,163.29,111.13,142.88,417.3,Single-ply,SBD,M,
Boys,109.77,10,Jacob Arrellano,Navasota,102.69,165.56,83.91,161.03,410.5,Single-ply,SBD,M,
Boys,124.74,1,Andrew Narro,Franklin,115.03,263.08,151.95,217.72,632.76,Single-ply,SBD,M,
Boys,124.74,2,Mathew Sosa,Navasota,115.03,197.31,92.99,215.46,505.76,Single-ply,SBD,M,
Boys,124.74,3,Jace Metzer,Normangee,118.21,204.12,97.52,172.37,474,Single-ply,SBD,M,
Boys,124.74,4,Trent Ellison,Franklin,115.3,176.9,99.79,158.76,435.45,Single-ply,SBD,M,
Boys,124.74,5,Cyrus Fuchs,Franklin,119.84,20.41,115.67,185.97,322.05,Single-ply,SBD,M,
Boys,124.74,6,Darren Edwards,Normangee,120.84,97.52,92.99,113.4,303.91,Single-ply,SBD,M,
Boys,139.71,1,Jose Lopez,Navasota,126.55,219.99,113.4,219.99,553.38,Single-ply,SBD,M,
