Place,Name,Sex,BirthDate,Age,State,Equipment,Division,BodyweightKg,WeightClassKg,Squat1Kg,Squat2Kg,Squat3Kg,Best3SquatKg,Bench1Kg,Bench2Kg,Bench3Kg,Best3BenchKg,Deadlift1Kg,Deadlift2Kg,Deadlift3Kg,Best3DeadliftKg,TotalKg,Event
1,Tiffany Bellamy,F,1979-08-28,42,SC,Wraps,RM-M40-P,51,52,105,112.5,115,115,50,52.5,55,55,125,132.5,137.5,137.5,307.5,SBD
1,Traci Baggett,F,1972-12-09,49,GA,Wraps,RM-M45-P,87.6,90,147.5,162.5,167.5,167.5,70,82.5,87.5,87.5,165,182.5,190,190,445,SBD
1,Makenzie Dewar,F,1999-05-07,22,NC,Wraps,RM-O-A,64.2,67.5,-117.5,117.5,120,120,-80,80,-82.5,80,147.5,155,-160,155,355,SBD
1,Abby Morgan,F,1998-02-09,24,NC,Wraps,RM-O-A,74,75,145,157.5,-165,157.5,80,85,-90,85,135,145,-150,145,387.5,SBD
2,Jennah Reynolds,F,,15,NC,Raw,RM-O-A,69.3,75,90,92.5,95,95,45,-50,50,50,107.5,112.5,117.5,117.5,262.5,SBD
1,Taylor Williams #3,F,1995-05-19,26,NC,Raw,RM-O-A,110.2,110+,135,142.5,152.5,152.5,87.5,92.5,95,95,152.5,-160,-160,152.5,400,SBD
1,Tiffany Bellamy,F,1979-08-28,42,SC,Wraps,RM-O-P,51,52,105,112.5,115,115,50,52.5,55,55,125,132.5,137.5,137.5,307.5,SBD
1,Alicia Schwenker,F,1996-09-06,25,KY,Wraps,RM-O-P,75,75,157.5,170,180,180,72.5,80,85,85,167.5,182.5,190,190,455,SBD
DQ,Jennifer Friday,F,1984-10-10,37,SC,Wraps,RM-S33-A,73.8,75,-117.5,-117.5,-117.5,,50,55,62.5,62.5,125,137.5,152.5,152.5,,SBD
1,Jennah Reynolds,F,,15,NC,Raw,RM-T14-A,69.3,75,90,92.5,95,95,45,-50,50,50,107.5,112.5,117.5,117.5,262.5,SBD
1,Lily Young,F,2003-01-29,19,SC,Wraps,RM-T18-A,65.6,67.5,102.5,-110,-110,102.5,70,75,80,80,112.5,122.5,-127.5,122.5,305,SBD
1,Katie Reynolds,F,2009-08-13,12,KY,Raw,RM-Y-A,90.2,100,95,105,-115,105,57.5,-62.5,62.5,62.5,110,120,127.5,127.5,295,SBD
1,Jennifer Friday,F,1984-10-10,37,SC,Raw,RM-S33-A,73.8,75,,,,,50,55,62.5,62.5,125,137.5,152.5,152.5,215,BD
1,Clifton Nelson,M,1990-11-18,31,SC,Wraps,RM-O-A,78.2,82.5,175,200,-210,200,140,-155,155,155,270,280,-290,280,635,SBD
1,Clifton Nelson,M,1990-11-18,31,SC,Wraps,RM-PF-A,78.2,82.5,175,200,-210,200,140,-155,155,155,270,280,-290,280,635,SBD
1,Johnathan Martin,M,2001-05-14,20,TN,Raw,RM-J20-A,81.2,82.5,142.5,-145,145,145,92.5,95,-97.5,95,180,185,192.5,192.5,432.5,SBD
2,Jacob Carver,M,2000-07-22,21,TN,Raw,RM-J20-A,78,82.5,-125,125,135,135,92.5,95,-97.5,95,132.5,140,145,145,375,SBD
1,Sean Doyle,M,1997-08-12,24,AL,Raw,RM-O-A,95.6,100,220,245,-272.5,245,-120,142.5,-155,142.5,220,245,255,255,642.5,SBD
2,Logan Wicks,M,2002-01-13,20,SC,Raw,RM-J20-A,90.4,100,185,197.5,-205,197.5,152.5,157.5,-167.5,157.5,25,-27.5,-27.5,25,380,SBD
1,Jon Rand,M,1999-08-06,22,NC,Wraps,RM-J20-P,106,110,300,322.5,340,340,175,187.5,195,195,267.5,287.5,-305,287.5,822.5,SBD
1,Sam Greggs,M,1978-10-08,43,SC,Wraps,RM-M40-A,86.4,90,240,-255,-260,240,-172.5,172.5,175,175,240,-245,-245,240,655,SBD
DQ,Harold Baker,M,1974-08-25,47,SC,Wraps,RM-M45-A,98.4,100,187.5,200,-215,200,-182.5,-182.5,-182.5,,240,-247.5,-247.5,240,,SBD
1,Sam Greggs,M,1978-10-08,43,SC,Wraps,RM-MIL-A,86.4,90,240,-255,-260,240,-172.5,172.5,175,175,240,-245,-245,240,655,SBD
1,Matthew Halstead,M,1991-06-30,30,WV,Wraps,RM-O-A,87.2,90,237.5,-247.5,-247.5,237.5,155,-162.5,165,165,245,-260,260,260,662.5,SBD
1,Frank Martorana,M,1994-01-04,28,NC,Wraps,RM-O-A,104.2,110,227.5,240,245,245,140,147.5,160,160,227.5,235,-247.5,235,640,SBD
1,Bob Kent,M,1968-01-19,54,NC,Wraps,RM-O-A,110.8,125,210,220,227.5,227.5,130,137.5,145,145,227.5,240,250,250,622.5,SBD
1,Joey Webb,M,1988-09-29,33,GA,Wraps,RM-O-P,62,67.5,137.5,147.5,-155,147.5,115,122.5,-127.5,122.5,165,-185,185,185,455,SBD
1,Devon Porter,M,1998-02-11,24,SC,Wraps,RM-O-P,89,90,305,-322.5,-322.5,305,187.5,192.5,-200,192.5,325,340,-355,340,837.5,SBD
2,Kris Henderson #1,M,1989-08-22,32,GA,Wraps,RM-O-P,84.7,90,207.5,215,227.5,227.5,130,140,142.5,142.5,215,235,245,245,615,SBD
3,Eric Kremer,M,1988-06-16,33,SC,Wraps,RM-O-P,89.7,90,-210,-222.5,235,235,140,-150,-150,140,205,217.5,-232.5,217.5,592.5,SBD
1,Justin Williams #1,M,1992-12-23,29,NC,Wraps,RM-O-P,98.2,100,320,340,-347.5,340,192.5,200,205,205,302.5,320,-325,320,865,SBD
2,Charles Trott,M,1989-06-23,32,GA,Wraps,RM-O-P,98.2,100,170,185,195,195,130,140,145,145,227.5,247.5,-272.5,247.5,587.5,SBD
3,Jared Adams,M,1987-01-29,35,KY,Raw,RM-O-P,99.2,100,150,160,170,170,110,120,-122.5,120,245,262.5,-265,262.5,552.5,SBD
1,Steven Cook,M,1985-05-24,,GA,Raw,RM-O-P,103.9,110,205,-220,-227.5,205,170,175,182.5,182.5,215,222.5,-245,222.5,610,SBD
DQ,Tyler Parlier,M,1988-04-06,34,NC,Wraps,RM-O-P,137.8,140,292.5,-305,305,305,-197.5,-197.5,-197.5,,-320,-320,-320,,,SBD
1,Jared Adams,M,1987-01-29,35,KY,Raw,RM-S33-P,99.2,100,150,160,170,170,110,120,-122.5,120,245,262.5,-265,262.5,552.5,SBD
1,Luke Berg,M,2002-12-03,19,SC,Raw,RM-T18-A,87.8,90,190,195,202.5,202.5,122.5,132.5,-137.5,132.5,215,237.5,245,245,580,SBD
1,Michael Dagostino,M,2002-11-26,19,SC,Raw,RM-T18-A,115.8,125,212.5,232.5,250,250,25,-27.5,-27.5,25,237.5,265,-282.5,265,540,SBD
1,William Evans,M,,32,TN,Raw,RC-MIL-P,82,82.5,,,,,125,-140,-140,125,210,-230,-230,210,335,BD
1,William Evans,M,,32,TN,Raw,RC-O-P,82,82.5,,,,,125,-140,-140,125,210,-230,-230,210,335,BD
1,Ian McKay #1,M,1988-08-31,33,NC,Raw,RM-O-P,151.2,140+,,,,,235,250,260,260,315,330,-337.5,330,590,BD
