﻿Frauen
Platzierung  Name                                   Ort           Körpergewicht   1. Versuch   2. Versuch   3. Versuch   Punkte
1.                  Daria Schütze                   Schwerin      55,0 kg         65,0 kg      70,0 kg      75,0 kg      145,65
2.                  Svenja Parakenings              Lüneburg      53,0 kg         40,0 kg      45,0 kg      50,0 kg      101,40
Junioren
Platzierung         Name                            Ort           Körpergewicht   1. Versuch   2. Versuch   3. Versuch   Punkte
1.                  Simon Quitzau                   Schleswig     64,6 kg         130,0 kg     135,0 kg     135,0 kg     175,50
2.                  Nando Stoll                     Rehna         88,0 kg         160,0 kg     170,0 kg     180,0 kg     167,10
3.                  Kevin Banz                      Lüneburg      78,0 kg         125,0 kg     135,0 kg     140,0 kg     150,90
4.                  David Hamann                    Elmshorn      80,5 kg         135,0 kg     140,0 kg     145,0 kg     146,70
5.                  Andy Teitge                     Seehausen     105,1 kg        145,0 kg     150,0 kg     155,0 kg     139,20
6.                  Chris Beyer                     Lüneburg      99,0 kg         130,0 kg     140,0 kg     150,0 kg     137,80
7.                  Martin Marucha                  Rehna         93,0 kg         120,0 kg     130,0 kg     135,0 kg     127,90
8.                  Tim Riemland                    Seehausen     76,0 kg         110,0 kg     120,0 kg     120,0 kg     121,30
9.                  Victor Derr                     Lüneburg      92,0 kg         100,0 kg     110,0 kg     110,0 kg     95,40
Senioren
Platzierung         Name                            Ort           Körpergewicht   1. Versuch   2. Versuch   3. Versuch   Punkte
1.                  Kai - Uwe Göllnitz              Büdelsdorf    120,0 kg        200,0 kg     210,0 kg     220,0 kg     190,08
2.                  Csaba Ambrus                    Rendsburg     105,8 kg        170,0 kg     180,0 kg     190,0 kg     170,24
3.                  Marcel Marossow                 Bad Doberan   83,6 kg         135,0 kg     140,0 kg     145,0 kg     147,75
Masters
Platzierung         Name                            Ort           Körpergewicht   1. Versuch   2. Versuch   3. Versuch   Punkte
1.                  Hans-Jürgen Borkowski (57 J.)   Elmshorn      93,0 kg         150,0 kg     155,0 kg     160,0 kg     196,72
2.                  Torsten Koch (43 J.)            Neumünster    88,2 kg         125,0 kg     130,0 kg     135,0 kg     131,37
3.                  Christoph Komorowski (41 J.)    Kiel          95,6 kg         125,0 kg     130,0 kg     135,0 kg     129,72
4.                  Waldemar Arnold (48 J.)         Kiel          106,8 kg        120,0 kg     125,0 kg     130,0 kg     126,32
